test/fft_engine/wave/fft_engine_tb_20250702_23:35:38.vcd
$date
	Wed Jul  2 23:35:49 2025
$end
$version
	Icarus Verilog
$end
$timescale
	1ps
$end
$scope module fft_engine_tb $end
$var wire 1 ! clk $end
$var wire 8 " in0_imag [7:0] $end
$var wire 8 # in0_real [7:0] $end
$var wire 8 $ in1_imag [7:0] $end
$var wire 8 % in1_real [7:0] $end
$var wire 8 & in2_imag [7:0] $end
$var wire 8 ' in2_real [7:0] $end
$var wire 8 ( in3_imag [7:0] $end
$var wire 8 ) in3_real [7:0] $end
$var wire 1 * rst $end
$var wire 8 + out3_real [7:0] $end
$var wire 8 , out3_imag [7:0] $end
$var wire 8 - out2_real [7:0] $end
$var wire 8 . out2_imag [7:0] $end
$var wire 8 / out1_real [7:0] $end
$var wire 8 0 out1_imag [7:0] $end
$var wire 8 1 out0_real [7:0] $end
$var wire 8 2 out0_imag [7:0] $end
$scope module dut $end
$var wire 1 ! clk $end
$var wire 8 3 in0_imag [7:0] $end
$var wire 8 4 in0_real [7:0] $end
$var wire 8 5 in1_imag [7:0] $end
$var wire 8 6 in1_real [7:0] $end
$var wire 8 7 in2_imag [7:0] $end
$var wire 8 8 in2_real [7:0] $end
$var wire 8 9 in3_imag [7:0] $end
$var wire 8 : in3_real [7:0] $end
$var wire 1 * rst $end
$var wire 8 ; bfly_pos_real [7:0] $end
$var wire 8 < bfly_pos_imag [7:0] $end
$var wire 8 = bfly_neg_real [7:0] $end
$var wire 8 > bfly_neg_imag [7:0] $end
$var reg 8 ? out0_imag [7:0] $end
$var reg 8 @ out0_real [7:0] $end
$var reg 8 A out1_imag [7:0] $end
$var reg 8 B out1_real [7:0] $end
$var reg 8 C out2_imag [7:0] $end
$var reg 8 D out2_real [7:0] $end
$var reg 8 E out3_imag [7:0] $end
$var reg 8 F out3_real [7:0] $end
$scope module bfly_stage1_0 $end
$var wire 8 G A_imag [7:0] $end
$var wire 8 H A_real [7:0] $end
$var wire 8 I B_imag [7:0] $end
$var wire 8 J B_real [7:0] $end
$var wire 8 K W_imag [7:0] $end
$var wire 8 L W_real [7:0] $end
$var wire 16 M product_real [15:0] $end
$var wire 16 N product_imag [15:0] $end
$var wire 8 O Pos_real [7:0] $end
$var wire 8 P Pos_imag [7:0] $end
$var wire 8 Q Neg_real [7:0] $end
$var wire 8 R Neg_imag [7:0] $end
$upscope $end
$scope module bfly_stage1_1 $end
$var wire 8 S A_imag [7:0] $end
$var wire 8 T A_real [7:0] $end
$var wire 8 U B_imag [7:0] $end
$var wire 8 V B_real [7:0] $end
$var wire 8 W W_imag [7:0] $end
$var wire 8 X W_real [7:0] $end
$var wire 16 Y product_real [15:0] $end
$var wire 16 Z product_imag [15:0] $end
$var wire 8 [ Pos_real [7:0] $end
$var wire 8 \ Pos_imag [7:0] $end
$var wire 8 ] Neg_real [7:0] $end
$var wire 8 ^ Neg_imag [7:0] $end
$upscope $end
$scope module bfly_stage2_1 $end
$var wire 8 _ A_imag [7:0] $end
$var wire 8 ` A_real [7:0] $end
$var wire 8 a B_imag [7:0] $end
$var wire 8 b B_real [7:0] $end
$var wire 8 c W_imag [7:0] $end
$var wire 8 d W_real [7:0] $end
$var wire 16 e product_real [15:0] $end
$var wire 16 f product_imag [15:0] $end
$var wire 8 g Pos_real [7:0] $end
$var wire 8 h Pos_imag [7:0] $end
$var wire 8 i Neg_real [7:0] $end
$var wire 8 j Neg_imag [7:0] $end
$upscope $end
$upscope $end
$upscope $end
$enddefinitions $end
#0
$dumpvars
b0 j
b1 i
b0 h
b1 g
b0 f
b0 e
b0 d
b10000000 c
b0 b
b0 a
b1 `
b0 _
b0 ^
b0 ]
b0 \
b0 [
b0 Z
b0 Y
b10000000 X
b0 W
b0 V
b0 U
b0 T
b0 S
b0 R
b1 Q
b0 P
b1 O
b0 N
b0 M
b10000000 L
b0 K
b0 J
b0 I
b1 H
b0 G
bx F
bx E
bx D
bx C
bx B
bx A
bx @
bx ?
b0 >
b1 =
b0 <
b1 ;
b0 :
b0 9
b0 8
b0 7
b0 6
b0 5
b1 4
b0 3
bx 2
bx 1
bx 0
bx /
bx .
bx -
bx ,
bx +
0*
b0 )
b0 (
b0 '
b0 &
b0 %
b0 $
b1 #
b0 "
1!
$end
#1001
b10 ;
b10 g
b10 =
b10 i
b11111110 <
b11111110 h
b10 >
b10 j
b0 O
b10 Q
b10 `
b0 [
b1111111100000000 f
b10 ]
b10 b
b1111111110000000 Y
b1 )
b1 :
b1 V
b1111111110000000 M
b1 '
b1 8
b1 J
b1 %
b1 6
b1 T
#6001
0!
#11001
b10 ,
b10 E
b10 +
b10 F
b11111110 0
b11111110 A
b10 /
b10 B
b0 .
b0 C
b0 -
b0 D
b0 2
b0 ?
b0 1
b0 @
1!
#12002
b111100 <
b111100 h
b1110100 >
b1110100 j
b1100100 ;
b1100100 g
b10100 =
b10100 i
b10001000 \
b1010000000000 e
b101000 ^
b101000 a
b101000 [
b11001000000000 f
b10011100 ]
b10011100 b
b1010000 P
b11011000 R
b11011000 _
b11011000 O
b111100 Q
b111100 `
b1101100000000000 Z
b1010000 (
b1010000 9
b1010000 U
b10001100000000 Y
b10111010 )
b10111010 :
b10111010 V
b1111000000000 N
b11000100 &
b11000100 7
b11000100 I
b1110011100000000 M
b110010 '
b110010 8
b110010 J
b11011000 $
b11011000 5
b11011000 S
b11100010 %
b11100010 6
b11100010 T
b10100 "
b10100 3
b10100 G
b1010 #
b1010 4
b1010 H
#17002
0!
#22002
b1110100 ,
b1110100 E
b10100 +
b10100 F
b111100 0
b111100 A
b1100100 /
b1100100 B
b11001000 .
b11001000 C
b10110000 -
b10110000 D
b11011000 2
b11011000 ?
1!
#23003
b1110001 <
b1110001 h
b1000011 >
b1000011 j
b1010110 ;
b1010110 g
b101000 =
b101000 i
b11111111 \
b101110000000 e
b10111 ^
b10111 a
b1010101 [
b1100101110000000 f
b1101001 ]
b1101001 b
b100100 P
b11011010 R
b11011010 _
b1111101 O
b111111 Q
b111111 `
b1111101000000000 Z
b1100 (
b1100 9
b1100 U
b11101100000000 Y
b10001010 )
b10001010 :
b10001010 V
b1101001010000000 N
b1011011 &
b1011011 7
b1011011 I
b111110000000 M
b11100001 '
b11100001 8
b11100001 J
b1011 $
b1011 5
b1011 S
b11011111 %
b11011111 6
b11011111 T
b1111111 "
b1111111 3
b1111111 G
b1011110 #
b1011110 4
b1011110 H
#28003
0!
#33003
b1000011 ,
b1000011 E
b101000 +
b101000 F
b1110001 0
b1110001 A
b1010110 /
b1010110 B
b100101 .
b100101 C
b101000 -
b101000 D
b100011 2
b100011 ?
b11010010 1
b11010010 @
1!
#34003
b1001010 <
b1001010 h
b111110 >
b111110 j
b10110100 ;
b10110100 g
b11111010 =
b11111010 i
b11110111 \
b10111010000000 e
b1011101 ^
b1011101 a
b10010110 [
b1100000000 f
b11111010 ]
b11111010 b
b1111100 P
b1000100 R
b1000100 _
b10010001 O
b1010111 Q
b1010111 `
b10011010000000 Z
b10110011 (
b10110011 9
b10110011 U
b1110011100000000 Y
b110010 )
b110010 :
b110010 V
b111000000000 N
b11100100 &
b11100100 7
b11100100 I
b111010000000 M
b11100011 '
b11100011 8
b11100011 J
b10101010 $
b10101010 5
b10101010 S
b11001000 %
b11001000 6
b11001000 T
b1100000 "
b1100000 3
b1100000 G
b1110100 #
b1110100 4
b1110100 H
#38003
0!
#43003
b111110 ,
b111110 E
b11111010 +
b11111010 F
b1001010 0
b1001010 A
b10110100 /
b10110100 B
b10000101 .
b10000101 C
b11111011 -
b11111011 D
b1110011 2
b1110011 ?
b100111 1
b100111 @
1!
#44003
b10101100 <
b10101100 h
b11101100 >
b11101100 j
b11001111 ;
b11001111 g
b11110101 =
b11110101 i
b1100011 \
b1111011010000000 e
b11101101 ^
b11101101 a
b1010010 [
b11000000000000 f
b10100000 ]
b10100000 b
b10100110 P
b1001100 R
b1001100 _
b101110 O
b11100010 Q
b11100010 `
b1110110000000 Z
b11000101 (
b11000101 9
b11000101 U
b10110010000000 Y
b10100111 )
b10100111 :
b10100111 V
b1011010000000 N
b11010011 &
b11010011 7
b11010011 I
b1101001100000000 M
b1011010 '
b1011010 8
b1011010 J
b101000 $
b101000 5
b101000 S
b11111001 %
b11111001 6
b11111001 T
b1111001 "
b1111001 3
b1111001 G
b10001000 #
b10001000 4
b10001000 H
#48003
0!
#53003
b11101100 ,
b11101100 E
b11110101 +
b11110101 F
b10101100 0
b10101100 A
b11001111 /
b11001111 B
b1000011 .
b1000011 C
b11011100 -
b11011100 D
b1001 2
b1001 ?
b10000000 1
b10000000 @
1!
#54003
b10001010 <
b10001010 h
b11001100 >
b11001100 j
b1010101 ;
b1010101 g
b10000101 =
b10000101 i
b10111110 \
b1111010000000000 e
b11101000 ^
b11101000 a
b111101 [
b10111110000000 f
b10100001 ]
b10100001 b
b10010011 P
b101011 R
b101011 _
b1100001 O
b1101101 Q
b1101101 `
b11010110000000 Z
b10010101 (
b10010101 9
b10010101 U
b1110011100000000 Y
b110010 )
b110010 :
b110010 V
b1101101000000000 N
b1001100 &
b1001100 7
b1001100 I
b1111110100000000 M
b110 '
b110 8
b110 J
b1010011 $
b1010011 5
b1010011 S
b1101111 %
b1101111 6
b1101111 T
b11011111 "
b11011111 3
b11011111 G
b1100111 #
b1100111 4
b1100111 H
#58003
0!
#63003
b11001100 ,
b11001100 E
b10000101 +
b10000101 F
b10001010 0
b10001010 A
b1010101 /
b1010101 B
b11010101 .
b11010101 C
b100100 -
b100100 D
b1010001 2
b1010001 ?
b10011110 1
b10011110 @
1!
#64003
b1101011 <
b1101011 h
b1011101 >
b1011101 j
b10101000 ;
b10101000 g
b11000 =
b11000 i
b1100000 \
b1110010000000000 e
b11001000 ^
b11001000 a
b100101 [
b1100001110000000 f
b1111001 ]
b1111001 b
b101000 P
b11100100 R
b11100100 _
b1010010 O
b11100000 Q
b11100000 `
b1110011000000000 Z
b110100 (
b110100 9
b110100 U
b10101100000000 Y
b10101010 )
b10101010 :
b10101010 V
b1101000100000000 N
b1011110 &
b1011110 7
b1011110 I
b1101110010000000 M
b1000111 '
b1000111 8
b1000111 J
b10010100 $
b10010100 5
b10010100 S
b11001111 %
b11001111 6
b11001111 T
b10000110 "
b10000110 3
b10000110 G
b10011001 #
b10011001 4
b10011001 H
#68003
0!
#73003
b1011101 ,
b1011101 E
b11000 +
b11000 F
b1101011 0
b1101011 A
b10101000 /
b10101000 B
b11001000 .
b11001000 C
b101101 -
b101101 D
b10001000 2
b10001000 ?
b1110111 1
b1110111 @
1!
#74003
b1110000 <
b1110000 h
b101110 >
b101110 j
b11001111 ;
b11001111 g
b10111111 =
b10111111 i
b10011000 \
b10000000000 e
b1000 ^
b1000 a
b11100111 [
b1000010000000 f
b11011111 ]
b11011111 b
b1110011 P
b1001111 R
b1001111 _
b1110111 O
b11000111 Q
b11000111 `
b1110010000000000 Z
b111000 (
b111000 9
b111000 U
b1100001000000000 Y
b1111100 )
b1111100 :
b1111100 V
b1100100100000000 N
b1101110 &
b1101110 7
b1101110 I
b10110000000000 M
b10101000 '
b10101000 8
b10101000 J
b11010000 $
b11010000 5
b11010000 S
b1100011 %
b1100011 6
b1100011 T
b11100001 "
b11100001 3
b11100001 G
b11111 #
b11111 4
b11111 H
#78003
0!
#83003
b101110 ,
b101110 E
b10111111 +
b10111111 F
b1110000 0
b1110000 A
b11001111 /
b11001111 B
b11011011 .
b11011011 C
b10010000 -
b10010000 D
b1011 2
b1011 ?
b1011110 1
b1011110 @
1!
#84003
b10100011 <
b10100011 h
b1011 >
b1011 j
b101110 ;
b101110 g
b11000000 =
b11000000 i
b10101011 \
b1101110000000 e
b110111 ^
b110111 a
b11001100 [
b1110011000000000 f
b110100 ]
b110100 b
b11110111 P
b11010111 R
b11010111 _
b11101 O
b11110111 Q
b11110111 `
b1101110100000000 Z
b1000110 (
b1000110 9
b1000110 U
b10011000000000 Y
b10110100 )
b10110100 :
b10110100 V
b1100100000000000 N
b1110000 &
b1110000 7
b1110000 I
b1100100110000000 M
b1101101 '
b1101101 8
b1101101 J
b11110001 $
b11110001 5
b11110001 S
b10000000 %
b10000000 6
b10000000 T
b1100111 "
b1100111 3
b1100111 G
b10001010 #
b10001010 4
b10001010 H
#88003
0!
#93003
b1011 ,
b1011 E
b11000000 +
b11000000 F
b10100011 0
b10100011 A
b101110 /
b101110 B
b1001100 .
b1001100 C
b1010001 -
b1010001 D
b10100010 2
b10100010 ?
b11101001 1
b11101001 @
1!
#94003
b10000 <
b10000 h
b100010 >
b100010 j
b10011010 ;
b10011010 g
b11100100 =
b11100100 i
b10000111 \
b1110110110000000 e
b11011011 ^
b11011011 a
b10100101 [
b11101110000000 f
b10001001 ]
b10001001 b
b100101 P
b10011001 R
b10011001 _
b11011001 O
b10111111 Q
b10111111 `
b1110101100000000 Z
b101010 (
b101010 9
b101010 U
b11100000000 Y
b11110010 )
b11110010 :
b11110010 V
b10001100000000 N
b10111010 &
b10111010 7
b10111010 I
b1100011010000000 M
b1110011 '
b1110011 8
b1110011 J
b10110001 $
b10110001 5
b10110001 S
b10010111 %
b10010111 6
b10010111 T
b11011111 "
b11011111 3
b11011111 G
b1001100 #
b1001100 4
b1001100 H
#98003
0!
#103003
b100010 ,
b100010 E
b11100100 +
b11100100 F
b10000 0
b10000 A
b10011010 /
b10011010 B
b10011110 .
b10011110 C
b110100 -
b110100 D
b10101100 2
b10101100 ?
b1111110 1
b1111110 @
1!
#104003
b11101011 <
b11101011 h
b10001 >
b10001 j
b101000 ;
b101000 g
b11010010 =
b11010010 i
b1111 \
b1101010110000000 e
b10101011 ^
b10101011 a
b11011 [
b11011010000000 f
b10010011 ]
b10010011 b
b1101100 P
b1111110 R
b1111110 _
b11010111 O
b1111101 Q
b1111101 `
b1100100000000 Z
b11001110 (
b11001110 9
b11001110 U
b10001000000000 Y
b10111100 )
b10111100 :
b10111100 V
b11101110000000 N
b10001001 &
b10001001 7
b10001001 I
b1011010000000 M
b11010011 '
b11010011 8
b11010011 J
b11011101 $
b11011101 5
b11011101 S
b11010111 %
b11010111 6
b11010111 T
b11110101 "
b11110101 3
b11110101 G
b10101010 #
b10101010 4
b10101010 H
#108003
0!
#113003
b10001 ,
b10001 E
b11010010 +
b11010010 F
b11101011 0
b11101011 A
b101000 /
b101000 B
b1011101 .
b1011101 C
b10111100 -
b10111100 D
b1111011 2
b1111011 ?
b11110010 1
b11110010 @
1!
#114003
b10111111 <
b10111111 h
b11001111 >
b11001111 j
b11000101 ;
b11000101 g
b10010001 =
b10010001 i
b1000010 \
b1100110100000000 e
b10011010 ^
b10011010 a
b111110 [
b1111110000000000 f
b1000 ]
b1000 b
b1111001 P
b11000111 R
b11000111 _
b100101 O
b101011 Q
b101011 `
b1110101000000000 Z
b101100 (
b101100 9
b101100 U
b1100110110000000 Y
b1100101 )
b1100101 :
b1100101 V
b10110010000000 N
b10100111 &
b10100111 7
b10100111 I
b11111010000000 M
b10000011 '
b10000011 8
b10000011 J
b1101110 $
b1101110 5
b1101110 S
b10100011 %
b10100011 6
b10100011 T
b100000 "
b100000 3
b100000 G
b10101000 #
b10101000 4
b10101000 H
#118003
0!
#123003
b11001111 ,
b11001111 E
b10010001 +
b10010001 F
b10111111 0
b10111111 A
b11000101 /
b11000101 B
b110111 .
b110111 C
b11100111 -
b11100111 D
b10111011 2
b10111011 ?
b1100011 1
b1100011 @
1!
#124003
b11101111 <
b11101111 h
b101011 >
b101011 j
b100000 ;
b100000 g
b10101000 =
b10101000 i
b11011010 \
b1101111000000000 e
b10111100 ^
b10111100 a
b100 [
b11000100000000 f
b10011110 ]
b10011110 b
b11101111 P
b10001101 R
b10001101 _
b110 O
b1100100 Q
b1100100 `
b11110000000 Z
b11110001 (
b11110001 9
b11110001 U
b1100110000000 Y
b11001101 )
b11001101 :
b11001101 V
b1100010000000 N
b11001111 &
b11001111 7
b11001111 I
b10100010000000 M
b10101111 '
b10101111 8
b10101111 J
b11001011 $
b11001011 5
b11001011 S
b11010001 %
b11010001 6
b11010001 T
b10111110 "
b10111110 3
b10111110 G
b10110101 #
b10110101 4
b10110101 H
#128003
0!
#133003
b101011 ,
b101011 E
b10101000 +
b10101000 F
b11101111 0
b11101111 A
b100000 /
b100000 B
b10101 .
b10101 C
b10 -
b10 D
b11001001 2
b11001001 ?
b1010 1
b1010 @
1!
#134003
b10111010 \
b1110111000000000 e
b11011100 ^
b11011100 a
b100010 <
b100010 h
b11000000 >
b11000000 j
b100010 ;
b100010 g
b1101010 =
b1101010 i
b11100101 [
b1100010000000 f
b11001111 ]
b11001111 b
b1101001 P
b11110001 R
b11110001 _
b1101100 O
b1000110 Q
b1000110 `
b1111011110000000 Z
b10001 (
b10001 9
b10001 U
b1100010110000000 Y
b1110101 )
b1110101 :
b1110101 V
b1101111000000000 N
b1000100 &
b1000100 7
b1000100 I
b100110000000 M
b11101101 '
b11101101 8
b11101101 J
b1011010 %
b1011010 6
b1011010 T
b10101101 "
b10101101 3
b10101101 G
b1011001 #
b1011001 4
b1011001 H
#138003
0!
#143003
b11000000 ,
b11000000 E
b1101010 +
b1101010 F
b100010 0
b100010 A
b100010 /
b100010 B
b10101111 .
b10101111 C
b10000111 -
b10000111 D
b100011 2
b100011 ?
b1010001 1
b1010001 @
1!
#144003
b10001111 <
b10001111 h
b10101011 >
b10101011 j
b101110 ;
b101110 g
b1001010 =
b1001010 i
b1100 \
b1111100100000000 e
b11110010 ^
b11110010 a
b1011110 [
b1111100100000000 f
b1110 ]
b1110 b
b1000111 P
b10011101 R
b10011101 _
b10000100 O
b111100 Q
b111100 `
b1100011010000000 Z
b1110011 (
b1110011 9
b1110011 U
b1010000000000 Y
b11011000 )
b11011000 :
b11011000 V
b1110101010000000 N
b101011 &
b101011 7
b101011 I
b1001000000000 M
b11011100 '
b11011100 8
b11011100 J
b1111111 $
b1111111 5
b1111111 S
b110110 %
b110110 6
b110110 T
b1110010 "
b1110010 3
b1110010 G
b1100000 #
b1100000 4
b1100000 H
#148003
0!
#153003
b10101011 ,
b10101011 E
b1001010 +
b1001010 F
b10001111 0
b10001111 A
b101110 /
b101110 B
b111011 .
b111011 C
b100110 -
b100110 D
b1010011 2
b1010011 ?
b11100010 1
b11100010 @
1!
#154003
b1111101 <
b1111101 h
b1001101 >
b1001101 j
b11001001 ;
b11001001 g
b1001 =
b1001 i
b10101110 \
b1111000000000000 e
b11100000 ^
b11100000 a
b11010010 [
b1100110000000000 f
b1101000 ]
b1101000 b
b101111 P
b11100101 R
b11100101 _
b10111111 O
b11101001 Q
b11101001 `
b1111001110000000 Z
b11001 (
b11001 9
b11001 U
b1101101010000000 Y
b1001011 )
b1001011 :
b1001011 V
b1001010000000 N
b11011011 &
b11011011 7
b11011011 I
b11010110000000 M
b10010101 '
b10010101 8
b10010101 J
b11000111 $
b11000111 5
b11000111 S
b11101 %
b11101 6
b11101 T
b1010 "
b1010 3
b1010 G
b1010100 #
b1010100 4
b1010100 H
#158003
0!
#163003
b1001101 ,
b1001101 E
b1001 +
b1001 F
b1111101 0
b1111101 A
b11001001 /
b11001001 B
b10000001 .
b10000001 C
b11101101 -
b11101101 D
b11011101 2
b11011101 ?
b10010001 1
b10010001 @
1!
#164003
b11010101 <
b11010101 h
b11000011 >
b11000011 j
b11001011 ;
b11001011 g
b1101011 =
b1101011 i
b10 \
b1101100000000000 e
b10110000 ^
b10110000 a
b11111111 [
b10010000000 f
b11110111 ]
b11110111 b
b11000000 P
b11001100 R
b11001100 _
b1001111 O
b11011 Q
b11011 `
b1101010010000000 Z
b1010111 (
b1010111 9
b1010111 U
b1100001000000000 Y
b1111100 )
b1111100 :
b1111100 V
b1111110100000000 N
b110 &
b110 7
b110 I
b110100000000 M
b11100110 '
b11100110 8
b11100110 J
b1011001 $
b1011001 5
b1011001 S
b1111011 %
b1111011 6
b1111011 T
b11000110 "
b11000110 3
b11000110 G
b110101 #
b110101 4
b110101 H
#168003
0!
#173003
b11000011 ,
b11000011 E
b1101011 +
b1101011 F
b11010101 0
b11010101 A
b11001011 /
b11001011 B
b10111110 .
b10111110 C
b1010000 -
b1010000 D
b11000010 2
b11000010 ?
b1001110 1
b1001110 @
1!
#174003
b11000000 <
b11000000 h
b10000100 >
b10000100 j
b11000100 ;
b11000100 g
b11101010 =
b11101010 i
b111111 \
b1111011010000000 e
b11101101 ^
b11101101 a
b10101110 [
b1100111100000000 f
b1100010 ]
b1100010 b
b1110100 P
b100010 R
b100010 _
b10001011 O
b11010111 Q
b11010111 `
b1010010000000 Z
b11010111 (
b11010111 9
b11010111 U
b1001100000000 Y
b11011010 )
b11011010 :
b11011010 V
b1101010010000000 N
b1010111 &
b1010111 7
b1010111 I
b1110110100000000 M
b100110 '
b100110 8
b100110 J
b10110 $
b10110 5
b10110 S
b10001000 %
b10001000 6
b10001000 T
b11001011 "
b11001011 3
b11001011 G
b10110001 #
b10110001 4
b10110001 H
#178003
0!
#183003
b10000100 ,
b10000100 E
b11101010 +
b11101010 F
b11000000 0
b11000000 A
b11000100 /
b11000100 B
b110101 .
b110101 C
b11011101 -
b11011101 D
b10110011 2
b10110011 ?
b111001 1
b111001 @
1!
#184003
b1101010 <
b1101010 h
b10110 >
b10110 j
b10111010 ;
b10111010 g
b11110000 =
b11110000 i
b10001101 \
b11001010000000 e
b1100101 ^
b1100101 a
b1000000 [
b1010100000000 f
b11010110 ]
b11010110 b
b111000 P
b1000000 R
b1000000 _
b11100111 O
b1010101 Q
b1010101 `
b101000000000 Z
b11101100 (
b11101100 9
b11101100 U
b1101101010000000 Y
b1001011 )
b1001011 :
b1001011 V
b11111000000000 N
b10000100 &
b10000100 7
b10000100 I
b10010010000000 M
b10110111 '
b10110111 8
b10110111 J
b1111001 $
b1111001 5
b1111001 S
b10001011 %
b10001011 6
b10001011 T
b10111100 "
b10111100 3
b10111100 G
b10011110 #
b10011110 4
b10011110 H
#188003
0!
#193003
b10110 ,
b10110 E
b11110000 +
b11110000 F
b1101010 0
b1101010 A
b10111010 /
b10111010 B
b10101011 .
b10101011 C
b10100111 -
b10100111 D
b11000101 2
b11000101 ?
b100111 1
b100111 @
1!
#194003
b100010 <
b100010 h
b11111100 >
b11111100 j
b1000 ;
b1000 g
b1101000 =
b1101000 i
b10010010 \
b10100000000000 e
b1010000 ^
b1010000 a
b111001 [
b1100100110000000 f
b1101101 ]
b1101101 b
b11001 P
b10001111 R
b10001111 _
b1011110 O
b10111000 Q
b10111000 `
b1000010000000 Z
b11011111 (
b11011111 9
b11011111 U
b1111001100000000 Y
b11010 )
b11010 :
b11010 V
b1110001010000000 N
b111011 &
b111011 7
b111011 I
b10100110000000 M
b10101101 '
b10101101 8
b10101101 J
b1110001 $
b1110001 5
b1110001 S
b1010011 %
b1010011 6
b1010011 T
b1010100 "
b1010100 3
b1010100 G
b1011 #
b1011 4
b1011 H
#198003
0!
#203003
b11111100 ,
b11111100 E
b1101000 +
b1101000 F
b100010 0
b100010 A
b1000 /
b1000 B
b10000111 .
b10000111 C
b100101 -
b100101 D
b10101011 2
b10101011 ?
b10010111 1
b10010111 @
1!
#204003
b11111001 <
b11111001 h
b101011 >
b101011 j
b11010001 ;
b11010001 g
b110011 =
b110011 i
b11000011 \
b1110011110000000 e
b11001111 ^
b11001111 a
b11101111 [
b11001110000000 f
b10011001 ]
b10011001 b
b10101100 P
b10010010 R
b10010010 _
b10110110 O
b10 Q
b10 `
b1111110100000000 Z
b110 (
b110 9
b110 U
b1101010110000000 Y
b1010101 )
b1010101 :
b1010101 V
b1100011010000000 N
b1110011 &
b1110011 7
b1110011 I
b1110110100000000 M
b100110 '
b100110 8
b100110 J
b11001001 $
b11001001 5
b11001001 S
b1000100 %
b1000100 6
b1000100 T
b11111 "
b11111 3
b11111 G
b11011100 #
b11011100 4
b11011100 H
#208003
0!
#213003
b101011 ,
b101011 E
b110011 +
b110011 F
b11111001 0
b11111001 A
b11010001 /
b11010001 B
b11101001 .
b11101001 C
b11000111 -
b11000111 D
b1101111 2
b1101111 ?
b10100101 1
b10100101 @
1!
#214003
b1010101 <
b1010101 h
b10101101 >
b10101101 j
b10001101 ;
b10001101 g
b10010101 =
b10010101 i
b11001010 \
b1111111000000000 e
b11111100 ^
b11111100 a
b11011110 [
b10101000000000 f
b10101100 ]
b10101100 b
b10010111 P
b1 R
b1 _
b1100101 O
b10010001 Q
b10010001 `
b1111001110000000 Z
b11001 (
b11001 9
b11001 U
b1100110010000000 Y
b1100111 )
b1100111 :
b1100111 V
b1110010110000000 N
b110101 &
b110101 7
b110101 I
b11010100000000 M
b10010110 '
b10010110 8
b10010110 J
b11100011 $
b11100011 5
b11100011 S
b1000101 %
b1000101 6
b1000101 T
b11001100 "
b11001100 3
b11001100 G
b11111011 #
b11111011 4
b11111011 H
#218003
0!
#223003
b10101101 ,
b10101101 E
b10010101 +
b10010101 F
b1010101 0
b1010101 A
b10001101 /
b10001101 B
b11001101 .
b11001101 C
b10000111 -
b10000111 D
b1100001 2
b1100001 ?
b1000011 1
b1000011 @
1!
