test/fft_engine/wave/fft_engine_tb_20250707_20:13:53.vcd
$date
	Mon Jul  7 20:13:58 2025
$end
$version
	Icarus Verilog
$end
$timescale
	1ps
$end
$scope module fft_engine_tb $end
$var wire 1 ! clk $end
$var wire 8 " in0_imag [7:0] $end
$var wire 8 # in0_real [7:0] $end
$var wire 8 $ in1_imag [7:0] $end
$var wire 8 % in1_real [7:0] $end
$var wire 8 & in2_imag [7:0] $end
$var wire 8 ' in2_real [7:0] $end
$var wire 8 ( in3_imag [7:0] $end
$var wire 8 ) in3_real [7:0] $end
$var wire 1 * rst $end
$var wire 8 + out3_real [7:0] $end
$var wire 8 , out3_imag [7:0] $end
$var wire 8 - out2_real [7:0] $end
$var wire 8 . out2_imag [7:0] $end
$var wire 8 / out1_real [7:0] $end
$var wire 8 0 out1_imag [7:0] $end
$var wire 8 1 out0_real [7:0] $end
$var wire 8 2 out0_imag [7:0] $end
$scope module dut $end
$var wire 1 ! clk $end
$var wire 8 3 in0_imag [7:0] $end
$var wire 8 4 in0_real [7:0] $end
$var wire 8 5 in1_imag [7:0] $end
$var wire 8 6 in1_real [7:0] $end
$var wire 8 7 in2_imag [7:0] $end
$var wire 8 8 in2_real [7:0] $end
$var wire 8 9 in3_imag [7:0] $end
$var wire 8 : in3_real [7:0] $end
$var wire 1 * rst $end
$var wire 8 ; bfly_pos_real [7:0] $end
$var wire 8 < bfly_pos_imag [7:0] $end
$var wire 8 = bfly_neg_real [7:0] $end
$var wire 8 > bfly_neg_imag [7:0] $end
$var reg 8 ? out0_imag [7:0] $end
$var reg 8 @ out0_real [7:0] $end
$var reg 8 A out1_imag [7:0] $end
$var reg 8 B out1_real [7:0] $end
$var reg 8 C out2_imag [7:0] $end
$var reg 8 D out2_real [7:0] $end
$var reg 8 E out3_imag [7:0] $end
$var reg 8 F out3_real [7:0] $end
$scope module bfly_stage1_0 $end
$var wire 8 G A_imag [7:0] $end
$var wire 8 H A_real [7:0] $end
$var wire 8 I B_imag [7:0] $end
$var wire 8 J B_real [7:0] $end
$var wire 8 K W_imag [7:0] $end
$var wire 8 L W_real [7:0] $end
$var wire 16 M product_real [15:0] $end
$var wire 16 N product_imag [15:0] $end
$var wire 8 O Pos_real [7:0] $end
$var wire 8 P Pos_imag [7:0] $end
$var wire 8 Q Neg_real [7:0] $end
$var wire 8 R Neg_imag [7:0] $end
$upscope $end
$scope module bfly_stage1_1 $end
$var wire 8 S A_imag [7:0] $end
$var wire 8 T A_real [7:0] $end
$var wire 8 U B_imag [7:0] $end
$var wire 8 V B_real [7:0] $end
$var wire 8 W W_imag [7:0] $end
$var wire 8 X W_real [7:0] $end
$var wire 16 Y product_real [15:0] $end
$var wire 16 Z product_imag [15:0] $end
$var wire 8 [ Pos_real [7:0] $end
$var wire 8 \ Pos_imag [7:0] $end
$var wire 8 ] Neg_real [7:0] $end
$var wire 8 ^ Neg_imag [7:0] $end
$upscope $end
$scope module bfly_stage2_1 $end
$var wire 8 _ A_imag [7:0] $end
$var wire 8 ` A_real [7:0] $end
$var wire 8 a B_imag [7:0] $end
$var wire 8 b B_real [7:0] $end
$var wire 8 c W_imag [7:0] $end
$var wire 8 d W_real [7:0] $end
$var wire 16 e product_real [15:0] $end
$var wire 16 f product_imag [15:0] $end
$var wire 8 g Pos_real [7:0] $end
$var wire 8 h Pos_imag [7:0] $end
$var wire 8 i Neg_real [7:0] $end
$var wire 8 j Neg_imag [7:0] $end
$upscope $end
$upscope $end
$upscope $end
$enddefinitions $end
#0
$dumpvars
b1100100 j
b11101100 i
b11101100 h
b1100100 g
b1110001000000000 f
b1111000000000 e
b0 d
b10000000 c
b111100 b
b111100 a
b101000 `
b101000 _
b111100 ^
b111100 ]
b11101100 \
b11101100 [
b1110110000000000 Z
b1110110000000000 Y
b10000000 X
b0 W
b101000 V
b101000 U
b10100 T
b10100 S
b101000 R
b101000 Q
b11101100 P
b11101100 O
b1111000100000000 N
b1111000100000000 M
b10000000 L
b0 K
b11110 J
b11110 I
b1010 H
b1010 G
bx F
bx E
bx D
bx C
bx B
bx A
bx @
bx ?
b1100100 >
b11101100 =
b11101100 <
b1100100 ;
b101000 :
b101000 9
b11110 8
b11110 7
b10100 6
b10100 5
b1010 4
b1010 3
bx 2
bx 1
bx 0
bx /
bx .
bx -
bx ,
bx +
0*
b101000 )
b101000 (
b11110 '
b11110 &
b10100 %
b10100 $
b1010 #
b1010 "
1!
$end
#1000
b0 ,
b0 E
b0 +
b0 F
b0 .
b0 C
b0 -
b0 D
b0 0
b0 A
b0 /
b0 B
b0 2
b0 ?
b0 1
b0 @
1*
#2000
0*
#5000
0!
#10000
b1100100 ,
b1100100 E
b11101100 +
b11101100 F
b11101100 0
b11101100 A
b1100100 /
b1100100 B
b11011000 2
b11011000 ?
b11011000 1
b11011000 @
1!
#11001
b0 <
b0 h
b0 >
b0 j
b1 ;
b1 g
b1 =
b1 i
b0 \
b0 e
b0 ^
b0 a
b0 [
b0 f
b0 ]
b0 b
b0 P
b0 R
b0 _
b1 O
b1 Q
b1 `
b0 Z
b0 (
b0 9
b0 U
b0 Y
b0 )
b0 :
b0 V
b0 N
b0 &
b0 7
b0 I
b0 M
b0 '
b0 8
b0 J
b0 $
b0 5
b0 S
b0 %
b0 6
b0 T
b0 "
b0 3
b0 G
b1 #
b1 4
b1 H
#16001
0!
#21001
b0 ,
b0 E
b1 +
b1 F
b0 0
b0 A
b1 /
b1 B
b1 -
b1 D
b0 2
b0 ?
b1 1
b1 @
1!
#22002
b10 ;
b10 g
b10 =
b10 i
b11111110 <
b11111110 h
b10 >
b10 j
b0 O
b10 Q
b10 `
b0 [
b1111111100000000 f
b10 ]
b10 b
b1111111110000000 Y
b1 )
b1 :
b1 V
b1111111110000000 M
b1 '
b1 8
b1 J
b1 %
b1 6
b1 T
#27002
0!
#32002
b10 ,
b10 E
b10 +
b10 F
b11111110 0
b11111110 A
b10 /
b10 B
b0 -
b0 D
b0 1
b0 @
1!
#33003
b111100 <
b111100 h
b1110100 >
b1110100 j
b1100100 ;
b1100100 g
b10100 =
b10100 i
b10001000 \
b1010000000000 e
b101000 ^
b101000 a
b101000 [
b11001000000000 f
b10011100 ]
b10011100 b
b1010000 P
b11011000 R
b11011000 _
b11011000 O
b111100 Q
b111100 `
b1101100000000000 Z
b1010000 (
b1010000 9
b1010000 U
b10001100000000 Y
b10111010 )
b10111010 :
b10111010 V
b1111000000000 N
b11000100 &
b11000100 7
b11000100 I
b1110011100000000 M
b110010 '
b110010 8
b110010 J
b11011000 $
b11011000 5
b11011000 S
b11100010 %
b11100010 6
b11100010 T
b10100 "
b10100 3
b10100 G
b1010 #
b1010 4
b1010 H
#38003
0!
#43003
b1110100 ,
b1110100 E
b10100 +
b10100 F
b111100 0
b111100 A
b1100100 /
b1100100 B
b11001000 .
b11001000 C
b10110000 -
b10110000 D
b11011000 2
b11011000 ?
1!
#44004
b10110111 <
b10110111 h
b110101 >
b110101 j
b11010010 ;
b11010010 g
b10010000 =
b10010000 i
b1101111 \
b1000010000000 e
b100001 ^
b100001 a
b11001111 [
b1110000010000000 f
b111111 ]
b111111 b
b11010110 P
b11110110 R
b11110110 _
b10000011 O
b10110001 Q
b10110001 `
b1101001110000000 Z
b1011001 (
b1011001 9
b1011001 U
b1110010000000000 Y
b111000 )
b111000 :
b111000 V
b1111100000000000 N
b10000 &
b10000 7
b10000 I
b11010010000000 M
b10010111 '
b10010111 8
b10010111 J
b11001000 $
b11001000 5
b11001000 S
b111 %
b111 6
b111 T
b11100110 "
b11100110 3
b11100110 G
b11010 #
b11010 4
b11010 H
#49004
0!
#54004
b110101 ,
b110101 E
b10010000 +
b10010000 F
b10110111 0
b10110111 A
b11010010 /
b11010010 B
b1100111 .
b1100111 C
b10110100 -
b10110100 D
b1000101 2
b1000101 ?
b1010010 1
b1010010 @
1!
#55004
b10000111 <
b10000111 h
b10101 >
b10101 j
b1011110 ;
b1011110 g
b1101010 =
b1101010 i
b11011110 \
b11110100000000 e
b1111010 ^
b1111010 a
b10101111 [
b1110010000000 f
b11000111 ]
b11000111 b
b11000110 P
b1001110 R
b1001110 _
b10010100 O
b11100100 Q
b11100100 `
b1101100100000000 Z
b1001110 (
b1001110 9
b1001110 U
b1111101000000000 Y
b1100 )
b1100 :
b1100 V
b1101111000000000 N
b1000100 &
b1000100 7
b1000100 I
b10110000000000 M
b10101000 '
b10101000 8
b10101000 J
b101100 $
b101100 5
b101100 S
b10111011 %
b10111011 6
b10111011 T
b1010 "
b1010 3
b1010 G
b111100 #
b111100 4
b111100 H
#59004
0!
#64004
b10101 ,
b10101 E
b1101010 +
b1101010 F
b10000111 0
b10000111 A
b1011110 /
b1011110 B
b11101000 .
b11101000 C
b11100101 -
b11100101 D
b10100100 2
b10100100 ?
b1000011 1
b1000011 @
1!
#65004
b11011000 <
b11011000 h
b11001000 >
b11001000 j
b11001010 ;
b11001010 g
b1000 =
b1000 i
b10110101 \
b11000010000000 e
b1100001 ^
b1100001 a
b1010 [
b10000000000 f
b11111000 ]
b11111000 b
b1011000 P
b11010000 R
b11010000 _
b111101 O
b1101001 Q
b1101001 `
b1010100000000 Z
b11010110 (
b11010110 9
b11010110 U
b1100010010000000 Y
b1110111 )
b1110111 :
b1110111 V
b10001000000000 N
b10111100 &
b10111100 7
b10111100 I
b11010100000000 M
b10010110 '
b10010110 8
b10010110 J
b10001011 $
b10001011 5
b10001011 S
b10000001 %
b10000001 6
b10000001 T
b10100 "
b10100 3
b10100 G
b11010011 #
b11010011 4
b11010011 H
#69004
0!
#74004
b11001000 ,
b11001000 E
b1000 +
b1000 F
b11011000 0
b11011000 A
b11001010 /
b11001010 B
b10100011 .
b10100011 C
b110011 -
b110011 D
b1101 2
b1101 ?
b1000111 1
b1000111 @
1!
#75004
b1000010 <
b1000010 h
b1101000 >
b1101000 j
b11100010 ;
b11100010 g
b1001100 =
b1001100 i
b10011111 \
b10010110000000 e
b1001011 ^
b1001011 a
b1110111 [
b11011010000000 f
b10010011 ]
b10010011 b
b11110101 P
b11010101 R
b11010101 _
b10011101 O
b10010111 Q
b10010111 `
b11100100000000 Y
b10001110 )
b10001110 :
b10001110 V
b1100100000000000 N
b1110000 &
b1110000 7
b1110000 I
b110000000 M
b11111101 '
b11111101 8
b11111101 J
b1110101 $
b1110101 5
b1110101 S
b101 %
b101 6
b101 T
b1100101 "
b1100101 3
b1100101 G
b10011010 #
b10011010 4
b10011010 H
#79004
0!
#84004
b1101000 ,
b1101000 E
b1001100 +
b1001100 F
b1000010 0
b1000010 A
b11100010 /
b11100010 B
b1010110 .
b1010110 C
b100110 -
b100110 D
b10010100 2
b10010100 ?
b10100 1
b10100 @
1!
#85004
b10111100 <
b10111100 h
b10111000 >
b10111000 j
b1000101 ;
b1000101 g
b1101101 =
b1101101 i
b11101000 \
b1111011000000000 e
b11101100 ^
b11101100 a
b1100010 [
b1100000100000000 f
b1111110 ]
b1111110 b
b10110100 P
b111010 R
b111010 _
b1011001 O
b1011001 Q
b1011001 `
b11111100000000 Z
b10000010 (
b10000010 9
b10000010 U
b1101111010000000 N
b1000011 &
b1000011 7
b1000011 I
b100000000000000 M
b10000000 '
b10000000 8
b10000000 J
b1101010 $
b1101010 5
b1101010 S
b11110000 %
b11110000 6
b11110000 T
b11110111 "
b11110111 3
b11110111 G
b11011001 #
b11011001 4
b11011001 H
#89004
0!
#94004
b10111000 ,
b10111000 E
b1101101 +
b1101101 F
b10111100 0
b10111100 A
b1000101 /
b1000101 B
b11001100 .
b11001100 C
b11110111 -
b11110111 D
b10011100 2
b10011100 ?
b10111011 1
b10111011 @
1!
#95004
b11011010 <
b11011010 h
b1000110 >
b1000110 j
b1110001 ;
b1110001 g
b11000111 =
b11000111 i
b1111101 \
b10101010000000 e
b1010101 ^
b1010101 a
b11101110 [
b1110010100000000 f
b110110 ]
b110110 b
b1100 P
b10000 R
b10000 _
b100000 O
b11100 Q
b11100 `
b101000000000 Z
b11101100 (
b11101100 9
b11101100 U
b1110111000000000 Y
b100100 )
b100100 :
b100100 V
b1111111100000000 N
b10 &
b10 7
b10 I
b100000000 M
b11111110 '
b11111110 8
b11111110 J
b1101001 $
b1101001 5
b1101001 S
b10010 %
b10010 6
b10010 T
b1110 "
b1110 3
b1110 G
b11110 #
b11110 4
b11110 H
#99004
0!
#104004
b1000110 ,
b1000110 E
b11000111 +
b11000111 F
b11011010 0
b11011010 A
b1110001 /
b1110001 B
b10001111 .
b10001111 C
b110010 -
b110010 D
b10001001 2
b10001001 ?
b1110 1
b1110 @
1!
#105004
b1010011 <
b1010011 h
b1100101 >
b1100101 j
b11011 ;
b11011 g
b11010001 =
b11010001 i
b101111 \
b1101001010000000 e
b10100101 ^
b10100101 a
b11100001 [
b11101110000000 f
b10001001 ]
b10001001 b
b11000110 P
b11011100 R
b11011100 _
b11010100 O
b1110110 Q
b1110110 `
b10001010000000 Z
b10111011 (
b10111011 9
b10111011 U
b1011000000000 Y
b11010100 )
b11010100 :
b11010100 V
b11101010000000 N
b10001011 &
b10001011 7
b10001011 I
b1011110000000 M
b11010001 '
b11010001 8
b11010001 J
b11101010 $
b11101010 5
b11101010 S
b10110101 %
b10110101 6
b10110101 T
b1010001 "
b1010001 3
b1010001 G
b10100101 #
b10100101 4
b10100101 H
#109004
0!
#114004
b1100101 ,
b1100101 E
b11010001 +
b11010001 F
b1010011 0
b1010011 A
b11011 /
b11011 B
b10010111 .
b10010111 C
b11110011 -
b11110011 D
b11110101 2
b11110101 ?
b10110101 1
b10110101 @
1!
#115004
b1011101 <
b1011101 h
b10001111 >
b10001111 j
b11000001 ;
b11000001 g
b101111 =
b101111 i
b100101 \
b1110010010000000 e
b11001001 ^
b11001001 a
b110001 [
b1111001110000000 f
b11001 ]
b11001 b
b10000000 P
b1110110 R
b1110110 _
b10010000 O
b11111000 Q
b11111000 `
b1101011100000000 Z
b1010010 (
b1010010 9
b1010010 U
b11000000000 Y
b11110100 )
b11110100 :
b11110100 V
b1100001010000000 N
b1111011 &
b1111011 7
b1111011 I
b10011000000000 M
b10110100 '
b10110100 8
b10110100 J
b1110111 $
b1110111 5
b1110111 S
b100101 %
b100101 6
b100101 T
b11111011 "
b11111011 3
b11111011 G
b1000100 #
b1000100 4
b1000100 H
#119004
0!
#124004
b10001111 ,
b10001111 E
b101111 +
b101111 F
b1011101 0
b1011101 A
b11000001 /
b11000001 B
b1011011 .
b1011011 C
b1011111 -
b1011111 D
b10100101 2
b10100101 ?
b11000001 1
b11000001 @
1!
#125004
b1100011 <
b1100011 h
b1011 >
b1011 j
b11011100 ;
b11011100 g
b10011010 =
b10011010 i
b11110111 \
b1000010000000 e
b100001 ^
b100001 a
b110010 [
b1101011000000000 f
b1010100 ]
b1010100 b
b1001 P
b10110111 R
b10110111 _
b11110011 O
b10111011 Q
b10111011 `
b11010110000000 Z
b10010101 (
b10010101 9
b10010101 U
b1111011110000000 Y
b10001 )
b10001 :
b10001 V
b1101010010000000 N
b1010111 &
b1010111 7
b1010111 I
b1100111000000000 M
b1100100 '
b1100100 8
b1100100 J
b10001100 $
b10001100 5
b10001100 S
b1000011 %
b1000011 6
b1000011 T
b1100000 "
b1100000 3
b1100000 G
b1010111 #
b1010111 4
b1010111 H
#129004
0!
#134004
b1011 ,
b1011 E
b10011010 +
b10011010 F
b1100011 0
b1100011 A
b11011100 /
b11011100 B
b10010 .
b10010 C
b11000001 -
b11000001 D
b0 2
b0 ?
b100101 1
b100101 @
1!
#135004
b11110010 <
b11110010 h
b101100 >
b101100 j
b1000101 ;
b1000101 g
b101111 =
b101111 i
b11011 \
b1100010110000000 e
b10001011 ^
b10001011 a
b10101011 [
b1111000110000000 f
b11101 ]
b11101 b
b1101 P
b1111 R
b1111 _
b101010 O
b10111010 Q
b10111010 `
b1110010000000000 Z
b111000 (
b111000 9
b111000 U
b10001110000000 Y
b10111001 )
b10111001 :
b10111001 V
b11111110000000 N
b10000001 &
b10000001 7
b10000001 I
b1101110000000000 M
b1001000 '
b1001000 8
b1001000 J
b1010011 $
b1010011 5
b1010011 S
b1100100 %
b1100100 6
b1100100 T
b10001110 "
b10001110 3
b10001110 G
b1110010 #
b1110010 4
b1110010 H
#139004
0!
#144004
b101100 ,
b101100 E
b101111 +
b101111 F
b11110010 0
b11110010 A
b1000101 /
b1000101 B
b11110010 .
b11110010 C
b1111111 -
b1111111 D
b101000 2
b101000 ?
b11010101 1
b11010101 @
1!
#145004
b10 <
b10 h
b10100000 >
b10100000 j
b100010 ;
b100010 g
b11001100 =
b11001100 i
b11101011 \
b1101010110000000 e
b10101011 ^
b10101011 a
b10011001 [
b1101100010000000 f
b1001111 ]
b1001111 b
b1001111 P
b1010001 R
b1010001 _
b11 O
b1110111 Q
b1110111 `
b1000000000000 Z
b11100000 (
b11100000 9
b11100000 U
b1101001010000000 Y
b1011011 )
b1011011 :
b1011011 V
b1110001100000000 M
b111010 '
b111010 8
b111010 J
b11001011 $
b11001011 5
b11001011 S
b11110100 %
b11110100 6
b11110100 T
b11010000 "
b11010000 3
b11010000 G
b111101 #
b111101 4
b111101 H
#149004
0!
#154004
b10100000 ,
b10100000 E
b11001100 +
b11001100 F
b10 0
b10 A
b100010 /
b100010 B
b1100100 .
b1100100 C
b1101010 -
b1101010 D
b111010 2
b111010 ?
b10011100 1
b10011100 @
1!
#155004
b111111 <
b111111 h
b10101111 >
b10101111 j
b11001011 ;
b11001011 g
b111001 =
b111001 i
b110111 \
b1110010010000000 e
b11001001 ^
b11001001 a
b11100110 [
b10010000000000 f
b10111000 ]
b10111000 b
b10101 P
b11110111 R
b11110111 _
b1110100 O
b10 Q
b10 `
b1101110000000 Z
b11001001 (
b11001001 9
b11001001 U
b1100101110000000 Y
b1101001 )
b1101001 :
b1101001 V
b11110000000 N
b11110001 &
b11110001 7
b11110001 I
b1101110010000000 M
b1000111 '
b1000111 8
b1000111 J
b0 $
b0 5
b0 S
b1001111 %
b1001111 6
b1001111 T
b110 "
b110 3
b110 G
b10111011 #
b10111011 4
b10111011 H
#159004
0!
#164004
b10101111 ,
b10101111 E
b111001 +
b111001 F
b111111 0
b111111 A
b11001011 /
b11001011 B
b11011110 .
b11011110 C
b10001110 -
b10001110 D
b1001100 2
b1001100 ?
b1011010 1
b1011010 @
1!
#165004
b1011100 <
b1011100 h
b11110110 >
b11110110 j
b11111010 ;
b11111010 g
b10010000 =
b10010000 i
b110111 \
b1101010000000 e
b110101 ^
b110101 a
b1111101 [
b1100110000000 f
b11001101 ]
b11001101 b
b1011 P
b101001 R
b101001 _
b10111 O
b11000101 Q
b11000101 `
b10000000 Z
b11111111 (
b11111111 9
b11111111 U
b1110110000000000 Y
b101000 )
b101000 :
b101000 V
b11100010000000 N
b10001111 &
b10001111 7
b10001111 I
b1010010000000 M
b11010111 '
b11010111 8
b11010111 J
b110110 $
b110110 5
b110110 S
b10100101 %
b10100101 6
b10100101 T
b10011010 "
b10011010 3
b10011010 G
b11101110 #
b11101110 4
b11101110 H
#169004
0!
#174004
b11110110 ,
b11110110 E
b10010000 +
b10010000 F
b1011100 0
b1011100 A
b11111010 /
b11111010 B
b11010100 .
b11010100 C
b10011010 -
b10011010 D
b1000010 2
b1000010 ?
b10010100 1
b10010100 @
1!
#175004
b111110 <
b111110 h
b11100100 >
b11100100 j
b101110 ;
b101110 g
b11100000 =
b11100000 i
b11000111 \
b1101001110000000 e
b10100111 ^
b10100111 a
b1111101 [
b1011010000000 f
b11010011 ]
b11010011 b
b10100101 P
b10001 R
b10001 _
b100011 O
b10000111 Q
b10000111 `
b100000000000 Z
b11110000 (
b11110000 9
b11110000 U
b10101010000000 Y
b10101011 )
b10101011 :
b10101011 V
b10010100000000 N
b10110110 &
b10110110 7
b10110110 I
b10011100000000 M
b10110010 '
b10110010 8
b10110010 J
b10110111 $
b10110111 5
b10110111 S
b101000 %
b101000 6
b101000 T
b1011011 "
b1011011 3
b1011011 G
b11010101 #
b11010101 4
b11010101 H
#179004
0!
#184004
b11100100 ,
b11100100 E
b11100000 +
b11100000 F
b111110 0
b111110 A
b101110 /
b101110 B
b11011110 .
b11011110 C
b10100110 -
b10100110 D
b1101100 2
b1101100 ?
b10100000 1
b10100000 @
1!
#185004
b1010001 <
b1010001 h
b1000111 >
b1000111 j
b1110011 ;
b1110011 g
b1010011 =
b1010011 i
b10010110 \
b100000000000 e
b10000 ^
b10000 a
b10111111 [
b1010000000 f
b11111011 ]
b11111011 b
b10101110 P
b1001100 R
b1001100 _
b10011011 O
b1100011 Q
b1100011 `
b1110000110000000 Z
b111101 (
b111101 9
b111101 U
b1111000100000000 Y
b11110 )
b11110 :
b11110 V
b1101100010000000 N
b1001111 &
b1001111 7
b1001111 I
b111000000000 M
b11100100 '
b11100100 8
b11100100 J
b11010011 $
b11010011 5
b11010011 S
b11011101 %
b11011101 6
b11011101 T
b11111101 "
b11111101 3
b11111101 G
b1111111 #
b1111111 4
b1111111 H
#189004
0!
#194004
b1000111 ,
b1000111 E
b1010011 +
b1010011 F
b1010001 0
b1010001 A
b1110011 /
b1110011 B
b11000 .
b11000 C
b11011100 -
b11011100 D
b1000100 2
b1000100 ?
b1011010 1
b1011010 @
1!
#195004
b1111011 <
b1111011 h
b11101101 >
b11101101 j
b1010101 ;
b1010101 g
b1001101 =
b1001101 i
b110100 \
b1100001000000000 e
b10000100 ^
b10000100 a
b1001101 [
b10001110000000 f
b10111001 ]
b10111001 b
b100010 P
b110100 R
b110100 _
b111001 O
b11010001 Q
b11010001 `
b10110000000000 Z
b10101000 (
b10101000 9
b10101000 U
b10010100000000 Y
b10110110 )
b10110110 :
b10110110 V
b1111101110000000 N
b1001 &
b1001 7
b1001 I
b1101101000000000 M
b1001100 '
b1001100 8
b1001100 J
b11011100 $
b11011100 5
b11011100 S
b11 %
b11 6
b11 T
b101011 "
b101011 3
b101011 G
b10000101 #
b10000101 4
b10000101 H
#199004
0!
#204004
b11101101 ,
b11101101 E
b1001101 +
b1001101 F
b1111011 0
b1111011 A
b1010101 /
b1010101 B
b11101110 .
b11101110 C
b11101100 -
b11101100 D
b1010110 2
b1010110 ?
b10000110 1
b10000110 @
1!
#205004
b110011 <
b110011 h
b10100001 >
b10100001 j
b1101010 ;
b1101010 g
b10111010 =
b10111010 i
b10100000 \
b1110110000000000 e
b11011000 ^
b11011000 a
b1001011 [
b10010010000000 f
b10110111 ]
b10110111 b
b10100000 P
b11101010 R
b11101010 _
b10111110 O
b10010010 Q
b10010010 `
b11001000000000 Z
b10011100 (
b10011100 9
b10011100 U
b1110110110000000 N
b100101 &
b100101 7
b100101 I
b101100000000 M
b11101010 '
b11101010 8
b11101010 J
b111100 $
b111100 5
b111100 S
b1 %
b1 6
b1 T
b11000101 "
b11000101 3
b11000101 G
b10101000 #
b10101000 4
b10101000 H
#209004
0!
#214004
b10100001 ,
b10100001 E
b10111010 +
b10111010 F
b110011 0
b110011 A
b1101010 /
b1101010 B
b0 .
b0 C
b1110011 -
b1110011 D
b1000000 2
b1000000 ?
b1001 1
b1001 @
1!
#215004
b10001 <
b10001 h
b10111001 >
b10111001 j
b1001110 ;
b1001110 g
b11110 =
b11110 i
b1110100 \
b1100110000000000 e
b10011000 ^
b10011000 a
b11111110 [
b1101011000000000 f
b1010100 ]
b1010100 b
b1011011 P
b1100101 R
b1100101 _
b11111000 O
b10110110 Q
b10110110 `
b11011100000000 Z
b10010010 (
b10010010 9
b10010010 U
b1110101010000000 Y
b101011 )
b101011 :
b101011 V
b1111110110000000 N
b101 &
b101 7
b101 I
b1000010000000 M
b11011111 '
b11011111 8
b11011111 J
b110 $
b110 5
b110 S
b101001 %
b101001 6
b101001 T
b1100000 "
b1100000 3
b1100000 G
b11010111 #
b11010111 4
b11010111 H
#219004
0!
#224004
b10111001 ,
b10111001 E
b11110 +
b11110 F
b10001 0
b10001 A
b1001110 /
b1001110 B
b11100111 .
b11100111 C
b11111010 -
b11111010 D
b11001111 2
b11001111 ?
b11110110 1
b11110110 @
1!
#225004
b1100001 <
b1100001 h
b1111 >
b1111 j
b1100110 ;
b1100110 g
b10010 =
b10010 i
b1010010 \
b1010100000000 e
b101010 ^
b101010 a
b1111101 [
b1101010010000000 f
b1010111 ]
b1010111 b
b10001110 P
b10111000 R
b10111000 _
b10000100 O
b111100 Q
b111100 `
b1100101000000000 Z
b1101100 (
b1101100 9
b1101100 U
b100110000000 Y
b11101101 )
b11101101 :
b11101101 V
b1111010110000000 N
b10101 &
b10101 7
b10101 I
b1001000000000 M
b11011100 '
b11011100 8
b11011100 J
b10111110 $
b10111110 5
b10111110 S
b1101010 %
b1101010 6
b1101010 T
b10100011 "
b10100011 3
b10100011 G
b1100000 #
b1100000 4
b1100000 H
#229004
0!
#234004
b1111 ,
b1111 E
b10010 +
b10010 F
b1100001 0
b1100001 A
b1100110 /
b1100110 B
b111100 .
b111100 C
b111 -
b111 D
b11100000 2
b11100000 ?
b1 1
b1 @
1!
#235004
b1000100 <
b1000100 h
b10111000 >
b10111000 j
b111101 ;
b111101 g
b100111 =
b100111 i
b11111111 \
b10110000000 e
b1011 ^
b1011 a
b10001000 [
b10001100000000 f
b10111010 ]
b10111010 b
b10110100 P
b11111110 R
b11111110 _
b11110000 O
b110010 Q
b110010 `
b1111110100000000 Z
b110 (
b110 9
b110 U
b1111001110000000 Y
b11001 )
b11001 :
b11001 V
b1110110110000000 N
b100101 &
b100101 7
b100101 I
b1110111110000000 M
b100001 '
b100001 8
b100001 J
b101 $
b101 5
b101 S
b10100001 %
b10100001 6
b10100001 T
b11011001 "
b11011001 3
b11011001 G
b10001 #
b10001 4
b10001 H
#239004
0!
#244004
b10111000 ,
b10111000 E
b100111 +
b100111 F
b1000100 0
b1000100 A
b111101 /
b111101 B
b10110101 .
b10110101 C
b1101000 -
b1101000 D
b10110011 2
b10110011 ?
b1111000 1
b1111000 @
1!
