test/fft_engine/wave/fft_engine_tb_20250702_23:38:57.vcd
$date
	Wed Jul  2 23:39:07 2025
$end
$version
	Icarus Verilog
$end
$timescale
	1ps
$end
$scope module fft_engine_tb $end
$var wire 1 ! clk $end
$var wire 8 " in0_imag [7:0] $end
$var wire 8 # in0_real [7:0] $end
$var wire 8 $ in1_imag [7:0] $end
$var wire 8 % in1_real [7:0] $end
$var wire 8 & in2_imag [7:0] $end
$var wire 8 ' in2_real [7:0] $end
$var wire 8 ( in3_imag [7:0] $end
$var wire 8 ) in3_real [7:0] $end
$var wire 1 * rst $end
$var wire 8 + out3_real [7:0] $end
$var wire 8 , out3_imag [7:0] $end
$var wire 8 - out2_real [7:0] $end
$var wire 8 . out2_imag [7:0] $end
$var wire 8 / out1_real [7:0] $end
$var wire 8 0 out1_imag [7:0] $end
$var wire 8 1 out0_real [7:0] $end
$var wire 8 2 out0_imag [7:0] $end
$scope module dut $end
$var wire 1 ! clk $end
$var wire 8 3 in0_imag [7:0] $end
$var wire 8 4 in0_real [7:0] $end
$var wire 8 5 in1_imag [7:0] $end
$var wire 8 6 in1_real [7:0] $end
$var wire 8 7 in2_imag [7:0] $end
$var wire 8 8 in2_real [7:0] $end
$var wire 8 9 in3_imag [7:0] $end
$var wire 8 : in3_real [7:0] $end
$var wire 1 * rst $end
$var wire 8 ; bfly_pos_real [7:0] $end
$var wire 8 < bfly_pos_imag [7:0] $end
$var wire 8 = bfly_neg_real [7:0] $end
$var wire 8 > bfly_neg_imag [7:0] $end
$var reg 8 ? out0_imag [7:0] $end
$var reg 8 @ out0_real [7:0] $end
$var reg 8 A out1_imag [7:0] $end
$var reg 8 B out1_real [7:0] $end
$var reg 8 C out2_imag [7:0] $end
$var reg 8 D out2_real [7:0] $end
$var reg 8 E out3_imag [7:0] $end
$var reg 8 F out3_real [7:0] $end
$scope module bfly_stage1_0 $end
$var wire 8 G A_imag [7:0] $end
$var wire 8 H A_real [7:0] $end
$var wire 8 I B_imag [7:0] $end
$var wire 8 J B_real [7:0] $end
$var wire 8 K W_imag [7:0] $end
$var wire 8 L W_real [7:0] $end
$var wire 16 M product_real [15:0] $end
$var wire 16 N product_imag [15:0] $end
$var wire 8 O Pos_real [7:0] $end
$var wire 8 P Pos_imag [7:0] $end
$var wire 8 Q Neg_real [7:0] $end
$var wire 8 R Neg_imag [7:0] $end
$upscope $end
$scope module bfly_stage1_1 $end
$var wire 8 S A_imag [7:0] $end
$var wire 8 T A_real [7:0] $end
$var wire 8 U B_imag [7:0] $end
$var wire 8 V B_real [7:0] $end
$var wire 8 W W_imag [7:0] $end
$var wire 8 X W_real [7:0] $end
$var wire 16 Y product_real [15:0] $end
$var wire 16 Z product_imag [15:0] $end
$var wire 8 [ Pos_real [7:0] $end
$var wire 8 \ Pos_imag [7:0] $end
$var wire 8 ] Neg_real [7:0] $end
$var wire 8 ^ Neg_imag [7:0] $end
$upscope $end
$scope module bfly_stage2_1 $end
$var wire 8 _ A_imag [7:0] $end
$var wire 8 ` A_real [7:0] $end
$var wire 8 a B_imag [7:0] $end
$var wire 8 b B_real [7:0] $end
$var wire 8 c W_imag [7:0] $end
$var wire 8 d W_real [7:0] $end
$var wire 16 e product_real [15:0] $end
$var wire 16 f product_imag [15:0] $end
$var wire 8 g Pos_real [7:0] $end
$var wire 8 h Pos_imag [7:0] $end
$var wire 8 i Neg_real [7:0] $end
$var wire 8 j Neg_imag [7:0] $end
$upscope $end
$upscope $end
$upscope $end
$enddefinitions $end
#0
$dumpvars
b10 j
b10 i
b11111110 h
b10 g
b1111111100000000 f
b0 e
b0 d
b10000000 c
b10 b
b0 a
b10 `
b0 _
b0 ^
b10 ]
b0 \
b0 [
b0 Z
b1111111110000000 Y
b10000000 X
b0 W
b1 V
b0 U
b1 T
b0 S
b0 R
b10 Q
b0 P
b0 O
b0 N
b1111111110000000 M
b10000000 L
b0 K
b1 J
b0 I
b1 H
b0 G
bx F
bx E
bx D
bx C
bx B
bx A
bx @
bx ?
b10 >
b10 =
b11111110 <
b10 ;
b1 :
b0 9
b1 8
b0 7
b1 6
b0 5
b1 4
b0 3
bx 2
bx 1
bx 0
bx /
bx .
bx -
bx ,
bx +
0*
b1 )
b0 (
b1 '
b0 &
b1 %
b0 $
b1 #
b0 "
1!
$end
#1001
b111100 <
b111100 h
b1110100 >
b1110100 j
b1100100 ;
b1100100 g
b10100 =
b10100 i
b10001000 \
b1010000000000 e
b101000 ^
b101000 a
b101000 [
b11001000000000 f
b10011100 ]
b10011100 b
b1010000 P
b11011000 R
b11011000 _
b11011000 O
b111100 Q
b111100 `
b1101100000000000 Z
b1010000 (
b1010000 9
b1010000 U
b10001100000000 Y
b10111010 )
b10111010 :
b10111010 V
b1111000000000 N
b11000100 &
b11000100 7
b11000100 I
b1110011100000000 M
b110010 '
b110010 8
b110010 J
b11011000 $
b11011000 5
b11011000 S
b11100010 %
b11100010 6
b11100010 T
b10100 "
b10100 3
b10100 G
b1010 #
b1010 4
b1010 H
#6001
0!
#11001
b1110100 ,
b1110100 E
b10100 +
b10100 F
b111100 0
b111100 A
b1100100 /
b1100100 B
b11001000 .
b11001000 C
b10110000 -
b10110000 D
b11011000 2
b11011000 ?
b0 1
b0 @
1!
#12002
b111000 <
b111000 h
b110010 >
b110010 j
b10010 ;
b10010 g
b11100 =
b11100 i
b11111 \
b1111110110000000 e
b11111011 ^
b11111011 a
b11101111 [
b1100000110000000 f
b1111101 ]
b1111101 b
b1101111 P
b10110101 R
b10110101 _
b10001101 O
b10111 Q
b10111 `
b1100100100000000 Z
b1101110 (
b1101110 9
b1101110 U
b1101110010000000 Y
b1000111 )
b1000111 :
b1000111 V
b10111010000000 N
b10100011 &
b10100011 7
b10100011 I
b1110110000000 M
b11000101 '
b11000101 8
b11000101 J
b10001101 $
b10001101 5
b10001101 S
b110110 %
b110110 6
b110110 T
b10010 "
b10010 3
b10010 G
b1010010 #
b1010010 4
b1010010 H
#17002
0!
#22002
b110010 ,
b110010 E
b11100 +
b11100 F
b111000 0
b111000 A
b10010 /
b10010 B
b1010000 .
b1010000 C
b10011110 -
b10011110 D
b10001110 2
b10001110 ?
b1111100 1
b1111100 @
1!
#23002
b110100 <
b110100 h
b1001110 >
b1001110 j
b1010 ;
b1010 g
b10001000 =
b10001000 i
b1101011 \
b1110000010000000 e
b11000001 ^
b11000001 a
b11100001 [
b1111100110000000 f
b1101 ]
b1101 b
b11100111 P
b1000001 R
b1000001 _
b11011101 O
b1001001 Q
b1001001 `
b1110101010000000 Z
b101011 (
b101011 9
b101011 U
b1111010100000000 Y
b10110 )
b10110 :
b10110 V
b10100110000000 N
b10101101 &
b10101101 7
b10101101 I
b10010100000000 M
b10110110 '
b10110110 8
b10110110 J
b10010110 $
b10010110 5
b10010110 S
b11110111 %
b11110111 6
b11110111 T
b10010100 "
b10010100 3
b10010100 G
b10010011 #
b10010011 4
b10010011 H
#27002
0!
#32002
b1001110 ,
b1001110 E
b10001000 +
b10001000 F
b110100 0
b110100 A
b1010 /
b1010 B
b1111100 .
b1111100 C
b11111100 -
b11111100 D
b1010010 2
b1010010 ?
b10111110 1
b10111110 @
1!
#33002
b1100 <
b1100 h
b1010010 >
b1010010 j
b1010111 ;
b1010111 g
b11011011 =
b11011011 i
b101110 \
b1111100000000 e
b111110 ^
b111110 a
b1011111 [
b10111010000000 f
b10100011 ]
b10100011 b
b111101 P
b10101111 R
b10101111 _
b10010111 O
b11001 Q
b11001 `
b11110000000000 Z
b10001000 (
b10001000 9
b10001000 U
b10111100000000 Y
b10100010 )
b10100010 :
b10100010 V
b10001110000000 N
b10111001 &
b10111001 7
b10111001 I
b1111110000000 M
b11000001 '
b11000001 8
b11000001 J
b10110110 $
b10110110 5
b10110110 S
b1 %
b1 6
b1 T
b11110110 "
b11110110 3
b11110110 G
b1011000 #
b1011000 4
b1011000 H
#37002
0!
#42002
b1010010 ,
b1010010 E
b11011011 +
b11011011 F
b1100 0
b1100 A
b1010111 /
b1010111 B
b1111 .
b1111 C
b111000 -
b111000 D
b1101011 2
b1101011 ?
b11110110 1
b11110110 @
1!
#43002
b11111011 <
b11111011 h
b11000011 >
b11000011 j
b110100 ;
b110100 g
b1100000 =
b1100000 i
b11110000 \
b11010100000000 e
b1101010 ^
b1101010 a
b11100010 [
b111000000000 f
b11100100 ]
b11100100 b
b11001011 P
b11011111 R
b11011111 _
b10001010 O
b11001010 Q
b11001010 `
b1110000110000000 Z
b111101 (
b111101 9
b111101 U
b11111110000000 Y
b10000001 )
b10000001 :
b10000001 V
b1111101100000000 N
b1010 &
b1010 7
b1010 I
b11000000000000 M
b10100000 '
b10100000 8
b10100000 J
b101101 $
b101101 5
b101101 S
b1100011 %
b1100011 6
b1100011 T
b11010101 "
b11010101 3
b11010101 G
b101010 #
b101010 4
b101010 H
#47002
0!
#52002
b11000011 ,
b11000011 E
b1100000 +
b1100000 F
b11111011 0
b11111011 A
b110100 /
b110100 B
b11011011 .
b11011011 C
b10101000 -
b10101000 D
b10111011 2
b10111011 ?
b1101100 1
b1101100 @
1!
#53002
b111 <
b111 h
b1011011 >
b1011011 j
b1111111 ;
b1111111 g
b1100001 =
b1100001 i
b1000001 \
b11110000000 e
b1111 ^
b1111 a
b11011010 [
b10101100000000 f
b10101010 ]
b10101010 b
b10101001 P
b10110001 R
b10110001 _
b101010 O
b1110000 Q
b1110000 `
b1100110010000000 Z
b1100111 (
b1100111 9
b1100111 U
b1100110000000000 Y
b1101000 )
b1101000 :
b1101000 V
b1111111000000000 N
b100 &
b100 7
b100 I
b1110111010000000 M
b100011 '
b100011 8
b100011 J
b10101000 $
b10101000 5
b10101000 S
b1000010 %
b1000010 6
b1000010 T
b10101101 "
b10101101 3
b10101101 G
b1001101 #
b1001101 4
b1001101 H
#57002
0!
#62002
b1011011 ,
b1011011 E
b1100001 +
b1100001 F
b111 0
b111 A
b1111111 /
b1111111 B
b1101000 .
b1101000 C
b1010000 -
b1010000 D
b11101010 2
b11101010 ?
b100 1
b100 @
1!
#63002
b11110 <
b11110 h
b10110100 >
b10110100 j
b1010111 ;
b1010111 g
b110101 =
b110101 i
b110101 \
b1100100010000000 e
b10010001 ^
b10010001 a
b11100101 [
b1101101010000000 f
b1001011 ]
b1001011 b
b100011 P
b1101001 R
b1101001 _
b11100 O
b11000110 Q
b11000110 `
b1110100100000000 Z
b101110 (
b101110 9
b101110 U
b1110011010000000 Y
b110011 )
b110011 :
b110011 V
b1110111010000000 N
b100011 &
b100011 7
b100011 I
b1010110000000 M
b11010101 '
b11010101 8
b11010101 J
b1100011 $
b1100011 5
b1100011 S
b11000 %
b11000 6
b11000 T
b1000110 "
b1000110 3
b1000110 G
b11110001 #
b11110001 4
b11110001 H
#67002
0!
#72002
b10110100 ,
b10110100 E
b110101 +
b110101 F
b11110 0
b11110 A
b1010111 /
b1010111 B
b11101110 .
b11101110 C
b110111 -
b110111 D
b1011000 2
b1011000 ?
b1 1
b1 @
1!
#73002
b10101011 <
b10101011 h
b10010011 >
b10010011 j
b110101 ;
b110101 g
b1001101 =
b1001101 i
b110110 \
b1111101000000000 e
b11110100 ^
b11110100 a
b10101100 [
b11000000000 f
b11110100 ]
b11110100 b
b10111011 P
b10011111 R
b10011111 _
b11111101 O
b1000001 Q
b1000001 `
b1000010000000 Z
b11011111 (
b11011111 9
b11011111 U
b10111000000000 Y
b10100100 )
b10100100 :
b10100100 V
b11100000000 N
b11110010 &
b11110010 7
b11110010 I
b10111100000000 M
b10100010 '
b10100010 8
b10100010 J
b10101 $
b10101 5
b10101 S
b1010000 %
b1010000 6
b1010000 T
b10101101 "
b10101101 3
b10101101 G
b10011111 #
b10011111 4
b10011111 H
#77002
0!
#82002
b10010011 ,
b10010011 E
b1001101 +
b1001101 F
b10101011 0
b10101011 A
b110101 /
b110101 B
b10000101 .
b10000101 C
b1010001 -
b1010001 D
b11110001 2
b11110001 ?
b10101001 1
b10101001 @
1!
#83002
b1011000 <
b1011000 h
b11101110 >
b11101110 j
b11100111 ;
b11100111 g
b111011 =
b111011 i
b100 \
b10101100000000 e
b1010110 ^
b1010110 a
b1011101 [
b1101101010000000 f
b1001011 ]
b1001011 b
b10101111 P
b10100011 R
b10100011 _
b10111011 O
b10010001 Q
b10010001 `
b1110101110000000 Z
b101001 (
b101001 9
b101001 U
b10010000000 Y
b11110111 )
b11110111 :
b11110111 V
b1100000000 N
b11111010 &
b11111010 7
b11111010 I
b101010000000 M
b11101011 '
b11101011 8
b11101011 J
b101101 $
b101101 5
b101101 S
b1010100 %
b1010100 6
b1010100 T
b10101001 "
b10101001 3
b10101001 G
b10100110 #
b10100110 4
b10100110 H
#87002
0!
#92002
b11101110 ,
b11101110 E
b111011 +
b111011 F
b1011000 0
b1011000 A
b11100111 /
b11100111 B
b10101011 .
b10101011 C
b1011110 -
b1011110 D
b10110011 2
b10110011 ?
b11000 1
b11000 @
1!
#93002
b11100111 <
b11100111 h
b10101011 >
b10101011 j
b10110010 ;
b10110010 g
b11001100 =
b11001100 i
b11100101 \
b11100110000000 e
b1110011 ^
b1110011 a
b10111100 [
b111100000000 f
b11100010 ]
b11100010 b
b10001001 P
b11001001 R
b11001001 _
b1111001 O
b111111 Q
b111111 `
b1110010000000 Z
b11000111 (
b11000111 9
b11000111 U
b11011010000000 Y
b10010011 )
b10010011 :
b10010011 V
b11000000000000 N
b10100000 &
b10100000 7
b10100000 I
b111010000000 M
b11100011 '
b11100011 8
b11100011 J
b10101100 $
b10101100 5
b10101100 S
b1001111 %
b1001111 6
b1001111 T
b101001 "
b101001 3
b101001 G
b1011100 #
b1011100 4
b1011100 H
#97002
0!
#102002
b10101011 ,
b10101011 E
b11001100 +
b11001100 F
b11100111 0
b11100111 A
b10110010 /
b10110010 B
b10100100 .
b10100100 C
b10111101 -
b10111101 D
b1101110 2
b1101110 ?
b110101 1
b110101 @
1!
#103002
b1111000 <
b1111000 h
b11011100 >
b11011100 j
b10000100 ;
b10000100 g
b1001110 =
b1001110 i
b11001101 \
b110110000000 e
b11011 ^
b11011 a
b10000000 [
b1110011100000000 f
b110010 ]
b110010 b
b11010110 P
b10101010 R
b10101010 _
b11001 O
b1101001 Q
b1101001 `
b10110010000000 Z
b10100111 (
b10100111 9
b10100111 U
b1001110000000 Y
b11011001 )
b11011001 :
b11011001 V
b101100000000 N
b11101010 &
b11101010 7
b11101010 I
b10110000000000 M
b10101000 '
b10101000 8
b10101000 J
b1110100 $
b1110100 5
b1110100 S
b1011001 %
b1011001 6
b1011001 T
b11000000 "
b11000000 3
b11000000 G
b11000001 #
b11000001 4
b11000001 H
#107002
0!
#112002
b11011100 ,
b11011100 E
b1001110 +
b1001110 F
b1111000 0
b1111000 A
b10000100 /
b10000100 B
b1001 .
b1001 C
b10011001 -
b10011001 D
b10100011 2
b10100011 ?
b10011001 1
b10011001 @
1!
#113002
b0 <
b0 h
b1000100 >
b1000100 j
b10010101 ;
b10010101 g
b110011 =
b110011 i
b1000001 \
b1100010000000 e
b110001 ^
b110001 a
b10011110 [
b1110111100000000 f
b100010 ]
b100010 b
b1110010 P
b100010 R
b100010 _
b11000110 O
b1100100 Q
b1100100 `
b10000000000 Z
b11111000 (
b11111000 9
b11111000 U
b1111100000000 Y
b11000010 )
b11000010 :
b11000010 V
b1010000000000 N
b11011000 &
b11011000 7
b11011000 I
b1100010000000 M
b11001111 '
b11001111 8
b11001111 J
b111001 $
b111001 5
b111001 S
b1100000 %
b1100000 6
b1100000 T
b1001010 "
b1001010 3
b1001010 G
b10010101 #
b10010101 4
b10010101 H
#117002
0!
#122002
b1000100 ,
b1000100 E
b110011 +
b110011 F
b0 0
b0 A
b10010101 /
b10010101 B
b110001 .
b110001 C
b101000 -
b101000 D
b10110011 2
b10110011 ?
b1100100 1
b1100100 @
1!
#123002
b10011111 <
b10011111 h
b10110011 >
b10110011 j
b11111101 ;
b11111101 g
b1110011 =
b1110011 i
b10000101 \
b10001010000000 e
b1000101 ^
b1000101 a
b11000010 [
b11101100000000 f
b10001010 ]
b10001010 b
b11010011 P
b101001 R
b101001 _
b10001100 O
b10111000 Q
b10111000 `
b1101000000000000 Z
b1100000 (
b1100000 9
b1100000 U
b111000000000 Y
b11100100 )
b11100100 :
b11100100 V
b10101010000000 N
b10101011 &
b10101011 7
b10101011 I
b11010100000000 M
b10010110 '
b10010110 8
b10010110 J
b11100101 $
b11100101 5
b11100101 S
b10100110 %
b10100110 6
b10100110 T
b1111110 "
b1111110 3
b1111110 G
b100010 #
b100010 4
b100010 H
#127002
0!
#132002
b10110011 ,
b10110011 E
b1110011 +
b1110011 F
b10011111 0
b10011111 A
b11111101 /
b11111101 B
b1001110 .
b1001110 C
b11001010 -
b11001010 D
b1011000 2
b1011000 ?
b1001110 1
b1001110 @
1!
#133002
b1100010 <
b1100010 h
b1100110 >
b1100110 j
b1100110 ;
b1100110 g
b1011110 =
b1011110 i
b1001100 \
b1000000000 e
b100 ^
b100 a
b10001100 [
b1111111100000000 f
b10 ]
b10 b
b100 P
b1100100 R
b1100100 _
b10100 O
b1100010 Q
b1100010 `
b1101001000000000 Z
b1011100 (
b1011100 9
b1011100 U
b10001010000000 Y
b10111011 )
b10111011 :
b10111011 V
b1110100000000000 N
b110000 &
b110000 7
b110000 I
b10110010000000 M
b10100111 '
b10100111 8
b10100111 J
b10101000 $
b10101000 5
b10101000 S
b1000111 %
b1000111 6
b1000111 T
b110100 "
b110100 3
b110100 G
b10111011 #
b10111011 4
b10111011 H
#137002
0!
#142002
b1100110 ,
b1100110 E
b1011110 +
b1011110 F
b1100010 0
b1100010 A
b1100110 /
b1100110 B
b10111000 .
b10111000 C
b10001000 -
b10001000 D
b1010000 2
b1010000 ?
b10100000 1
b10100000 @
1!
#143002
b100010 <
b100010 h
b1011110 >
b1011110 j
b100101 ;
b100101 g
b1110101 =
b1110101 i
b10010000 \
b10110000000000 e
b1011000 ^
b1011000 a
b1000000 [
b1111000100000000 f
b11110 ]
b11110 b
b10 P
b1000000 R
b1000000 _
b11000111 O
b11001101 Q
b11001101 `
b1100111000000000 Z
b1100100 (
b1100100 9
b1100100 U
b100010000000 Y
b11101111 )
b11101111 :
b11101111 V
b11000010000000 N
b10011111 &
b10011111 7
b10011111 I
b1111111010000000 M
b11 '
b11 8
b11 J
b11110100 $
b11110100 5
b11110100 S
b101111 %
b101111 6
b101111 T
b10100001 "
b10100001 3
b10100001 G
b11001010 #
b11001010 4
b11001010 H
#147002
0!
#152002
b1011110 ,
b1011110 E
b1110101 +
b1110101 F
b100010 0
b100010 A
b100101 /
b100101 B
b1110010 .
b1110010 C
b10000111 -
b10000111 D
b10010010 2
b10010010 ?
b111 1
b111 @
1!
#153002
b11001110 <
b11001110 h
b11000010 >
b11000010 j
b10101111 ;
b10101111 g
b11110011 =
b11110011 i
b11001010 \
b10111100000000 e
b1011110 ^
b1011110 a
b10001010 [
b1100001100000000 f
b1111010 ]
b1111010 b
b101010 P
b1001000 R
b1001000 _
b10001001 O
b1010001 Q
b1010001 `
b1101100000000 Z
b11001010 (
b11001010 9
b11001010 U
b1100010000000000 Y
b1111000 )
b1111000 :
b1111000 V
b1111100010000000 N
b1111 &
b1111 7
b1111 I
b1100111000000000 M
b1100100 '
b1100100 8
b1100100 J
b10010100 $
b10010100 5
b10010100 S
b10 %
b10 6
b10 T
b111001 "
b111001 3
b111001 G
b11101101 #
b11101101 4
b11101101 H
#157002
0!
#162002
b11000010 ,
b11000010 E
b11110011 +
b11110011 F
b11001110 0
b11001110 A
b10101111 /
b10101111 B
b1100000 .
b1100000 C
b11111111 -
b11111111 D
b11110100 2
b11110100 ?
b10011 1
b10011 @
1!
#163002
b10111001 <
b10111001 h
b110101 >
b110101 j
b111100 ;
b111100 g
b10111000 =
b10111000 i
b110000 \
b10000100000000 e
b1000010 ^
b1000010 a
b1011010 [
b1110000100000000 f
b111110 ]
b111110 b
b11000111 P
b11110111 R
b11110111 _
b11011100 O
b11111010 Q
b11111010 `
b1111101110000000 Z
b1001 (
b1001 9
b1001 U
b1100011100000000 Y
b1110010 )
b1110010 :
b1110010 V
b1111010000000000 N
b11000 &
b11000 7
b11000 I
b11100010000000 M
b10001111 '
b10001111 8
b10001111 J
b111001 $
b111001 5
b111001 S
b11001100 %
b11001100 6
b11001100 T
b11011111 "
b11011111 3
b11011111 G
b1101011 #
b1101011 4
b1101011 H
#167002
0!
#172002
b110101 ,
b110101 E
b10111000 +
b10111000 F
b10111001 0
b10111001 A
b111100 /
b111100 B
b10010111 .
b10010111 C
b10000010 -
b10000010 D
b11110111 2
b11110111 ?
b110110 1
b110110 @
1!
#173002
b110101 <
b110101 h
b101011 >
b101011 j
b11111000 ;
b11111000 g
b1011100 =
b1011100 i
b11011000 \
b10011100000000 e
b1001110 ^
b1001110 a
b11011011 [
b1010000000 f
b11111011 ]
b11111011 b
b11111000 P
b110000 R
b110000 _
b1000110 O
b10101010 Q
b10101010 `
b10001010000000 Z
b10111011 (
b10111011 9
b10111011 U
b1111100000000000 Y
b10000 )
b10000 :
b10000 V
b1111001000000000 N
b11100 &
b11100 7
b11100 I
b10011100000000 M
b10110010 '
b10110010 8
b10110010 J
b10010011 $
b10010011 5
b10010011 S
b11101011 %
b11101011 6
b11101011 T
b10100 "
b10100 3
b10100 G
b11111000 #
b11111000 4
b11111000 H
#177002
0!
#182002
b101011 ,
b101011 E
b1011100 +
b1011100 F
b110101 0
b110101 A
b11111000 /
b11111000 B
b100000 .
b100000 C
b1101011 -
b1101011 D
b11010000 2
b11010000 ?
b100001 1
b100001 @
1!
#183002
b11000000 <
b11000000 h
b11010010 >
b11010010 j
b11100000 ;
b11100000 g
b1110100 =
b1110100 i
b111110 \
b1101101100000000 e
b10110110 ^
b10110110 a
b10111111 [
b11101110000000 f
b10001001 ]
b10001001 b
b11010011 P
b1001001 R
b1001001 _
b10010000 O
b101010 Q
b101010 `
b1110001000000000 Z
b111100 (
b111100 9
b111100 U
b1100110110000000 Y
b1100101 )
b1100101 :
b1100101 V
b10001010000000 N
b10111011 &
b10111011 7
b10111011 I
b1100110000000 M
b11001101 '
b11001101 8
b11001101 J
b1111010 $
b1111010 5
b1111010 S
b100100 %
b100100 6
b100100 T
b10001110 "
b10001110 3
b10001110 G
b1011101 #
b1011101 4
b1011101 H
#187002
0!
#192002
b11010010 ,
b11010010 E
b1110100 +
b1110100 F
b11000000 0
b11000000 A
b11100000 /
b11100000 B
b10010101 .
b10010101 C
b11010001 -
b11010001 D
b10001 2
b10001 ?
b1001111 1
b1001111 @
1!
#193002
b1110000 <
b1110000 h
b10011100 >
b10011100 j
b10010100 ;
b10010100 g
b1010010 =
b1010010 i
b11011111 \
b1101000010000000 e
b10100001 ^
b10100001 a
b1000010 [
b11010100000000 f
b10010110 ]
b10010110 b
b10100110 P
b110 R
b110 _
b100011 O
b11110011 Q
b11110011 `
b111110000000 Z
b11100001 (
b11100001 9
b11100001 U
b1110101100000000 Y
b101010 )
b101010 :
b101010 V
b10100000000000 N
b10110000 &
b10110000 7
b10110000 I
b1100110000000000 M
b1101000 '
b1101000 8
b1101000 J
b11000000 $
b11000000 5
b11000000 S
b1101100 %
b1101100 6
b1101100 T
b1010110 "
b1010110 3
b1010110 G
b10001011 #
b10001011 4
b10001011 H
#197002
0!
#202002
b10011100 ,
b10011100 E
b1010010 +
b1010010 F
b1110000 0
b1110000 A
b10010100 /
b10010100 B
b11000111 .
b11000111 C
b11100001 -
b11100001 D
b10000101 2
b10000101 ?
b1100101 1
b1100101 @
1!
#203002
b10000001 <
b10000001 h
b1001 >
b1001 j
b11110111 ;
b11110111 g
b10111011 =
b10111011 i
b11110110 \
b111100000000 e
b11110 ^
b11110 a
b10001000 [
b1111000000000 f
b11000100 ]
b11000100 b
b110011 P
b1000101 R
b1000101 _
b10010111 O
b11011001 Q
b11011001 `
b11011000000000 Z
b10010100 (
b10010100 9
b10010100 U
b1111000100000000 Y
b11110 )
b11110 :
b11110 V
b11101110000000 N
b10001001 &
b10001001 7
b10001001 I
b1110111110000000 M
b100001 '
b100001 8
b100001 J
b10001010 $
b10001010 5
b10001010 S
b10100110 %
b10100110 6
b10100110 T
b10111100 "
b10111100 3
b10111100 G
b10111000 #
b10111000 4
b10111000 H
#207002
0!
#212002
b1001 ,
b1001 E
b10111011 +
b10111011 F
b10000001 0
b10000001 A
b11110111 /
b11110111 B
b111101 .
b111101 C
b1111 -
b1111 D
b101001 2
b101001 ?
b11111 1
b11111 @
1!
