test/fft_engine/wave/fft_engine_tb_20250702_23:40:15.vcd
$date
	Wed Jul  2 23:40:21 2025
$end
$version
	Icarus Verilog
$end
$timescale
	1ps
$end
$scope module fft_engine_tb $end
$var wire 1 ! clk $end
$var wire 8 " in0_imag [7:0] $end
$var wire 8 # in0_real [7:0] $end
$var wire 8 $ in1_imag [7:0] $end
$var wire 8 % in1_real [7:0] $end
$var wire 8 & in2_imag [7:0] $end
$var wire 8 ' in2_real [7:0] $end
$var wire 8 ( in3_imag [7:0] $end
$var wire 8 ) in3_real [7:0] $end
$var wire 1 * rst $end
$var wire 8 + out3_real [7:0] $end
$var wire 8 , out3_imag [7:0] $end
$var wire 8 - out2_real [7:0] $end
$var wire 8 . out2_imag [7:0] $end
$var wire 8 / out1_real [7:0] $end
$var wire 8 0 out1_imag [7:0] $end
$var wire 8 1 out0_real [7:0] $end
$var wire 8 2 out0_imag [7:0] $end
$scope module dut $end
$var wire 1 ! clk $end
$var wire 8 3 in0_imag [7:0] $end
$var wire 8 4 in0_real [7:0] $end
$var wire 8 5 in1_imag [7:0] $end
$var wire 8 6 in1_real [7:0] $end
$var wire 8 7 in2_imag [7:0] $end
$var wire 8 8 in2_real [7:0] $end
$var wire 8 9 in3_imag [7:0] $end
$var wire 8 : in3_real [7:0] $end
$var wire 1 * rst $end
$var wire 8 ; bfly_pos_real [7:0] $end
$var wire 8 < bfly_pos_imag [7:0] $end
$var wire 8 = bfly_neg_real [7:0] $end
$var wire 8 > bfly_neg_imag [7:0] $end
$var reg 8 ? out0_imag [7:0] $end
$var reg 8 @ out0_real [7:0] $end
$var reg 8 A out1_imag [7:0] $end
$var reg 8 B out1_real [7:0] $end
$var reg 8 C out2_imag [7:0] $end
$var reg 8 D out2_real [7:0] $end
$var reg 8 E out3_imag [7:0] $end
$var reg 8 F out3_real [7:0] $end
$scope module bfly_stage1_0 $end
$var wire 8 G A_imag [7:0] $end
$var wire 8 H A_real [7:0] $end
$var wire 8 I B_imag [7:0] $end
$var wire 8 J B_real [7:0] $end
$var wire 8 K W_imag [7:0] $end
$var wire 8 L W_real [7:0] $end
$var wire 16 M product_real [15:0] $end
$var wire 16 N product_imag [15:0] $end
$var wire 8 O Pos_real [7:0] $end
$var wire 8 P Pos_imag [7:0] $end
$var wire 8 Q Neg_real [7:0] $end
$var wire 8 R Neg_imag [7:0] $end
$upscope $end
$scope module bfly_stage1_1 $end
$var wire 8 S A_imag [7:0] $end
$var wire 8 T A_real [7:0] $end
$var wire 8 U B_imag [7:0] $end
$var wire 8 V B_real [7:0] $end
$var wire 8 W W_imag [7:0] $end
$var wire 8 X W_real [7:0] $end
$var wire 16 Y product_real [15:0] $end
$var wire 16 Z product_imag [15:0] $end
$var wire 8 [ Pos_real [7:0] $end
$var wire 8 \ Pos_imag [7:0] $end
$var wire 8 ] Neg_real [7:0] $end
$var wire 8 ^ Neg_imag [7:0] $end
$upscope $end
$scope module bfly_stage2_1 $end
$var wire 8 _ A_imag [7:0] $end
$var wire 8 ` A_real [7:0] $end
$var wire 8 a B_imag [7:0] $end
$var wire 8 b B_real [7:0] $end
$var wire 8 c W_imag [7:0] $end
$var wire 8 d W_real [7:0] $end
$var wire 16 e product_real [15:0] $end
$var wire 16 f product_imag [15:0] $end
$var wire 8 g Pos_real [7:0] $end
$var wire 8 h Pos_imag [7:0] $end
$var wire 8 i Neg_real [7:0] $end
$var wire 8 j Neg_imag [7:0] $end
$upscope $end
$upscope $end
$upscope $end
$enddefinitions $end
#0
$dumpvars
bx j
bx i
bx h
bx g
bx f
bx e
b0 d
b10000000 c
bx b
bx a
bx `
bx _
bx ^
bx ]
bx \
bx [
bx Z
bx Y
b10000000 X
b0 W
bz V
bz U
b11101100 T
bz S
bx R
bx Q
bx P
bx O
bx N
bx M
b10000000 L
b0 K
bz J
b1100100 I
b110010 H
b110010 G
b0 F
b0 E
b0 D
b0 C
b0 B
b0 A
b0 @
b0 ?
bx >
bx =
bx <
bx ;
bz :
bz 9
bz 8
b1100100 7
b11101100 6
bz 5
b110010 4
b110010 3
b0 2
b0 1
b0 0
b0 /
b0 .
b0 -
b0 ,
b0 +
1*
bz )
bz (
bz '
b1100100 &
b11101100 %
bz $
b110010 #
b110010 "
1!
$end
#1
b1 ;
b1 g
b1 =
b1 i
b0 <
b0 h
b0 >
b0 j
b0 [
b0 e
b0 f
b0 ]
b0 b
b0 \
b0 ^
b0 a
b1 O
b1 Q
b1 `
b0 P
b0 R
b0 _
b0 Y
b0 Z
b0 (
b0 9
b0 U
b0 )
b0 :
b0 V
b0 &
b0 7
b0 I
b0 M
b0 N
b0 '
b0 8
b0 J
b0 $
b0 5
b0 S
b0 %
b0 6
b0 T
b0 "
b0 3
b0 G
b1 #
b1 4
b1 H
0*
#5001
0!
#10001
b1 +
b1 F
b1 /
b1 B
b1 -
b1 D
b1 1
b1 @
1!
#11002
b10 ;
b10 g
b10 =
b10 i
b11111110 <
b11111110 h
b10 >
b10 j
b0 O
b10 Q
b10 `
b0 [
b1111111100000000 f
b10 ]
b10 b
b1111111110000000 Y
b1 )
b1 :
b1 V
b1111111110000000 M
b1 '
b1 8
b1 J
b1 %
b1 6
b1 T
#16002
0!
#21002
b10 ,
b10 E
b10 +
b10 F
b11111110 0
b11111110 A
b10 /
b10 B
b0 -
b0 D
b0 1
b0 @
1!
#22003
b111100 <
b111100 h
b1110100 >
b1110100 j
b1100100 ;
b1100100 g
b10100 =
b10100 i
b10001000 \
b1010000000000 e
b101000 ^
b101000 a
b101000 [
b11001000000000 f
b10011100 ]
b10011100 b
b1010000 P
b11011000 R
b11011000 _
b11011000 O
b111100 Q
b111100 `
b1101100000000000 Z
b1010000 (
b1010000 9
b1010000 U
b10001100000000 Y
b10111010 )
b10111010 :
b10111010 V
b1111000000000 N
b11000100 &
b11000100 7
b11000100 I
b1110011100000000 M
b110010 '
b110010 8
b110010 J
b11011000 $
b11011000 5
b11011000 S
b11100010 %
b11100010 6
b11100010 T
b10100 "
b10100 3
b10100 G
b1010 #
b1010 4
b1010 H
#27003
0!
#32003
b1110100 ,
b1110100 E
b10100 +
b10100 F
b111100 0
b111100 A
b1100100 /
b1100100 B
b11001000 .
b11001000 C
b10110000 -
b10110000 D
b11011000 2
b11011000 ?
1!
#33004
b110111 <
b110111 h
b1111011 >
b1111011 j
b10101 ;
b10101 g
b110111 =
b110111 i
b1011011 \
b1111011110000000 e
b11101111 ^
b11101111 a
b11011010 [
b10111100000000 f
b10100010 ]
b10100010 b
b10010101 P
b11011001 R
b11011001 _
b11001000 O
b100110 Q
b100110 `
b1101101100000000 Z
b1001010 (
b1001010 9
b1001010 U
b1100111000000000 Y
b1100100 )
b1100100 :
b1100100 V
b1110111100000000 N
b100010 &
b100010 7
b100010 I
b10100010000000 M
b10101111 '
b10101111 8
b10101111 J
b10100101 $
b10100101 5
b10100101 S
b111110 %
b111110 6
b111110 T
b10110111 "
b10110111 3
b10110111 G
b1110111 #
b1110111 4
b1110111 H
#38004
0!
#43004
b1111011 ,
b1111011 E
b110111 +
b110111 F
b110111 0
b110111 A
b10101 /
b10101 B
b111010 .
b111010 C
b11101110 -
b11101110 D
b11110000 2
b11110000 ?
b10100010 1
b10100010 @
1!
#44004
b1111011 <
b1111011 h
b1011 >
b1011 j
b1111001 ;
b1111001 g
b100101 =
b100101 i
b1010010 \
b1101010100000000 e
b10101010 ^
b10101010 a
b11010010 [
b1101110000000000 f
b1001000 ]
b1001000 b
b10101011 P
b11000011 R
b11000011 _
b1111 O
b11001111 Q
b11001111 `
b10101000000000 Z
b10101100 (
b10101100 9
b10101100 U
b1110001010000000 Y
b111011 )
b111011 :
b111011 V
b11101000000000 N
b10001100 &
b10001100 7
b10001100 I
b1101000000000000 M
b1100000 '
b1100000 8
b1100000 J
b11111110 $
b11111110 5
b11111110 S
b1101 %
b1101 6
b1101 T
b110111 "
b110111 3
b110111 G
b1101111 #
b1101111 4
b1101111 H
#48004
0!
#53004
b1011 ,
b1011 E
b100101 +
b100101 F
b1111011 0
b1111011 A
b1111001 /
b1111001 B
b1011001 .
b1011001 C
b111101 -
b111101 D
b11111101 2
b11111101 ?
b11100001 1
b11100001 @
1!
#54004
b100100 <
b100100 h
b1100110 >
b1100110 j
b111111 ;
b111111 g
b111101 =
b111101 i
b10101 \
b1100000010000000 e
b10000001 ^
b10000001 a
b10010011 [
b1110111110000000 f
b100001 ]
b100001 b
b10110111 P
b1000101 R
b1000101 _
b1110010 O
b10111110 Q
b10111110 `
b1110010100000000 Z
b110110 (
b110110 9
b110110 U
b1110010000000 Y
b11000111 )
b11000111 :
b11000111 V
b1110010000000 N
b11000111 &
b11000111 7
b11000111 I
b1110110100000000 M
b100110 '
b100110 8
b100110 J
b1001011 $
b1001011 5
b1001011 S
b1011010 %
b1011010 6
b1011010 T
b1111110 "
b1111110 3
b1111110 G
b10011000 #
b10011000 4
b10011000 H
#58004
0!
#63004
b1100110 ,
b1100110 E
b111101 +
b111101 F
b100100 0
b100100 A
b111111 /
b111111 B
b10100010 .
b10100010 C
b11011111 -
b11011111 D
b11001100 2
b11001100 ?
b101 1
b101 @
1!
#64004
b10001110 <
b10001110 h
b110110 >
b110110 j
b1110 ;
b1110 g
b11001100 =
b11001100 i
b11000001 \
b1000010000000 e
b100001 ^
b100001 a
b10000000 [
b1101011000000000 f
b1010100 ]
b1010100 b
b100000 P
b11100010 R
b11100010 _
b11011 O
b11101101 Q
b11101101 `
b10100000000000 Z
b10110000 (
b10110000 9
b10110000 U
b101100000000 Y
b11101010 )
b11101010 :
b11101010 V
b1100111110000000 N
b1100001 &
b1100001 7
b1100001 I
b101110000000 M
b11101001 '
b11101001 8
b11101001 J
b1110001 $
b1110001 5
b1110001 S
b1101010 %
b1101010 6
b1101010 T
b10000001 "
b10000001 3
b10000001 G
b100 #
b100 4
b100 H
#68004
0!
#73004
b110110 ,
b110110 E
b11001100 +
b11001100 F
b10001110 0
b10001110 A
b1110 /
b1110 B
b1011111 .
b1011111 C
b10011011 -
b10011011 D
b11100001 2
b11100001 ?
b10011011 1
b10011011 @
1!
#74004
b11110100 <
b11110100 h
b1101100 >
b1101100 j
b1001011 ;
b1001011 g
b1001 =
b1001 i
b100111 \
b1000010000000 e
b100001 ^
b100001 a
b10001100 [
b10001000000000 f
b10111100 ]
b10111100 b
b10000000 P
b10110000 R
b10110000 _
b1001010 O
b101010 Q
b101010 `
b1100000110000000 Z
b1111101 (
b1111101 9
b1111101 U
b11010000000000 Y
b10011000 )
b10011000 :
b10011000 V
b1111010000000000 N
b11000 &
b11000 7
b11000 I
b1100100000000000 M
b1110000 '
b1110000 8
b1110000 J
b10100100 $
b10100100 5
b10100100 S
b100100 %
b100100 6
b100100 T
b10011000 "
b10011000 3
b10011000 G
b10111010 #
b10111010 4
b10111010 H
#78004
0!
#83004
b1101100 ,
b1101100 E
b1001 +
b1001 F
b11110100 0
b11110100 A
b1001011 /
b1001011 B
b1011001 .
b1011001 C
b10111110 -
b10111110 D
b10100111 2
b10100111 ?
b11010110 1
b11010110 @
1!
#84004
b1010101 <
b1010101 h
b1010001 >
b1010001 j
b110110 ;
b110110 g
b1100 =
b1100 i
b100011 \
b1100101010000000 e
b10010101 ^
b10010101 a
b11010110 [
b100000000 f
b11111110 ]
b11111110 b
b10010011 P
b1010011 R
b1010011 _
b11011001 O
b10100001 Q
b10100001 `
b1110001110000000 Z
b111001 (
b111001 9
b111001 U
b1111011000000000 Y
b10100 )
b10100 :
b10100 V
b1101000000000000 N
b1100000 &
b1100000 7
b1100000 I
b111000000000 M
b11100100 '
b11100100 8
b11100100 J
b1011100 $
b1011100 5
b1011100 S
b11101010 %
b11101010 6
b11101010 T
b11110011 "
b11110011 3
b11110011 G
b10111101 #
b10111101 4
b10111101 H
#88004
0!
#93004
b1010001 ,
b1010001 E
b1100 +
b1100 F
b1010101 0
b1010101 A
b110110 /
b110110 B
b1110000 .
b1110000 C
b11 -
b11 D
b10110110 2
b10110110 ?
b10101111 1
b10101111 @
1!
#94004
b1101001 <
b1101001 h
b10011111 >
b10011111 j
b101000 ;
b101000 g
b1111000 =
b1111000 i
b1100 \
b1110110000000000 e
b11011000 ^
b11011000 a
b11010011 [
b11001010000000 f
b10011011 ]
b10011011 b
b11101000 P
b100 R
b100 _
b1010 O
b1010000 Q
b1010000 `
b1100110100000000 Z
b1100110 (
b1100110 9
b1100110 U
b111000000000 Y
b11100100 )
b11100100 :
b11100100 V
b1111100100000000 N
b1110 &
b1110 7
b1110 I
b1110111010000000 M
b100011 '
b100011 8
b100011 J
b1110010 $
b1110010 5
b1110010 S
b10110111 %
b10110111 6
b10110111 T
b11110110 "
b11110110 3
b11110110 G
b101101 #
b101101 4
b101101 H
#98004
0!
#103004
b10011111 ,
b10011111 E
b1111000 +
b1111000 F
b1101001 0
b1101001 A
b101000 /
b101000 B
b11011100 .
b11011100 C
b110111 -
b110111 D
b11110100 2
b11110100 ?
b11011101 1
b11011101 @
1!
#104004
b1011000 <
b1011000 h
b0 >
b0 j
b11000101 ;
b11000101 g
b11001001 =
b11001001 i
b1111110 \
b1111111100000000 e
b11111110 ^
b11111110 a
b10000110 [
b1101011000000000 f
b1010100 ]
b1010100 b
b11101100 P
b10101100 R
b10101100 _
b1111011 O
b11000111 Q
b11000111 `
b1110000000000000 Z
b1000000 (
b1000000 9
b1000000 U
b1100110010000000 Y
b1100111 )
b1100111 :
b1100111 V
b1101000000000000 N
b1100000 &
b1100000 7
b1100000 I
b10110100000000 M
b10100110 '
b10100110 8
b10100110 J
b10111110 $
b10111110 5
b10111110 S
b11101101 %
b11101101 6
b11101101 T
b1001100 "
b1001100 3
b1001100 G
b100001 #
b100001 4
b100001 H
#108004
0!
#113004
b0 ,
b0 E
b11001001 +
b11001001 F
b1011000 0
b1011000 A
b11000101 /
b11000101 B
b1101110 .
b1101110 C
b11110101 -
b11110101 D
b1101010 2
b1101010 ?
b1 1
b1 @
1!
#114004
b1010011 <
b1010011 h
b11011001 >
b11011001 j
b10111111 ;
b10111111 g
b111 =
b111 i
b10000 \
b10111000000000 e
b1011100 ^
b1011100 a
b11011001 [
b1101111010000000 f
b1000011 ]
b1000011 b
b11010100 P
b10010110 R
b10010110 _
b10001011 O
b1100011 Q
b1100011 `
b1110110100000000 Z
b100110 (
b100110 9
b100110 U
b1110010110000000 Y
b110101 )
b110101 :
b110101 V
b1100111110000000 N
b1100001 &
b1100001 7
b1100001 I
b101000000000 M
b11101100 '
b11101100 8
b11101100 J
b110110 $
b110110 5
b110110 S
b1110 %
b1110 6
b1110 T
b110101 "
b110101 3
b110101 G
b1110111 #
b1110111 4
b1110111 H
#118004
0!
#123004
b11011001 ,
b11011001 E
b111 +
b111 F
b1010011 0
b1010011 A
b10111111 /
b10111111 B
b11000100 .
b11000100 C
b10110010 -
b10110010 D
b11100100 2
b11100100 ?
b1100100 1
b1100100 @
1!
#124004
b11010111 <
b11010111 h
b11100001 >
b11100001 j
b10101000 ;
b10101000 g
b11010010 =
b11010010 i
b1100111 \
b1111010110000000 e
b11101011 ^
b11101011 a
b1000011 [
b1111110110000000 f
b101 ]
b101 b
b1111000 P
b11011100 R
b11011100 _
b1111101 O
b10111101 Q
b10111101 `
b1101111100000000 Z
b1000010 (
b1000010 9
b1000010 U
b111110000000 Y
b11100001 )
b11100001 :
b11100001 V
b10011100000000 N
b10110010 &
b10110010 7
b10110010 I
b1111000000000000 M
b100000 '
b100000 8
b100000 J
b10101001 $
b10101001 5
b10101001 S
b100100 %
b100100 6
b100100 T
b101010 "
b101010 3
b101010 G
b10011101 #
b10011101 4
b10011101 H
#128004
0!
#133004
b11100001 ,
b11100001 E
b11010010 +
b11010010 F
b11010111 0
b11010111 A
b10101000 /
b10101000 B
b10001 .
b10001 C
b111010 -
b111010 D
b11011111 2
b11011111 ?
b11000000 1
b11000000 @
1!
#134004
b1111111 <
b1111111 h
b11010101 >
b11010101 j
b1101101 ;
b1101101 g
b100101 =
b100101 i
b10110010 \
b1101001000000000 e
b10100100 ^
b10100100 a
b100001 [
b1110101010000000 f
b101011 ]
b101011 b
b110100 P
b10101010 R
b10101010 _
b10111101 O
b11001001 Q
b11001001 `
b1100001110000000 Z
b1111001 (
b1111001 9
b1111001 U
b1111110110000000 Y
b101 )
b101 :
b101 V
b1110001010000000 N
b111011 &
b111011 7
b111011 I
b11110100000000 M
b10000110 '
b10000110 8
b10000110 J
b101011 $
b101011 5
b101011 S
b100110 %
b100110 6
b100110 T
b1101111 "
b1101111 3
b1101111 G
b1000011 #
b1000011 4
b1000011 H
#138004
0!
#143004
b11010101 ,
b11010101 E
b100101 +
b100101 F
b1111111 0
b1111111 A
b1101101 /
b1101101 B
b10000010 .
b10000010 C
b10011100 -
b10011100 D
b11100110 2
b11100110 ?
b11011110 1
b11011110 @
1!
#144004
b11011100 <
b11011100 h
b11110 >
b11110 j
b10111100 ;
b10111100 g
b10111100 =
b10111100 i
b11001100 \
b1100000000000000 e
b10000000 ^
b10000000 a
b1001011 [
b10111110000000 f
b10100001 ]
b10100001 b
b10000111 P
b1111101 R
b1111101 _
b10001010 O
b111100 Q
b111100 `
b1101001100000000 Z
b1011010 (
b1011010 9
b1011010 U
b10101010000000 Y
b10101011 )
b10101011 :
b10101011 V
b1010000000 N
b11111011 &
b11111011 7
b11111011 I
b1101001110000000 M
b1011001 '
b1011001 8
b1011001 J
b100110 $
b100110 5
b100110 S
b11110110 %
b11110110 6
b11110110 T
b10000010 "
b10000010 3
b10000010 G
b11100011 #
b11100011 4
b11100011 H
#148004
0!
#153004
b11110 ,
b11110 E
b10111100 +
b10111100 F
b11011100 0
b11011100 A
b10111100 /
b10111100 B
b10111011 .
b10111011 C
b111111 -
b111111 D
b1010011 2
b1010011 ?
b11010101 1
b11010101 @
1!
#154004
b10000 <
b10000 h
b11111010 >
b11111010 j
b10010100 ;
b10010100 g
b110010 =
b110010 i
b11111011 \
b1100010000000 e
b110001 ^
b110001 a
b11001101 [
b10110000000 f
b11110101 ]
b11110101 b
b1110011 P
b101 R
b101 _
b11101011 O
b1100011 Q
b1100011 `
b1111001010000000 Z
b11011 (
b11011 9
b11011 U
b1111011000000000 Y
b10100 )
b10100 :
b10100 V
b1101110000000 N
b11001001 &
b11001001 7
b11001001 I
b10001000000000 M
b10111100 '
b10111100 8
b10111100 J
b10110 $
b10110 5
b10110 S
b11100001 %
b11100001 6
b11100001 T
b111100 "
b111100 3
b111100 G
b10100111 #
b10100111 4
b10100111 H
#158004
0!
#163004
b11111010 ,
b11111010 E
b110010 +
b110010 F
b10000 0
b10000 A
b10010100 /
b10010100 B
b1111000 .
b1111000 C
b11110 -
b11110 D
b1101110 2
b1101110 ?
b10111000 1
b10111000 @
1!
#164004
b10010100 <
b10010100 h
b10100100 >
b10100100 j
b1100110 ;
b1100110 g
b11011000 =
b11011000 i
b10111101 \
b1110001110000000 e
b11000111 ^
b11000111 a
b10001110 [
b1111110000000000 f
b1000 ]
b1000 b
b11110010 P
b10011100 R
b10011100 _
b1101101 O
b10011111 Q
b10011111 `
b1111110110000000 Z
b101 (
b101 9
b101 U
b10000110000000 Y
b10111101 )
b10111101 :
b10111101 V
b1010110000000 N
b11010101 &
b11010101 7
b11010101 I
b1111001110000000 M
b11001 '
b11001 8
b11001 J
b11000010 $
b11000010 5
b11000010 S
b1001011 %
b1001011 6
b1001011 T
b11000111 "
b11000111 3
b11000111 G
b10000110 #
b10000110 4
b10000110 H
#168004
0!
#173004
b10100100 ,
b10100100 E
b11011000 +
b11011000 F
b10010100 0
b10010100 A
b1100110 /
b1100110 B
b110101 .
b110101 C
b11011111 -
b11011111 D
b10101111 2
b10101111 ?
b11111011 1
b11111011 @
1!
#174004
b11101111 <
b11101111 h
b11010111 >
b11010111 j
b11010111 ;
b11010111 g
b10111101 =
b10111101 i
b1100001 \
b1100011010000000 e
b10001101 ^
b10001101 a
b1111100 [
b1100011000000000 f
b1110100 ]
b1110100 b
b11011 P
b1100011 R
b1100011 _
b10000110 O
b1001010 Q
b1001010 `
b1111010100000000 Z
b10110 (
b10110 9
b10110 U
b1000000000 Y
b11111100 )
b11111100 :
b11111100 V
b1110111000000000 N
b100100 &
b100100 7
b100100 I
b1100111100000000 M
b1100010 '
b1100010 8
b1100010 J
b1110111 $
b1110111 5
b1110111 S
b1111000 %
b1111000 6
b1111000 T
b111111 "
b111111 3
b111111 G
b11101000 #
b11101000 4
b11101000 H
#178004
0!
#183004
b11010111 ,
b11010111 E
b10111101 +
b10111101 F
b11101111 0
b11101111 A
b11010111 /
b11010111 B
b10111010 .
b10111010 C
b1010 -
b1010 D
b1111100 2
b1111100 ?
b10 1
b10 @
1!
#184004
b11011111 <
b11011111 h
b10000111 >
b10000111 j
b11100001 ;
b11100001 g
b11111 =
b11111 i
b10000111 \
b11000010000000 e
b1100001 ^
b1100001 a
b1110000 [
b1101011000000000 f
b1010100 ]
b1010100 b
b1111001 P
b110011 R
b110011 _
b1001010 O
b10000000 Q
b10000000 `
b100110000000 Z
b11101101 (
b11101101 9
b11101101 U
b11100000000 Y
b11110010 )
b11110010 :
b11110010 V
b1000110000000 N
b11011101 &
b11011101 7
b11011101 I
b11001010000000 M
b10011011 '
b10011011 8
b10011011 J
b1110100 $
b1110100 5
b1110100 S
b1100010 %
b1100010 6
b1100010 T
b1010110 "
b1010110 3
b1010110 G
b11100101 #
b11100101 4
b11100101 H
#188004
0!
#193004
b10000111 ,
b10000111 E
b11111 +
b11111 F
b11011111 0
b11011111 A
b11100001 /
b11100001 B
b11110010 .
b11110010 C
b11011010 -
b11011010 D
b0 2
b0 ?
b10111010 1
b10111010 @
1!
#194004
b1011 <
b1011 h
b110111 >
b110111 j
b10000 ;
b10000 g
b10001010 =
b10001010 i
b111 \
b10000110000000 e
b1000011 ^
b1000011 a
b11010010 [
b1111010100000000 f
b10110 ]
b10110 b
b100001 P
b100001 R
b100001 _
b10011001 O
b11001101 Q
b11001101 `
b11000100000000 Z
b10011110 (
b10011110 9
b10011110 U
b10111100000000 Y
b10100010 )
b10100010 :
b10100010 V
b100000000000000 N
b10000000 &
b10000000 7
b10000000 I
b11001100000000 M
b10011010 '
b10011010 8
b10011010 J
b10100101 $
b10100101 5
b10100101 S
b1110100 %
b1110100 6
b1110100 T
b10100001 "
b10100001 3
b10100001 G
b110011 #
b110011 4
b110011 H
#198004
0!
#203004
b110111 ,
b110111 E
b10001010 +
b10001010 F
b1011 0
b1011 A
b10000 /
b10000 B
b11010 .
b11010 C
b11000111 -
b11000111 D
b101000 2
b101000 ?
b1101011 1
b1101011 @
1!
#204004
b10101000 <
b10101000 h
b11100000 >
b11100000 j
b11111110 ;
b11111110 g
b10001000 =
b10001000 i
b100011 \
b1110110000000 e
b111011 ^
b111011 a
b10110110 [
b11001000000000 f
b10011100 ]
b10011100 b
b101100 P
b1000100 R
b1000100 _
b11111 O
b11000011 Q
b11000011 `
b1111101000000000 Z
b1100 (
b1100 9
b1100 U
b1100011010000000 Y
b1110011 )
b1110011 :
b1110011 V
b11101000000000 N
b10001100 &
b10001100 7
b10001100 I
b1011100000000 M
b11010010 '
b11010010 8
b11010010 J
b101111 $
b101111 5
b101111 S
b101001 %
b101001 6
b101001 T
b10111000 "
b10111000 3
b10111000 G
b11110001 #
b11110001 4
b11110001 H
#208004
0!
#213004
b11100000 ,
b11100000 E
b10001000 +
b10001000 F
b10101000 0
b10101000 A
b11111110 /
b11111110 B
b1001 .
b1001 C
b1101001 -
b1101001 D
b1001111 2
b1001111 ?
b11010101 1
b11010101 @
1!
#214004
b10011 <
b10011 h
b10001011 >
b10001011 j
b10001101 ;
b10001101 g
b1000101 =
b1000101 i
b11111110 \
b1101001000000000 e
b10100100 ^
b10100100 a
b1000000 [
b10001000000000 f
b10111100 ]
b10111100 b
b1011001 P
b11001111 R
b11001111 _
b111001 O
b11101001 Q
b11101001 `
b1101011010000000 Z
b1010011 (
b1010011 9
b1010011 U
b10000100000000 Y
b10111110 )
b10111110 :
b10111110 V
b10001010000000 N
b10111011 &
b10111011 7
b10111011 I
b1010000000000 M
b11011000 '
b11011000 8
b11011000 J
b1010001 $
b1010001 5
b1010001 S
b11111110 %
b11111110 6
b11111110 T
b10100 "
b10100 3
b10100 G
b10001 #
b10001 4
b10001 H
#218004
0!
#223004
b10001011 ,
b10001011 E
b1000101 +
b1000101 F
b10011 0
b10011 A
b10001101 /
b10001101 B
b1011011 .
b1011011 C
b11111001 -
b11111001 D
b1010111 2
b1010111 ?
b1111001 1
b1111001 @
1!
#224004
b11011111 <
b11011111 h
b11000111 >
b11000111 j
b10010011 ;
b10010011 g
b11111001 =
b11111001 i
b111011 \
b1110011010000000 e
b11001101 ^
b11001101 a
b10011000 [
b1100011000000000 f
b1110100 ]
b1110100 b
b10010001 P
b1010011 R
b1010011 _
b1011110 O
b11000110 Q
b11000110 `
b1101101110000000 Z
b1001001 (
b1001001 9
b1001001 U
b1100100100000000 Y
b1101110 )
b1101110 :
b1101110 V
b1100111110000000 N
b1100001 &
b1100001 7
b1100001 I
b1110011000000000 M
b110100 '
b110100 8
b110100 J
b10000100 $
b10000100 5
b10000100 S
b110 %
b110 6
b110 T
b11110010 "
b11110010 3
b11110010 G
b10010010 #
b10010010 4
b10010010 H
#228004
0!
#233004
b11000111 ,
b11000111 E
b11111001 +
b11111001 F
b11011111 0
b11011111 A
b10010011 /
b10010011 B
b1010110 .
b1010110 C
b11000110 -
b11000110 D
b11001100 2
b11001100 ?
b11110110 1
b11110110 @
1!
