test/fft_engine/wave/fft_engine_tb_20250702_23:31:36.vcd
$date
	Wed Jul  2 23:31:41 2025
$end
$version
	Icarus Verilog
$end
$timescale
	1ps
$end
$scope module fft_engine_tb $end
$var wire 1 ! clk $end
$var wire 8 " in0_imag [7:0] $end
$var wire 8 # in0_real [7:0] $end
$var wire 8 $ in1_imag [7:0] $end
$var wire 8 % in1_real [7:0] $end
$var wire 8 & in2_imag [7:0] $end
$var wire 8 ' in2_real [7:0] $end
$var wire 8 ( in3_imag [7:0] $end
$var wire 8 ) in3_real [7:0] $end
$var wire 1 * rst $end
$var wire 8 + out3_real [7:0] $end
$var wire 8 , out3_imag [7:0] $end
$var wire 8 - out2_real [7:0] $end
$var wire 8 . out2_imag [7:0] $end
$var wire 8 / out1_real [7:0] $end
$var wire 8 0 out1_imag [7:0] $end
$var wire 8 1 out0_real [7:0] $end
$var wire 8 2 out0_imag [7:0] $end
$scope module dut $end
$var wire 1 ! clk $end
$var wire 8 3 in0_imag [7:0] $end
$var wire 8 4 in0_real [7:0] $end
$var wire 8 5 in1_imag [7:0] $end
$var wire 8 6 in1_real [7:0] $end
$var wire 8 7 in2_imag [7:0] $end
$var wire 8 8 in2_real [7:0] $end
$var wire 8 9 in3_imag [7:0] $end
$var wire 8 : in3_real [7:0] $end
$var wire 1 * rst $end
$var wire 8 ; bfly_pos_real [7:0] $end
$var wire 8 < bfly_pos_imag [7:0] $end
$var wire 8 = bfly_neg_real [7:0] $end
$var wire 8 > bfly_neg_imag [7:0] $end
$var reg 8 ? out0_imag [7:0] $end
$var reg 8 @ out0_real [7:0] $end
$var reg 8 A out1_imag [7:0] $end
$var reg 8 B out1_real [7:0] $end
$var reg 8 C out2_imag [7:0] $end
$var reg 8 D out2_real [7:0] $end
$var reg 8 E out3_imag [7:0] $end
$var reg 8 F out3_real [7:0] $end
$scope module bfly_stage1_0 $end
$var wire 8 G A_imag [7:0] $end
$var wire 8 H A_real [7:0] $end
$var wire 8 I B_imag [7:0] $end
$var wire 8 J B_real [7:0] $end
$var wire 8 K W_imag [7:0] $end
$var wire 8 L W_real [7:0] $end
$var wire 16 M product_real [15:0] $end
$var wire 16 N product_imag [15:0] $end
$var wire 8 O Pos_real [7:0] $end
$var wire 8 P Pos_imag [7:0] $end
$var wire 8 Q Neg_real [7:0] $end
$var wire 8 R Neg_imag [7:0] $end
$upscope $end
$scope module bfly_stage1_1 $end
$var wire 8 S A_imag [7:0] $end
$var wire 8 T A_real [7:0] $end
$var wire 8 U B_imag [7:0] $end
$var wire 8 V B_real [7:0] $end
$var wire 8 W W_imag [7:0] $end
$var wire 8 X W_real [7:0] $end
$var wire 16 Y product_real [15:0] $end
$var wire 16 Z product_imag [15:0] $end
$var wire 8 [ Pos_real [7:0] $end
$var wire 8 \ Pos_imag [7:0] $end
$var wire 8 ] Neg_real [7:0] $end
$var wire 8 ^ Neg_imag [7:0] $end
$upscope $end
$scope module bfly_stage2_1 $end
$var wire 8 _ A_imag [7:0] $end
$var wire 8 ` A_real [7:0] $end
$var wire 8 a B_imag [7:0] $end
$var wire 8 b B_real [7:0] $end
$var wire 8 c W_imag [7:0] $end
$var wire 8 d W_real [7:0] $end
$var wire 16 e product_real [15:0] $end
$var wire 16 f product_imag [15:0] $end
$var wire 8 g Pos_real [7:0] $end
$var wire 8 h Pos_imag [7:0] $end
$var wire 8 i Neg_real [7:0] $end
$var wire 8 j Neg_imag [7:0] $end
$upscope $end
$upscope $end
$upscope $end
$enddefinitions $end
#0
$dumpvars
bx j
bx i
bx h
bx g
bx f
bx e
b0 d
b10000000 c
bx b
bx a
bx `
bx _
bx ^
bx ]
bx \
bx [
bx Z
bx Y
b10000000 X
b0 W
bz V
bz U
b11101100 T
bz S
bx R
bx Q
bx P
bx O
bx N
bx M
b10000000 L
b0 K
bz J
b1100100 I
b110010 H
b110010 G
b0 F
b0 E
b0 D
b0 C
b0 B
b0 A
b0 @
b0 ?
bx >
bx =
bx <
bx ;
bz :
bz 9
bz 8
b1100100 7
b11101100 6
bz 5
b110010 4
b110010 3
b0 2
b0 1
b0 0
b0 /
b0 .
b0 -
b0 ,
b0 +
1*
bz )
bz (
bz '
b1100100 &
b11101100 %
bz $
b110010 #
b110010 "
1!
$end
#1
b1 ;
b1 g
b1 =
b1 i
b0 <
b0 h
b0 >
b0 j
b0 [
b0 e
b0 f
b0 ]
b0 b
b0 \
b0 ^
b0 a
b1 O
b1 Q
b1 `
b0 P
b0 R
b0 _
b0 Y
b0 Z
b0 (
b0 9
b0 U
b0 )
b0 :
b0 V
b0 &
b0 7
b0 I
b0 M
b0 N
b0 '
b0 8
b0 J
b0 $
b0 5
b0 S
b0 %
b0 6
b0 T
b0 "
b0 3
b0 G
b1 #
b1 4
b1 H
0*
#5001
0!
#10001
b1 +
b1 F
b1 /
b1 B
b1 -
b1 D
b1 1
b1 @
1!
#11002
b10 ;
b10 g
b10 =
b10 i
b11111110 <
b11111110 h
b10 >
b10 j
b0 O
b10 Q
b10 `
b0 [
b1111111100000000 f
b10 ]
b10 b
b1111111110000000 Y
b1 )
b1 :
b1 V
b1111111110000000 M
b1 '
b1 8
b1 J
b1 %
b1 6
b1 T
#16002
0!
#21002
b10 ,
b10 E
b10 +
b10 F
b11111110 0
b11111110 A
b10 /
b10 B
b0 -
b0 D
b0 1
b0 @
1!
#22003
b111100 <
b111100 h
b1110100 >
b1110100 j
b1100100 ;
b1100100 g
b10100 =
b10100 i
b10001000 \
b1010000000000 e
b101000 ^
b101000 a
b101000 [
b11001000000000 f
b10011100 ]
b10011100 b
b1010000 P
b11011000 R
b11011000 _
b11011000 O
b111100 Q
b111100 `
b1101100000000000 Z
b1010000 (
b1010000 9
b1010000 U
b10001100000000 Y
b10111010 )
b10111010 :
b10111010 V
b1111000000000 N
b11000100 &
b11000100 7
b11000100 I
b1110011100000000 M
b110010 '
b110010 8
b110010 J
b11011000 $
b11011000 5
b11011000 S
b11100010 %
b11100010 6
b11100010 T
b10100 "
b10100 3
b10100 G
b1010 #
b1010 4
b1010 H
#27003
0!
#32003
b1110100 ,
b1110100 E
b10100 +
b10100 F
b111100 0
b111100 A
b1100100 /
b1100100 B
b11001000 .
b11001000 C
b10110000 -
b10110000 D
b11011000 2
b11011000 ?
1!
#33004
b1100101 <
b1100101 h
b11001001 >
b11001001 j
b10110010 ;
b10110010 g
b10101100 =
b10101100 i
b111011 \
b110000000 e
b11 ^
b11 a
b11111000 [
b10011100000000 f
b10110010 ]
b10110010 b
b11110101 P
b10111 R
b10111 _
b11010101 O
b10101111 Q
b10101111 `
b1100111000000000 Z
b1100100 (
b1100100 9
b1100100 U
b1101000110000000 Y
b1011101 )
b1011101 :
b1011101 V
b1111011110000000 N
b10001 &
b10001 7
b10001 I
b100110000000 M
b11101101 '
b11101101 8
b11101101 J
b10011111 $
b10011111 5
b10011111 S
b1010101 %
b1010101 6
b1010101 T
b110 "
b110 3
b110 G
b11000010 #
b11000010 4
b11000010 H
#38004
0!
#43004
b11001001 ,
b11001001 E
b10101100 +
b10101100 F
b1100101 0
b1100101 A
b10110010 /
b10110010 B
b10111010 .
b10111010 C
b11011101 -
b11011101 D
b110000 2
b110000 ?
b11001101 1
b11001101 @
1!
#44004
b10110011 <
b10110011 h
b1001001 >
b1001001 j
b10000 ;
b10000 g
b10010110 =
b10010110 i
b11101 \
b1111010000000 e
b111101 ^
b111101 a
b110001 [
b1101101010000000 f
b1001011 ]
b1001011 b
b11010100 P
b11111110 R
b11111110 _
b10001 O
b11010011 Q
b11010011 `
b1111100000000000 Z
b10000 (
b10000 9
b10000 U
b11100110000000 Y
b10001101 )
b10001101 :
b10001101 V
b11010110000000 N
b10010101 &
b10010101 7
b10010101 I
b1100111110000000 M
b1100001 '
b1100001 8
b1100001 J
b101101 $
b101101 5
b101101 S
b10111110 %
b10111110 6
b10111110 T
b1101001 "
b1101001 3
b1101001 G
b1110010 #
b1110010 4
b1110010 H
#48004
0!
#53004
b1001001 ,
b1001001 E
b10010110 +
b10010110 F
b10110011 0
b10110011 A
b10000 /
b10000 B
b10110111 .
b10110111 C
b11100000 -
b11100000 D
b11110001 2
b11110001 ?
b1000010 1
b1000010 @
1!
#54004
b1110011 <
b1110011 h
b1101 >
b1101 j
b1110100 ;
b1110100 g
b1101000 =
b1101000 i
b11000110 \
b1100000000 e
b110 ^
b110 a
b11010101 [
b1100110000000 f
b11001101 ]
b11001101 b
b1010110 P
b1000000 R
b1000000 _
b1110010 O
b1101110 Q
b1101110 `
b1111000000000000 Z
b100000 (
b100000 9
b100000 U
b1000000000 Y
b11111100 )
b11111100 :
b11111100 V
b1100010110000000 N
b1110101 &
b1110101 7
b1110101 I
b100000000 M
b11111110 '
b11111110 8
b11111110 J
b11100110 $
b11100110 5
b11100110 S
b11010001 %
b11010001 6
b11010001 T
b11001011 "
b11001011 3
b11001011 G
b1110000 #
b1110000 4
b1110000 H
#58004
0!
#63004
b1101 ,
b1101 E
b1101000 +
b1101000 F
b1110011 0
b1110011 A
b1110100 /
b1110100 B
b10010000 .
b10010000 C
b10011101 -
b10011101 D
b11100 2
b11100 ?
b1000111 1
b1000111 @
1!
#64004
b11011000 <
b11011000 h
b11000 >
b11000 j
b10100011 ;
b10100011 g
b10010001 =
b10010001 i
b1001101 \
b10010000000 e
b1001 ^
b1001 a
b1111000 [
b11000000000000 f
b10100000 ]
b10100000 b
b11100100 P
b1111000 R
b1111000 _
b100 O
b10011010 Q
b10011010 `
b1101000100000000 Z
b1011110 (
b1011110 9
b1011110 U
b11011000000000 Y
b10010100 )
b10010100 :
b10010100 V
b1101100000000 N
b11001010 &
b11001010 7
b11001010 I
b1101101010000000 M
b1001011 '
b1001011 8
b1001011 J
b10101011 $
b10101011 5
b10101011 S
b1100 %
b1100 6
b1100 T
b10101110 "
b10101110 3
b10101110 G
b1001111 #
b1001111 4
b1001111 H
#68004
0!
#73004
b11000 ,
b11000 E
b10010001 +
b10010001 F
b11011000 0
b11011000 A
b10100011 /
b10100011 B
b10010111 .
b10010111 C
b10001100 -
b10001100 D
b110001 2
b110001 ?
b1111100 1
b1111100 @
1!
#74004
b10100111 <
b10100111 h
b11001101 >
b11001101 j
b11000000 ;
b11000000 g
b10111100 =
b10111100 i
b111000 \
b100000000 e
b10 ^
b10 a
b110111 [
b11011010000000 f
b10010011 ]
b10010011 b
b1100010 P
b111010 R
b111010 _
b10000110 O
b10111110 Q
b10111110 `
b110110000000 Z
b11100101 (
b11100101 9
b11100101 U
b10100100000000 Y
b10101110 )
b10101110 :
b10101110 V
b1100101000000000 N
b1101100 &
b1101100 7
b1101100 I
b1111001000000000 M
b11100 '
b11100 8
b11100 J
b11101 $
b11101 5
b11101 S
b11100101 %
b11100101 6
b11100101 T
b11001110 "
b11001110 3
b11001110 G
b10100010 #
b10100010 4
b10100010 H
#78004
0!
#83004
b11001101 ,
b11001101 E
b10111100 +
b10111100 F
b10100111 0
b10100111 A
b11000000 /
b11000000 B
b101010 .
b101010 C
b1001111 -
b1001111 D
b10011010 2
b10011010 ?
b10111101 1
b10111101 @
1!
#84004
b11100000 <
b11100000 h
b10001100 >
b10001100 j
b10111000 ;
b10111000 g
b1111010 =
b1111010 i
b10110001 \
b1100111110000000 e
b10011111 ^
b10011111 a
b1110110 [
b1101010100000000 f
b1010110 ]
b1010110 b
b11101110 P
b110110 R
b110110 _
b1 O
b11001 Q
b11001 `
b10010000000 Z
b11110111 (
b11110111 9
b11110111 U
b100000000000 Y
b11110000 )
b11110000 :
b11110000 V
b1110111000000000 N
b100100 &
b100100 7
b100100 I
b11101000000000 M
b10001100 '
b10001100 8
b10001100 J
b10101000 $
b10101000 5
b10101000 S
b1100110 %
b1100110 6
b1100110 T
b10010 "
b10010 3
b10010 G
b10001101 #
b10001101 4
b10001101 H
#88004
0!
#93004
b10001100 ,
b10001100 E
b1111010 +
b1111010 F
b11100000 0
b11100000 A
b10111000 /
b10111000 B
b111101 .
b111101 C
b10001011 -
b10001011 D
b10011111 2
b10011111 ?
b1110111 1
b1110111 @
1!
#94004
b10011010 <
b10011010 h
b10101010 >
b10101010 j
b10110101 ;
b10110101 g
b101001 =
b101001 i
b10110010 \
b10001100000000 e
b1000110 ^
b1000110 a
b1111000 [
b1111110000000000 f
b1000 ]
b1000 b
b11100100 P
b10100010 R
b10100010 _
b1011101 O
b1101111 Q
b1101111 `
b1101101100000000 Z
b1001010 (
b1001010 9
b1001010 U
b1101110000000000 Y
b1001000 )
b1001000 :
b1001000 V
b1000010000000 N
b11011111 &
b11011111 7
b11011111 I
b1111101110000000 M
b1001 '
b1001 8
b1001 J
b11111100 $
b11111100 5
b11111100 S
b11000000 %
b11000000 6
b11000000 T
b11000011 "
b11000011 3
b11000011 G
b1100110 #
b1100110 4
b1100110 H
#98004
0!
#103004
b10101010 ,
b10101010 E
b101001 +
b101001 F
b10011010 0
b10011010 A
b10110101 /
b10110101 B
b110010 .
b110010 C
b11100101 -
b11100101 D
b10010110 2
b10010110 ?
b11010101 1
b11010101 @
1!
#104004
b10100110 <
b10100110 h
b1000100 >
b1000100 j
b11101100 ;
b11101100 g
b1011000 =
b1011000 i
b1010000 \
b10010100000000 e
b1001010 ^
b1001010 a
b11101111 [
b1100010000000 f
b11001111 ]
b11001111 b
b1000001 P
b1110101 R
b1110101 _
b10110100 O
b10100010 Q
b10100010 `
b110000000 Z
b11111101 (
b11111101 9
b11111101 U
b1100100000000000 Y
b1110000 )
b1110000 :
b1110000 V
b1111001100000000 N
b11010 &
b11010 7
b11010 I
b1100010010000000 M
b1110111 '
b1110111 8
b1110111 J
b1001101 $
b1001101 5
b1001101 S
b1011111 %
b1011111 6
b1011111 T
b1011011 "
b1011011 3
b1011011 G
b101011 #
b101011 4
b101011 H
#108004
0!
#113004
b1000100 ,
b1000100 E
b1011000 +
b1011000 F
b10100110 0
b10100110 A
b11101100 /
b11101100 B
b11110001 .
b11110001 C
b11000101 -
b11000101 D
b10010001 2
b10010001 ?
b10100011 1
b10100011 @
1!
#114004
b11011110 <
b11011110 h
b10 >
b10 j
b10101101 ;
b10101101 g
b1000111 =
b1000111 i
b1000011 \
b1101100110000000 e
b10110011 ^
b10110011 a
b11010010 [
b1111011100000000 f
b10010 ]
b10010 b
b10110 P
b11110000 R
b11110000 _
b11100000 O
b11111010 Q
b11111010 `
b10010000000000 Z
b10111000 (
b10111000 9
b10111000 U
b11000000000000 Y
b10100000 )
b10100000 :
b10100000 V
b1100100110000000 N
b1101101 &
b1101101 7
b1101101 I
b11100110000000 M
b10001101 '
b10001101 8
b10001101 J
b11111011 $
b11111011 5
b11111011 S
b1110010 %
b1110010 6
b1110010 T
b10000011 "
b10000011 3
b10000011 G
b1101101 #
b1101101 4
b1101101 H
#118004
0!
#123004
b10 ,
b10 E
b1000111 +
b1000111 F
b11011110 0
b11011110 A
b10101101 /
b10101101 B
b11010011 .
b11010011 C
b1110 -
b1110 D
b1011001 2
b1011001 ?
b10110010 1
b10110010 @
1!
#124004
b11010101 <
b11010101 h
b1001111 >
b1001111 j
b10101100 ;
b10101100 g
b10000000 =
b10000000 i
b1000 \
b1100101100000000 e
b10010110 ^
b10010110 a
b100001 [
b1110000110000000 f
b111101 ]
b111101 b
b111000 P
b10010 R
b10010 _
b1001110 O
b10110 Q
b10110 `
b1101110010000000 Z
b1000111 (
b1000111 9
b1000111 U
b1111100100000000 Y
b1110 )
b1110 :
b1110 V
b111000000000 M
b11100100 '
b11100100 8
b11100100 J
b1001111 $
b1001111 5
b1001111 S
b101111 %
b101111 6
b101111 T
b10100101 "
b10100101 3
b10100101 G
b110010 #
b110010 4
b110010 H
#128004
0!
#133004
b1001111 ,
b1001111 E
b10000000 +
b10000000 F
b11010101 0
b11010101 A
b10101100 /
b10101100 B
b110000 .
b110000 C
b101101 -
b101101 D
b1000000 2
b1000000 ?
b1101111 1
b1101111 @
1!
#134004
b11110111 <
b11110111 h
b1111101 >
b1111101 j
b1000010 ;
b1000010 g
b10111010 =
b10111010 i
b1110100 \
b1110001000000000 e
b11000100 ^
b11000100 a
b1011 [
b1101111010000000 f
b1000011 ]
b1000011 b
b110110 P
b111010 R
b111010 _
b11100100 O
b1111110 Q
b1111110 `
b1110110000000000 Z
b101000 (
b101000 9
b101000 U
b1111001000000000 Y
b11100 )
b11100 :
b11100 V
b1111111100000000 N
b10 &
b10 7
b10 I
b1101100110000000 M
b1001101 '
b1001101 8
b1001101 J
b10011100 $
b10011100 5
b10011100 S
b100111 %
b100111 6
b100111 T
b111000 "
b111000 3
b111000 G
b110001 #
b110001 4
b110001 H
#138004
0!
#143004
b1111101 ,
b1111101 E
b10111010 +
b10111010 F
b11110111 0
b11110111 A
b1000010 /
b1000010 B
b11000010 .
b11000010 C
b11011001 -
b11011001 D
b10101010 2
b10101010 ?
b11101111 1
b11101111 @
1!
#144004
b10010 <
b10010 h
b11001100 >
b11001100 j
b10000100 ;
b10000100 g
b11110 =
b11110 i
b10101111 \
b1101100110000000 e
b10110011 ^
b10110011 a
b11011 [
b1000110000000 f
b11011101 ]
b11011101 b
b1100111 P
b11101111 R
b11101111 _
b1111 O
b11010001 Q
b11010001 `
b1111111100000000 Z
b10 (
b10 9
b10 U
b1100111110000000 Y
b1100001 )
b1100001 :
b1100001 V
b1111000000000 N
b11000100 &
b11000100 7
b11000100 I
b1100111110000000 M
b1100001 '
b1100001 8
b1100001 J
b10110001 $
b10110001 5
b10110001 S
b1111100 %
b1111100 6
b1111100 T
b101011 "
b101011 3
b101011 G
b1110000 #
b1110000 4
b1110000 H
#148004
0!
#153004
b11001100 ,
b11001100 E
b11110 +
b11110 F
b10010 0
b10010 A
b10000100 /
b10000100 B
b10111000 .
b10111000 C
b11110100 -
b11110100 D
b10110 2
b10110 ?
b101010 1
b101010 @
1!
#154004
b100101 <
b100101 h
b10110001 >
b10110001 j
b111100 ;
b111100 g
b1010110 =
b1010110 i
b1001 \
b1111100110000000 e
b11110011 ^
b11110011 a
b1100 [
b1101110100000000 f
b1000110 ]
b1000110 b
b1010011 P
b1101011 R
b1101011 _
b11100111 O
b1001001 Q
b1001001 `
b10110000000 Z
b11110101 (
b11110101 9
b11110101 U
b11000110000000 Y
b10011101 )
b10011101 :
b10011101 V
b11101000000000 N
b10001100 &
b10001100 7
b10001100 I
b10011110000000 M
b10110001 '
b10110001 8
b10110001 J
b11111110 $
b11111110 5
b11111110 S
b10101001 %
b10101001 6
b10101001 T
b11011111 "
b11011111 3
b11011111 G
b10011000 #
b10011000 4
b10011000 H
#158004
0!
#163004
b10110001 ,
b10110001 E
b1010110 +
b1010110 F
b100101 0
b100101 A
b111100 /
b111100 B
b1001010 .
b1001010 C
b11011011 -
b11011011 D
b1011100 2
b1011100 ?
b11110011 1
b11110011 @
1!
#164004
b11101010 <
b11101010 h
b1010100 >
b1010100 j
b10101100 ;
b10101100 g
b10001100 =
b10001100 i
b10110100 \
b100000000000 e
b10000 ^
b10000 a
b10100101 [
b10010110000000 f
b10110101 ]
b10110101 b
b11011001 P
b10011111 R
b10011111 _
b1111000 O
b10011100 Q
b10011100 `
b1110100100000000 Z
b101110 (
b101110 9
b101110 U
b11110000000000 Y
b10001000 )
b10001000 :
b10001000 V
b111010000000 N
b11100011 &
b11100011 7
b11100011 I
b11011100000000 M
b10010010 '
b10010010 8
b10010010 J
b11100010 $
b11100010 5
b11100010 S
b101101 %
b101101 6
b101101 T
b10111100 "
b10111100 3
b10111100 G
b1010 #
b1010 4
b1010 H
#168004
0!
#173004
b1010100 ,
b1010100 E
b10001100 +
b10001100 F
b11101010 0
b11101010 A
b10101100 /
b10101100 B
b100101 .
b100101 C
b11010011 -
b11010011 D
b10001101 2
b10001101 ?
b11101 1
b11101 @
1!
#174004
b10010110 <
b10010110 h
b11000 >
b11000 j
b1011010 ;
b1011010 g
b10000 =
b10000 i
b11110101 \
b1001010000000 e
b100101 ^
b100101 a
b10010001 [
b1101111110000000 f
b1000001 ]
b1000001 b
b11 P
b11010111 R
b11010111 _
b11001111 O
b110101 Q
b110101 `
b11010000000000 Z
b10011000 (
b10011000 9
b10011000 U
b1010000000000 Y
b11011000 )
b11011000 :
b11011000 V
b1100101100000000 N
b1101010 &
b1101010 7
b1101010 I
b1110011010000000 M
b110011 '
b110011 8
b110011 J
b10001101 $
b10001101 5
b10001101 S
b1101001 %
b1101001 6
b1101001 T
b1101101 "
b1101101 3
b1101101 G
b10 #
b10 4
b10 H
#178004
0!
#183004
b11000 ,
b11000 E
b10000 +
b10000 F
b10010110 0
b10010110 A
b1011010 /
b1011010 B
b1110 .
b1110 C
b111110 -
b111110 D
b11111000 2
b11111000 ?
b1100000 1
b1100000 @
1!
#184004
b1100111 <
b1100111 h
b10010011 >
b10010011 j
b111 ;
b111 g
b1001 =
b1001 i
b10111011 \
b11111110000000 e
b1111111 ^
b1111111 a
b10011100 [
b1111010100000000 f
b10110 ]
b10110 b
b1110101 P
b1111101 R
b1111101 _
b11101000 O
b10001000 Q
b10001000 `
b111100000000 Z
b11100010 (
b11100010 9
b11100010 U
b1110000110000000 Y
b111101 )
b111101 :
b111101 V
b1111111000000000 N
b100 &
b100 7
b100 I
b1101100000000000 M
b1010000 '
b1010000 8
b1010000 J
b10011101 $
b10011101 5
b10011101 S
b11011001 %
b11011001 6
b11011001 T
b1111001 "
b1111001 3
b1111001 G
b111000 #
b111000 4
b111000 H
#188004
0!
#193004
b10010011 ,
b10010011 E
b1001 +
b1001 F
b1100111 0
b1100111 A
b111 /
b111 B
b10111010 .
b10111010 C
b1001100 -
b1001100 D
b110000 2
b110000 ?
b10000100 1
b10000100 @
1!
#194004
b10101101 <
b10101101 h
b10011101 >
b10011101 j
b1000010 ;
b1000010 g
b111100 =
b111100 i
b10111011 \
b1100000110000000 e
b10000011 ^
b10000011 a
b11000000 [
b1100010000000000 f
b1111000 ]
b1111000 b
b1011011 P
b100101 R
b100101 _
b11111101 O
b10111111 Q
b10111111 `
b1100111000000000 Z
b1100100 (
b1100100 9
b1100100 U
b1101001000000000 Y
b1011100 )
b1011100 :
b1011100 V
b1100110110000000 N
b1100101 &
b1100101 7
b1100101 I
b111110000000 M
b11100001 '
b11100001 8
b11100001 J
b11111 $
b11111 5
b11111 S
b11100 %
b11100 6
b11100 T
b11000000 "
b11000000 3
b11000000 G
b11011110 #
b11011110 4
b11011110 H
#198004
0!
#203004
b10011101 ,
b10011101 E
b111100 +
b111100 F
b10101101 0
b10101101 A
b1000010 /
b1000010 B
b10100000 .
b10100000 C
b111101 -
b111101 D
b10110 2
b10110 ?
b10111101 1
b10111101 @
1!
#204004
b11001101 <
b11001101 h
b1101 >
b1101 j
b11001000 ;
b11001000 g
b10011110 =
b10011110 i
b11111011 \
b1100101010000000 e
b10010101 ^
b10010101 a
b1010010 [
b11000000000000 f
b10100000 ]
b10100000 b
b10011 P
b1101101 R
b1101101 _
b1100001 O
b110011 Q
b110011 `
b1101100110000000 Z
b1001101 (
b1001101 9
b1001101 U
b10110010000000 Y
b10100111 )
b10100111 :
b10100111 V
b1110100110000000 N
b101101 &
b101101 7
b101101 I
b1100101110000000 M
b1101001 '
b1101001 8
b1101001 J
b1001000 $
b1001000 5
b1001000 S
b11111001 %
b11111001 6
b11111001 T
b1000000 "
b1000000 3
b1000000 G
b11001010 #
b11001010 4
b11001010 H
#208004
0!
#213004
b1101 ,
b1101 E
b10011110 +
b10011110 F
b11001101 0
b11001101 A
b11001000 /
b11001000 B
b11000 .
b11000 C
b1111 -
b1111 D
b1110 2
b1110 ?
b10110011 1
b10110011 @
1!
#214004
b10000110 <
b10000110 h
b11100000 >
b11100000 j
b11110000 ;
b11110000 g
b10100100 =
b10100100 i
b10000000 \
b1001100000000 e
b100110 ^
b100110 a
b11010011 [
b1110100110000000 f
b101101 ]
b101101 b
b11001 P
b10110011 R
b10110011 _
b10110010 O
b11001010 Q
b11001010 `
b1101011010000000 Z
b1010011 (
b1010011 9
b1010011 U
b10100110000000 Y
b10101101 )
b10101101 :
b10101101 V
b1100110000000 N
b11001101 &
b11001101 7
b11001101 I
b1111101000000000 M
b1100 '
b1100 8
b1100 J
b11010011 $
b11010011 5
b11010011 S
b10000000 %
b10000000 6
b10000000 T
b11100110 "
b11100110 3
b11100110 G
b10111110 #
b10111110 4
b10111110 H
#218004
0!
#223004
b11100000 ,
b11100000 E
b10100100 +
b10100100 F
b10000110 0
b10000110 A
b11110000 /
b11110000 B
b10011001 .
b10011001 C
b11011111 -
b11011111 D
b10011001 2
b10011001 ?
b10000101 1
b10000101 @
1!
#224004
b10110010 <
b10110010 h
b11111010 >
b11111010 j
b1110 ;
b1110 g
b1100010 =
b1100010 i
b10111000 \
b1110101100000000 e
b11010110 ^
b11010110 a
b1110000 [
b10111000000000 f
b10100100 ]
b10100100 b
b11001100 P
b1010110 R
b1010110 _
b1101110 O
b111000 Q
b111000 `
b11100010000000 Z
b10001111 (
b10001111 9
b10001111 U
b11001100000000 Y
b10011010 )
b10011010 :
b10011010 V
b1110110000000 N
b11000101 &
b11000101 7
b11000101 I
b110110000000 M
b11100101 '
b11100101 8
b11100101 J
b1000111 $
b1000111 5
b1000111 S
b1010 %
b1010 6
b1010 T
b10010001 "
b10010001 3
b10010001 G
b1010011 #
b1010011 4
b1010011 H
#228004
0!
#233004
b11111010 ,
b11111010 E
b1100010 +
b1100010 F
b10110010 0
b10110010 A
b1110 /
b1110 B
b10100 .
b10100 C
b11111110 -
b11111110 D
b10000100 2
b10000100 ?
b11011110 1
b11011110 @
1!
