test/fft_engine/wave/fft_engine_tb_20250702_23:47:55.vcd
$date
	Wed Jul  2 23:48:03 2025
$end
$version
	Icarus Verilog
$end
$timescale
	1ps
$end
$scope module fft_engine_tb $end
$var wire 1 ! clk $end
$var wire 8 " in0_imag [7:0] $end
$var wire 8 # in0_real [7:0] $end
$var wire 8 $ in1_imag [7:0] $end
$var wire 8 % in1_real [7:0] $end
$var wire 8 & in2_imag [7:0] $end
$var wire 8 ' in2_real [7:0] $end
$var wire 8 ( in3_imag [7:0] $end
$var wire 8 ) in3_real [7:0] $end
$var wire 1 * rst $end
$var wire 8 + out3_real [7:0] $end
$var wire 8 , out3_imag [7:0] $end
$var wire 8 - out2_real [7:0] $end
$var wire 8 . out2_imag [7:0] $end
$var wire 8 / out1_real [7:0] $end
$var wire 8 0 out1_imag [7:0] $end
$var wire 8 1 out0_real [7:0] $end
$var wire 8 2 out0_imag [7:0] $end
$scope module dut $end
$var wire 1 ! clk $end
$var wire 8 3 in0_imag [7:0] $end
$var wire 8 4 in0_real [7:0] $end
$var wire 8 5 in1_imag [7:0] $end
$var wire 8 6 in1_real [7:0] $end
$var wire 8 7 in2_imag [7:0] $end
$var wire 8 8 in2_real [7:0] $end
$var wire 8 9 in3_imag [7:0] $end
$var wire 8 : in3_real [7:0] $end
$var wire 1 * rst $end
$var wire 8 ; bfly_pos_real [7:0] $end
$var wire 8 < bfly_pos_imag [7:0] $end
$var wire 8 = bfly_neg_real [7:0] $end
$var wire 8 > bfly_neg_imag [7:0] $end
$var reg 8 ? out0_imag [7:0] $end
$var reg 8 @ out0_real [7:0] $end
$var reg 8 A out1_imag [7:0] $end
$var reg 8 B out1_real [7:0] $end
$var reg 8 C out2_imag [7:0] $end
$var reg 8 D out2_real [7:0] $end
$var reg 8 E out3_imag [7:0] $end
$var reg 8 F out3_real [7:0] $end
$scope module bfly_stage1_0 $end
$var wire 8 G A_imag [7:0] $end
$var wire 8 H A_real [7:0] $end
$var wire 8 I B_imag [7:0] $end
$var wire 8 J B_real [7:0] $end
$var wire 8 K W_imag [7:0] $end
$var wire 8 L W_real [7:0] $end
$var wire 16 M product_real [15:0] $end
$var wire 16 N product_imag [15:0] $end
$var wire 8 O Pos_real [7:0] $end
$var wire 8 P Pos_imag [7:0] $end
$var wire 8 Q Neg_real [7:0] $end
$var wire 8 R Neg_imag [7:0] $end
$upscope $end
$scope module bfly_stage1_1 $end
$var wire 8 S A_imag [7:0] $end
$var wire 8 T A_real [7:0] $end
$var wire 8 U B_imag [7:0] $end
$var wire 8 V B_real [7:0] $end
$var wire 8 W W_imag [7:0] $end
$var wire 8 X W_real [7:0] $end
$var wire 16 Y product_real [15:0] $end
$var wire 16 Z product_imag [15:0] $end
$var wire 8 [ Pos_real [7:0] $end
$var wire 8 \ Pos_imag [7:0] $end
$var wire 8 ] Neg_real [7:0] $end
$var wire 8 ^ Neg_imag [7:0] $end
$upscope $end
$scope module bfly_stage2_1 $end
$var wire 8 _ A_imag [7:0] $end
$var wire 8 ` A_real [7:0] $end
$var wire 8 a B_imag [7:0] $end
$var wire 8 b B_real [7:0] $end
$var wire 8 c W_imag [7:0] $end
$var wire 8 d W_real [7:0] $end
$var wire 16 e product_real [15:0] $end
$var wire 16 f product_imag [15:0] $end
$var wire 8 g Pos_real [7:0] $end
$var wire 8 h Pos_imag [7:0] $end
$var wire 8 i Neg_real [7:0] $end
$var wire 8 j Neg_imag [7:0] $end
$upscope $end
$upscope $end
$upscope $end
$enddefinitions $end
#0
$dumpvars
b1100100 j
b11101100 i
b11101100 h
b1100100 g
b1110001000000000 f
b1111000000000 e
b0 d
b10000000 c
b111100 b
b111100 a
b101000 `
b101000 _
b111100 ^
b111100 ]
b11101100 \
b11101100 [
b1110110000000000 Z
b1110110000000000 Y
b10000000 X
b0 W
b101000 V
b101000 U
b10100 T
b10100 S
b101000 R
b101000 Q
b11101100 P
b11101100 O
b1111000100000000 N
b1111000100000000 M
b10000000 L
b0 K
b11110 J
b11110 I
b1010 H
b1010 G
bx F
bx E
bx D
bx C
bx B
bx A
bx @
bx ?
b1100100 >
b11101100 =
b11101100 <
b1100100 ;
b101000 :
b101000 9
b11110 8
b11110 7
b10100 6
b10100 5
b1010 4
b1010 3
bx 2
bx 1
bx 0
bx /
bx .
bx -
bx ,
bx +
0*
b101000 )
b101000 (
b11110 '
b11110 &
b10100 %
b10100 $
b1010 #
b1010 "
1!
$end
#1000
b0 ,
b0 E
b0 +
b0 F
b0 .
b0 C
b0 -
b0 D
b0 0
b0 A
b0 /
b0 B
b0 2
b0 ?
b0 1
b0 @
1*
#2000
0*
#5000
0!
#10000
b1100100 ,
b1100100 E
b11101100 +
b11101100 F
b11101100 0
b11101100 A
b1100100 /
b1100100 B
b11011000 2
b11011000 ?
b11011000 1
b11011000 @
1!
#11001
b0 <
b0 h
b0 >
b0 j
b1 ;
b1 g
b1 =
b1 i
b0 \
b0 e
b0 ^
b0 a
b0 [
b0 f
b0 ]
b0 b
b0 P
b0 R
b0 _
b1 O
b1 Q
b1 `
b0 Z
b0 (
b0 9
b0 U
b0 Y
b0 )
b0 :
b0 V
b0 N
b0 &
b0 7
b0 I
b0 M
b0 '
b0 8
b0 J
b0 $
b0 5
b0 S
b0 %
b0 6
b0 T
b0 "
b0 3
b0 G
b1 #
b1 4
b1 H
#16001
0!
#21001
b0 ,
b0 E
b1 +
b1 F
b0 0
b0 A
b1 /
b1 B
b1 -
b1 D
b0 2
b0 ?
b1 1
b1 @
1!
#22002
b10 ;
b10 g
b10 =
b10 i
b11111110 <
b11111110 h
b10 >
b10 j
b0 O
b10 Q
b10 `
b0 [
b1111111100000000 f
b10 ]
b10 b
b1111111110000000 Y
b1 )
b1 :
b1 V
b1111111110000000 M
b1 '
b1 8
b1 J
b1 %
b1 6
b1 T
#27002
0!
#32002
b10 ,
b10 E
b10 +
b10 F
b11111110 0
b11111110 A
b10 /
b10 B
b0 -
b0 D
b0 1
b0 @
1!
#33003
b111100 <
b111100 h
b1110100 >
b1110100 j
b1100100 ;
b1100100 g
b10100 =
b10100 i
b10001000 \
b1010000000000 e
b101000 ^
b101000 a
b101000 [
b11001000000000 f
b10011100 ]
b10011100 b
b1010000 P
b11011000 R
b11011000 _
b11011000 O
b111100 Q
b111100 `
b1101100000000000 Z
b1010000 (
b1010000 9
b1010000 U
b10001100000000 Y
b10111010 )
b10111010 :
b10111010 V
b1111000000000 N
b11000100 &
b11000100 7
b11000100 I
b1110011100000000 M
b110010 '
b110010 8
b110010 J
b11011000 $
b11011000 5
b11011000 S
b11100010 %
b11100010 6
b11100010 T
b10100 "
b10100 3
b10100 G
b1010 #
b1010 4
b1010 H
#38003
0!
#43003
b1110100 ,
b1110100 E
b10100 +
b10100 F
b111100 0
b111100 A
b1100100 /
b1100100 B
b11001000 .
b11001000 C
b10110000 -
b10110000 D
b11011000 2
b11011000 ?
1!
#44004
b10001000 <
b10001000 h
b1000100 >
b1000100 j
b10101110 ;
b10101110 g
b11010010 =
b11010010 i
b1000110 \
b1111011100000000 e
b11101110 ^
b11101110 a
b11000100 [
b1101000100000000 f
b1011110 ]
b1011110 b
b1101010 P
b11100110 R
b11100110 _
b1110 O
b11000000 Q
b11000000 `
b1011000000000 Z
b11010100 (
b11010100 9
b11010100 U
b1100110000000 Y
b11001101 )
b11001101 :
b11001101 V
b10000100000000 N
b10111110 &
b10111110 7
b10111110 I
b1001110000000 M
b11011001 '
b11011001 8
b11011001 J
b11010 $
b11010 5
b11010 S
b10010001 %
b10010001 6
b10010001 T
b101000 "
b101000 3
b101000 G
b11100111 #
b11100111 4
b11100111 H
#49004
0!
#54004
b1000100 ,
b1000100 E
b11010010 +
b11010010 F
b10001000 0
b10001000 A
b10101110 /
b10101110 B
b100100 .
b100100 C
b1001010 -
b1001010 D
b10110000 2
b10110000 ?
b11010010 1
b11010010 @
1!
#55004
b11010100 <
b11010100 h
b111100 >
b111100 j
b100111 ;
b100111 g
b11010001 =
b11010001 i
b11101011 \
b1010110000000 e
b101011 ^
b101011 a
b10011010 [
b10011000000000 f
b10110100 ]
b10110100 b
b10110110 P
b10001000 R
b10001000 _
b1101110 O
b11111100 Q
b11111100 `
b11000000000000 Z
b10100000 (
b10100000 9
b10100000 U
b11100110000000 Y
b10001101 )
b10001101 :
b10001101 V
b1100101110000000 N
b1101001 &
b1101001 7
b1101001 I
b1101110010000000 M
b1000111 '
b1000111 8
b1000111 J
b10001011 $
b10001011 5
b10001011 S
b100111 %
b100111 6
b100111 T
b11111 "
b11111 3
b11111 G
b10110101 #
b10110101 4
b10110101 H
#59004
0!
#64004
b111100 ,
b111100 E
b11010001 +
b11010001 F
b11010100 0
b11010100 A
b100111 /
b100111 B
b11001011 .
b11001011 C
b11010100 -
b11010100 D
b10100001 2
b10100001 ?
b1000 1
b1000 @
1!
#65004
b10010 <
b10010 h
b11000100 >
b11000100 j
b1100001 ;
b1100001 g
b10010001 =
b10010001 i
b101010 \
b1111010000000000 e
b11101000 ^
b11101000 a
b11000011 [
b1001110000000 f
b11011001 ]
b11011001 b
b11101001 P
b11101011 R
b11101011 _
b10001 O
b1111001 Q
b1111001 `
b1000010000000 Z
b11011111 (
b11011111 9
b11011111 U
b1111101010000000 Y
b1011 )
b1011 :
b1011 V
b1111111110000000 N
b1 &
b1 7
b1 I
b10011000000000 M
b10110100 '
b10110100 8
b10110100 J
b1001 $
b1001 5
b1001 S
b11001110 %
b11001110 6
b11001110 T
b11101010 "
b11101010 3
b11101010 G
b11000101 #
b11000101 4
b11000101 H
#69004
0!
#74004
b11000100 ,
b11000100 E
b10010001 +
b10010001 F
b10010 0
b10010 A
b1100001 /
b1100001 B
b10111111 .
b10111111 C
b1001110 -
b1001110 D
b10011 2
b10011 ?
b11010100 1
b11010100 @
1!
#75004
b11101010 <
b11101010 h
b1010 >
b1010 j
b10101 ;
b10101 g
b10011001 =
b10011001 i
b1011110 \
b1111100000000 e
b111110 ^
b111110 a
b10111100 [
b1111100000000000 f
b10000 ]
b10000 b
b11010100 P
b11111010 R
b11111010 _
b1100001 O
b11010111 Q
b11010111 `
b1100100000000000 Z
b1110000 (
b1110000 9
b1110000 U
b1110101100000000 Y
b101010 )
b101010 :
b101010 V
b11011010000000 N
b10010011 &
b10010011 7
b10010011 I
b10001010000000 M
b10111011 '
b10111011 8
b10111011 J
b11001110 $
b11001110 5
b11001110 S
b11100110 %
b11100110 6
b11100110 T
b1100111 "
b1100111 3
b1100111 G
b11100 #
b11100 4
b11100 H
#79004
0!
#84004
b1010 ,
b1010 E
b10011001 +
b10011001 F
b11101010 0
b11101010 A
b10101 /
b10101 B
b1110110 .
b1110110 C
b10100101 -
b10100101 D
b110010 2
b110010 ?
b11101 1
b11101 @
1!
#85004
b111111 <
b111111 h
b1010111 >
b1010111 j
b1111000 ;
b1111000 g
b110000 =
b110000 i
b1101110 \
b1101001000000000 e
b10100100 ^
b10100100 a
b0 [
b1111101000000000 f
b1100 ]
b1100 b
b11100101 P
b1001011 R
b1001011 _
b1101000 O
b11010100 Q
b11010100 `
b11001010000000 Z
b10011011 (
b10011011 9
b10011011 U
b11110100000000 Y
b10000110 )
b10000110 :
b10000110 V
b1110011010000000 N
b110011 &
b110011 7
b110011 I
b10010100000000 M
b10110110 '
b10110110 8
b10110110 J
b1001 $
b1001 5
b1001 S
b10000110 %
b10000110 6
b10000110 T
b11000 "
b11000 3
b11000 G
b11110 #
b11110 4
b11110 H
#89004
0!
#94004
b1010111 ,
b1010111 E
b110000 +
b110000 F
b111111 0
b111111 A
b1111000 /
b1111000 B
b1110111 .
b1110111 C
b1101000 -
b1101000 D
b1010011 2
b1010011 ?
b1101000 1
b1101000 @
1!
#95004
b11100011 <
b11100011 h
b10011 >
b10011 j
b1001110 ;
b1001110 g
b10100 =
b10100 i
b10001 \
b1100111010000000 e
b10011101 ^
b10011101 a
b1001000 [
b1111010000000000 f
b11000 ]
b11000 b
b101101 P
b11111011 R
b11111011 _
b11000111 O
b10110001 Q
b10110001 `
b1101110100000000 Z
b1000110 (
b1000110 9
b1000110 U
b1100110000000000 Y
b1101000 )
b1101000 :
b1101000 V
b110010000000 N
b11100111 &
b11100111 7
b11100111 I
b10110000000 M
b11110101 '
b11110101 8
b11110101 J
b1010111 $
b1010111 5
b1010111 S
b10110000 %
b10110000 6
b10110000 T
b10100 "
b10100 3
b10100 G
b10111100 #
b10111100 4
b10111100 H
#99004
0!
#104004
b10011 ,
b10011 E
b10100 +
b10100 F
b11100011 0
b11100011 A
b1001110 /
b1001110 B
b11100 .
b11100 C
b1111111 -
b1111111 D
b111110 2
b111110 ?
b1111 1
b1111 @
1!
#105004
b1010100 <
b1010100 h
b1101110 >
b1101110 j
b10110110 ;
b10110110 g
b111100 =
b111100 i
b101111 \
b1111010000000 e
b111101 ^
b111101 a
b10000001 [
b11100110000000 f
b10001101 ]
b10001101 b
b10101101 P
b11100001 R
b11100001 _
b10110111 O
b1111001 Q
b1111001 `
b1111110010000000 Z
b111 (
b111 9
b111 U
b1111110100000000 Y
b110 )
b110 :
b110 V
b1111001100000000 N
b11010 &
b11010 7
b11010 I
b1100111110000000 M
b1100001 '
b1100001 8
b1100001 J
b110110 $
b110110 5
b110110 S
b10000111 %
b10000111 6
b10000111 T
b11000111 "
b11000111 3
b11000111 G
b11000 #
b11000 4
b11000 H
#109004
0!
#114004
b1101110 ,
b1101110 E
b111100 +
b111100 F
b1010100 0
b1010100 A
b10110110 /
b10110110 B
b1111110 .
b1111110 C
b110110 -
b110110 D
b11011100 2
b11011100 ?
b111000 1
b111000 @
1!
#115004
b10101000 <
b10101000 h
b10110000 >
b10110000 j
b10110 ;
b10110 g
b10100000 =
b10100000 i
b11110111 \
b1110110000000 e
b111011 ^
b111011 a
b11110100 [
b11111000000000 f
b10000100 ]
b10000100 b
b10010010 P
b101100 R
b101100 _
b101 O
b11011011 Q
b11011011 `
b1110111100000000 Z
b100010 (
b100010 9
b100010 U
b1101110000000000 Y
b1001000 )
b1001000 :
b1001000 V
b1101100110000000 N
b1001101 &
b1001101 7
b1001101 I
b1100101010000000 M
b1101011 '
b1101011 8
b1101011 J
b11001 $
b11001 5
b11001 S
b111100 %
b111100 6
b111100 T
b11011111 "
b11011111 3
b11011111 G
b1110000 #
b1110000 4
b1110000 H
#119004
0!
#124004
b10110000 ,
b10110000 E
b10100000 +
b10100000 F
b10101000 0
b10101000 A
b10110 /
b10110 B
b10011011 .
b10011011 C
b10001 -
b10001 D
b10001001 2
b10001001 ?
b11111001 1
b11111001 @
1!
#125004
b10111010 <
b10111010 h
b1011010 >
b1011010 j
b10010100 ;
b10010100 g
b11110 =
b11110 i
b10110001 \
b1110110000000 e
b111011 ^
b111011 a
b10010000 [
b1101100000000000 f
b1010000 ]
b1010000 b
b1101000 P
b1010 R
b1010 _
b10111011 O
b1011001 Q
b1011001 `
b1110110000000 Z
b11000101 (
b11000101 9
b11000101 U
b1101000000000000 Y
b1100000 )
b1100000 :
b1100000 V
b1101011110000000 N
b1010001 &
b1010001 7
b1010001 I
b1100010000000 M
b11001111 '
b11001111 8
b11001111 J
b1110110 $
b1110110 5
b1110110 S
b11110000 %
b11110000 6
b11110000 T
b10111001 "
b10111001 3
b10111001 G
b10001010 #
b10001010 4
b10001010 H
#129004
0!
#134004
b1011010 ,
b1011010 E
b11110 +
b11110 F
b10111010 0
b10111010 A
b10010100 /
b10010100 B
b10110111 .
b10110111 C
b101011 -
b101011 D
b11001 2
b11001 ?
b1001011 1
b1001011 @
1!
#135004
b110000 <
b110000 h
b11100 >
b11100 j
b10100010 ;
b10100010 g
b10001110 =
b10001110 i
b10000010 \
b1100010100000000 e
b10001010 ^
b10001010 a
b1110100 [
b10100000000 f
b11110110 ]
b11110110 b
b1000100 P
b100110 R
b100110 _
b11101000 O
b11000 Q
b11000 `
b1111111000000000 Z
b100 (
b100 9
b100 U
b1101111110000000 Y
b1000001 )
b1000001 :
b1000001 V
b1100011110000000 N
b1110001 &
b1110001 7
b1110001 I
b1111010000000000 M
b11000 '
b11000 8
b11000 J
b10000110 $
b10000110 5
b10000110 S
b10110101 %
b10110101 6
b10110101 T
b10110101 "
b10110101 3
b10110101 G
b0 #
b0 4
b0 H
#139004
0!
#144004
b11100 ,
b11100 E
b10001110 +
b10001110 F
b110000 0
b110000 A
b10100010 /
b10100010 B
b11000010 .
b11000010 C
b1110100 -
b1110100 D
b11000110 2
b11000110 ?
b1011100 1
b1011100 @
1!
#145004
b110010 <
b110010 h
b11110 >
b11110 j
b10 ;
b10 g
b10100010 =
b10100010 i
b10111110 \
b1101100000000000 e
b10110000 ^
b10110000 a
b10011100 [
b10100000000 f
b11110110 ]
b11110110 b
b11010010 P
b101000 R
b101000 _
b1100 O
b1010010 Q
b1010010 `
b1110000000 Z
b11111001 (
b11111001 9
b11111001 U
b1110100110000000 Y
b101101 )
b101101 :
b101101 V
b1110101010000000 N
b101011 &
b101011 7
b101011 I
b10111010000000 M
b10100011 '
b10100011 8
b10100011 J
b10110111 $
b10110111 5
b10110111 S
b11001001 %
b11001001 6
b11001001 T
b11111101 "
b11111101 3
b11111101 G
b10101111 #
b10101111 4
b10101111 H
#149004
0!
#154004
b11110 ,
b11110 E
b10100010 +
b10100010 F
b110010 0
b110010 A
b10 /
b10 B
b10100 .
b10100 C
b1110000 -
b1110000 D
b10010000 2
b10010000 ?
b10101000 1
b10101000 @
1!
#155004
b11001010 <
b11001010 h
b10110110 >
b10110110 j
b11001010 ;
b11001010 g
b11111100 =
b11111100 i
b10011 \
b11001110000000 e
b1100111 ^
b1100111 a
b11011100 [
b1100010100000000 f
b1110110 ]
b1110110 b
b111100 P
b1000000 R
b1000000 _
b10110001 O
b1100011 Q
b1100011 `
b1110101100000000 Z
b101010 (
b101010 9
b101010 U
b1101100110000000 Y
b1001101 )
b1001101 :
b1001101 V
b1111111100000000 N
b10 &
b10 7
b10 I
b1101001110000000 M
b1011001 '
b1011001 8
b1011001 J
b111101 $
b111101 5
b111101 S
b101001 %
b101001 6
b101001 T
b111110 "
b111110 3
b111110 G
b1010 #
b1010 4
b1010 H
#159004
0!
#164004
b10110110 ,
b10110110 E
b11111100 +
b11111100 F
b11001010 0
b11001010 A
b11001010 /
b11001010 B
b101001 .
b101001 C
b11010101 -
b11010101 D
b1001111 2
b1001111 ?
b10001101 1
b10001101 @
1!
#165004
b11111111 <
b11111111 h
b1101101 >
b1101101 j
b11101 ;
b11101 g
b1111011 =
b1111011 i
b110011 \
b1110100010000000 e
b11010001 ^
b11010001 a
b1100101 [
b10010010000000 f
b10110111 ]
b10110111 b
b11110000 P
b10110110 R
b10110110 _
b1000110 O
b1001100 Q
b1001100 `
b1101100010000000 Z
b1001111 (
b1001111 9
b1001111 U
b10101110000000 Y
b10101001 )
b10101001 :
b10101001 V
b1100111010000000 N
b1100011 &
b1100011 7
b1100011 I
b1111111010000000 M
b11 '
b11 8
b11 J
b10000010 $
b10000010 5
b10000010 S
b1110 %
b1110 6
b1110 T
b1010011 "
b1010011 3
b1010011 G
b1001001 #
b1001001 4
b1001001 H
#169004
0!
#174004
b1101101 ,
b1101101 E
b1111011 +
b1111011 F
b11111111 0
b11111111 A
b11101 /
b11101 B
b10111101 .
b10111101 C
b11100001 -
b11100001 D
b100011 2
b100011 ?
b10101011 1
b10101011 @
1!
#175004
b1100111 <
b1100111 h
b11101 >
b11101 j
b10100000 ;
b10100000 g
b10000 =
b10000 i
b11110 \
b1110010000000000 e
b11001000 ^
b11001000 a
b10010011 [
b1101001010000000 f
b1011011 ]
b1011011 b
b10100 P
b11000010 R
b11000010 _
b11101110 O
b11011000 Q
b11011000 `
b1101010110000000 Z
b1010101 (
b1010101 9
b1010101 U
b1100111000000000 Y
b1100100 )
b1100100 :
b1100100 V
b1010010000000 N
b11010111 &
b11010111 7
b11010111 I
b1100010110000000 M
b1110101 '
b1110101 8
b1110101 J
b1110011 $
b1110011 5
b1110011 S
b11110111 %
b11110111 6
b11110111 T
b11101011 "
b11101011 3
b11101011 G
b1100011 #
b1100011 4
b1100011 H
#179004
0!
#184004
b11101 ,
b11101 E
b10000 +
b10000 F
b1100111 0
b1100111 A
b10100000 /
b10100000 B
b11110110 .
b11110110 C
b1011011 -
b1011011 D
b110010 2
b110010 ?
b10000001 1
b10000001 @
1!
#185004
b1100100 <
b1100100 h
b10010000 >
b10010000 j
b10011 ;
b10011 g
b1010001 =
b1010001 i
b10110111 \
b11000010000000 e
b1100001 ^
b1100001 a
b11110 [
b11010100000000 f
b10010110 ]
b10010110 b
b10011000 P
b11111010 R
b11111010 _
b11101010 O
b10110010 Q
b10110010 `
b1010110000000 Z
b11010101 (
b11010101 9
b11010101 U
b10001000000000 Y
b10111100 )
b10111100 :
b10111100 V
b10011110000000 N
b10110001 &
b10110001 7
b10110001 I
b1100111000000000 M
b1100100 '
b1100100 8
b1100100 J
b10001100 $
b10001100 5
b10001100 S
b11011010 %
b11011010 6
b11011010 T
b1001001 "
b1001001 3
b1001001 G
b1001110 #
b1001110 4
b1001110 H
#189004
0!
#194004
b10010000 ,
b10010000 E
b1010001 +
b1010001 F
b1100100 0
b1100100 A
b10011 /
b10011 B
b11100001 .
b11100001 C
b11001100 -
b11001100 D
b1001111 2
b1001111 ?
b1000 1
b1000 @
1!
#195004
b10011101 <
b10011101 h
b1001011 >
b1001011 j
b1000000 ;
b1000000 g
b11110100 =
b11110100 i
b11010100 \
b1001100000000 e
b100110 ^
b100110 a
b11010101 [
b1010010000000 f
b11010111 ]
b11010111 b
b10011100 P
b1110100 R
b1110100 _
b0 O
b11010 Q
b11010 `
b1110101110000000 Z
b101001 (
b101001 9
b101001 U
b1111111110000000 Y
b1 )
b1 :
b1 V
b1100101000000000 N
b1101100 &
b1101100 7
b1101100 I
b1111100110000000 M
b1101 '
b1101 8
b1101 J
b11111101 $
b11111101 5
b11111101 S
b11010110 %
b11010110 6
b11010110 T
b1000 "
b1000 3
b1000 G
b1101 #
b1101 4
b1101 H
#199004
0!
#204004
b1001011 ,
b1001011 E
b11110100 +
b11110100 F
b10011101 0
b10011101 A
b1000000 /
b1000000 B
b11001000 .
b11001000 C
b101011 -
b101011 D
b1110000 2
b1110000 ?
b11010101 1
b11010101 @
1!
#205004
b11111011 <
b11111011 h
b11011 >
b11011 j
b11110100 ;
b11110100 g
b1111000 =
b1111000 i
b11110000 \
b1101111100000000 e
b10111110 ^
b10111110 a
b100100 [
b11100000000000 f
b10010000 ]
b10010000 b
b10100001 P
b10001011 R
b10001011 _
b10111000 O
b110110 Q
b110110 `
b110010000000 Z
b11100111 (
b11100111 9
b11100111 U
b1110010100000000 Y
b110110 )
b110110 :
b110110 V
b1100010110000000 N
b1110101 &
b1110101 7
b1110101 I
b1110000010000000 M
b111111 '
b111111 8
b111111 J
b11010111 $
b11010111 5
b11010111 S
b1011010 %
b1011010 6
b1011010 T
b10110 "
b10110 3
b10110 G
b11110111 #
b11110111 4
b11110111 H
#209004
0!
#214004
b11011 ,
b11011 E
b1111000 +
b1111000 F
b11111011 0
b11111011 A
b11110100 /
b11110100 B
b10110001 .
b10110001 C
b10010100 -
b10010100 D
b10010001 2
b10010001 ?
b11011100 1
b11011100 @
1!
#215004
b1010000 <
b1010000 h
b10011010 >
b10011010 j
b1111101 ;
b1111101 g
b100111 =
b100111 i
b10001001 \
b1101010110000000 e
b10101011 ^
b10101011 a
b1101 [
b10110110000000 f
b10100101 ]
b10100101 b
b1110011 P
b11110101 R
b11110101 _
b1100100 O
b11010010 Q
b11010010 `
b1111011110000000 Z
b10001 (
b10001 9
b10001 U
b1101101000000000 Y
b1001100 )
b1001100 :
b1001100 V
b1111110000000 N
b11000001 &
b11000001 7
b11000001 I
b1110010010000000 M
b110111 '
b110111 8
b110111 J
b10011010 $
b10011010 5
b10011010 S
b1011001 %
b1011001 6
b1011001 T
b110100 "
b110100 3
b110100 G
b10011011 #
b10011011 4
b10011011 H
#219004
0!
#224004
b10011010 ,
b10011010 E
b100111 +
b100111 F
b1010000 0
b1010000 A
b1111101 /
b1111101 B
b11101010 .
b11101010 C
b1010111 -
b1010111 D
b11111100 2
b11111100 ?
b1110001 1
b1110001 @
1!
#225004
b101101 <
b101101 h
b11101001 >
b11101001 j
b1011001 ;
b1011001 g
b101 =
b101 i
b11011010 \
b1101010100000000 e
b10101010 ^
b10101010 a
b1000 [
b1101000100000000 f
b1011110 ]
b1011110 b
b10111 P
b10001011 R
b10001011 _
b11101001 O
b10101111 Q
b10101111 `
b110000000000 Z
b11101000 (
b11101000 9
b11101000 U
b10101010000000 Y
b10101011 )
b10101011 :
b10101011 V
b1110001100000000 N
b111010 &
b111010 7
b111010 I
b111010000000 M
b11100011 '
b11100011 8
b11100011 J
b11000010 $
b11000010 5
b11000010 S
b10110011 %
b10110011 6
b10110011 T
b1010001 "
b1010001 3
b1010001 G
b11001100 #
b11001100 4
b11001100 H
#229004
0!
#234004
b11101001 ,
b11101001 E
b101 +
b101 F
b101101 0
b101101 A
b1011001 /
b1011001 B
b111101 .
b111101 C
b11100001 -
b11100001 D
b11110001 2
b11110001 ?
b11110001 1
b11110001 @
1!
#235004
b1001 <
b1001 h
b10111011 >
b10111011 j
b1111001 ;
b1111001 g
b11111101 =
b11111101 i
b11110100 \
b1101111100000000 e
b10111110 ^
b10111110 a
b11 [
b1101001110000000 f
b1011001 ]
b1011001 b
b11110 P
b1100010 R
b1100010 _
b111011 O
b10111011 Q
b10111011 `
b1100110110000000 Z
b1100101 (
b1100101 9
b1100101 U
b10111100000000 N
b10100010 &
b10100010 7
b10100010 I
b10000000000000 M
b11000000 '
b11000000 8
b11000000 J
b1011001 $
b1011001 5
b1011001 S
b10101110 %
b10101110 6
b10101110 T
b11000000 "
b11000000 3
b11000000 G
b11111011 #
b11111011 4
b11111011 H
#239004
0!
#244004
b10111011 ,
b10111011 E
b11111101 +
b11111101 F
b1001 0
b1001 A
b1111001 /
b1111001 B
b101010 .
b101010 C
b111000 -
b111000 D
b10010 2
b10010 ?
b111110 1
b111110 @
1!
