test/top_fft/wave/tt_um_FFT_engine_tb_20250707_18:49:10.vcd
$date
	Mon Jul  7 18:49:15 2025
$end
$version
	Icarus Verilog
$end
$timescale
	1ps
$end
$scope module tt_um_FFT_engine_tb $end
$var wire 1 ! clk $end
$var wire 1 " ena $end
$var wire 1 # rst_n $end
$var wire 8 $ ui_in [7:0] $end
$var wire 8 % uio_in [7:0] $end
$var wire 8 & uo_out [7:0] $end
$var wire 8 ' uio_out [7:0] $end
$var wire 8 ( uio_oe [7:0] $end
$scope module dut $end
$var wire 1 ! clk $end
$var wire 1 " ena $end
$var wire 1 ) rst $end
$var wire 1 # rst_n $end
$var wire 8 * sample0_imag [7:0] $end
$var wire 8 + sample0_real [7:0] $end
$var wire 8 , sample1_imag [7:0] $end
$var wire 8 - sample1_real [7:0] $end
$var wire 8 . sample2_imag [7:0] $end
$var wire 8 / sample2_real [7:0] $end
$var wire 8 0 sample3_imag [7:0] $end
$var wire 8 1 sample3_real [7:0] $end
$var wire 8 2 ui_in [7:0] $end
$var wire 8 3 uio_in [7:0] $end
$var wire 8 4 uo_out [7:0] $end
$var wire 1 5 output_pulse $end
$var wire 1 6 load_pulse $end
$var wire 8 7 fft3_real [7:0] $end
$var wire 8 8 fft3_imag [7:0] $end
$var wire 8 9 fft2_real [7:0] $end
$var wire 8 : fft2_imag [7:0] $end
$var wire 8 ; fft1_real [7:0] $end
$var wire 8 < fft1_imag [7:0] $end
$var wire 8 = fft0_real [7:0] $end
$var wire 8 > fft0_imag [7:0] $end
$var wire 2 ? addr [1:0] $end
$var reg 1 @ done $end
$var reg 2 A output_counter [1:0] $end
$var reg 1 B processing $end
$var reg 8 C uio_oe [7:0] $end
$var reg 8 D uio_out [7:0] $end
$scope module disp_inst $end
$var wire 1 @ done $end
$var wire 2 E output_counter [1:0] $end
$var wire 1 B processing $end
$var wire 2 F sample_counter [1:0] $end
$var reg 8 G seg_out [7:0] $end
$upscope $end
$scope module fft_inst $end
$var wire 1 ! clk $end
$var wire 8 H in0_imag [7:0] $end
$var wire 8 I in0_real [7:0] $end
$var wire 8 J in1_imag [7:0] $end
$var wire 8 K in1_real [7:0] $end
$var wire 8 L in2_imag [7:0] $end
$var wire 8 M in2_real [7:0] $end
$var wire 8 N in3_imag [7:0] $end
$var wire 8 O in3_real [7:0] $end
$var wire 1 ) rst $end
$var wire 8 P bfly_pos_real [7:0] $end
$var wire 8 Q bfly_pos_imag [7:0] $end
$var wire 8 R bfly_neg_real [7:0] $end
$var wire 8 S bfly_neg_imag [7:0] $end
$var reg 8 T out0_imag [7:0] $end
$var reg 8 U out0_real [7:0] $end
$var reg 8 V out1_imag [7:0] $end
$var reg 8 W out1_real [7:0] $end
$var reg 8 X out2_imag [7:0] $end
$var reg 8 Y out2_real [7:0] $end
$var reg 8 Z out3_imag [7:0] $end
$var reg 8 [ out3_real [7:0] $end
$scope module bfly_stage1_0 $end
$var wire 8 \ A_imag [7:0] $end
$var wire 8 ] A_real [7:0] $end
$var wire 8 ^ B_imag [7:0] $end
$var wire 8 _ B_real [7:0] $end
$var wire 8 ` W_imag [7:0] $end
$var wire 8 a W_real [7:0] $end
$var wire 16 b product_real [15:0] $end
$var wire 16 c product_imag [15:0] $end
$var wire 8 d Pos_real [7:0] $end
$var wire 8 e Pos_imag [7:0] $end
$var wire 8 f Neg_real [7:0] $end
$var wire 8 g Neg_imag [7:0] $end
$upscope $end
$scope module bfly_stage1_1 $end
$var wire 8 h A_imag [7:0] $end
$var wire 8 i A_real [7:0] $end
$var wire 8 j B_imag [7:0] $end
$var wire 8 k B_real [7:0] $end
$var wire 8 l W_imag [7:0] $end
$var wire 8 m W_real [7:0] $end
$var wire 16 n product_real [15:0] $end
$var wire 16 o product_imag [15:0] $end
$var wire 8 p Pos_real [7:0] $end
$var wire 8 q Pos_imag [7:0] $end
$var wire 8 r Neg_real [7:0] $end
$var wire 8 s Neg_imag [7:0] $end
$upscope $end
$scope module bfly_stage2_1 $end
$var wire 8 t A_imag [7:0] $end
$var wire 8 u A_real [7:0] $end
$var wire 8 v B_imag [7:0] $end
$var wire 8 w B_real [7:0] $end
$var wire 8 x W_imag [7:0] $end
$var wire 8 y W_real [7:0] $end
$var wire 16 z product_real [15:0] $end
$var wire 16 { product_imag [15:0] $end
$var wire 8 | Pos_real [7:0] $end
$var wire 8 } Pos_imag [7:0] $end
$var wire 8 ~ Neg_real [7:0] $end
$var wire 8 !" Neg_imag [7:0] $end
$upscope $end
$upscope $end
$scope module io_inst $end
$var wire 2 "" addr [1:0] $end
$var wire 1 ! clk $end
$var wire 1 " ena $end
$var wire 1 6 load_pulse $end
$var wire 1 5 output_pulse $end
$var wire 1 ) rst $end
$var wire 1 #" ui_in0 $end
$var wire 1 $" ui_in1 $end
$var reg 2 %" counter [1:0] $end
$var reg 1 &" prev_in0 $end
$var reg 1 '" prev_in1 $end
$upscope $end
$scope module mem_inst $end
$var wire 2 (" addr [1:0] $end
$var wire 1 ! clk $end
$var wire 8 )" data_in [7:0] $end
$var wire 1 " ena $end
$var wire 8 *" imag0_out [7:0] $end
$var wire 8 +" imag1_out [7:0] $end
$var wire 8 ," imag2_out [7:0] $end
$var wire 8 -" imag3_out [7:0] $end
$var wire 1 6 load_pulse $end
$var wire 8 ." real0_out [7:0] $end
$var wire 8 /" real1_out [7:0] $end
$var wire 8 0" real2_out [7:0] $end
$var wire 8 1" real3_out [7:0] $end
$var wire 1 ) rst $end
$var integer 32 2" i [31:0] $end
$upscope $end
$upscope $end
$upscope $end
$enddefinitions $end
#0
$dumpvars
b100 2"
b0 1"
b0 0"
b0 /"
b0 ."
b0 -"
b0 ,"
b0 +"
b0 *"
b0 )"
b0 ("
0'"
0&"
b0 %"
0$"
0#"
b0 ""
b0 !"
b0 ~
b0 }
b0 |
b0 {
b0 z
b0 y
b10000000 x
b0 w
b0 v
b0 u
b0 t
b0 s
b0 r
b0 q
b0 p
b0 o
b0 n
b10000000 m
b0 l
b0 k
b0 j
b0 i
b0 h
b0 g
b0 f
b0 e
b0 d
b0 c
b0 b
b10000000 a
b0 `
b0 _
b0 ^
b0 ]
b0 \
b0 [
b0 Z
b0 Y
b0 X
b0 W
b0 V
b0 U
b0 T
b0 S
b0 R
b0 Q
b0 P
b0 O
b0 N
b0 M
b0 L
b0 K
b0 J
b0 I
b0 H
b1100 G
b0 F
b0 E
b0 D
b0 C
0B
b0 A
0@
b0 ?
b0 >
b0 =
b0 <
b0 ;
b0 :
b0 9
b0 8
b0 7
06
05
b1100 4
b0 3
b0 2
b0 1
b0 0
b0 /
b0 .
b0 -
b0 ,
b0 +
b0 *
1)
b0 (
b0 '
b1100 &
b0 %
b0 $
0#
0"
1!
$end
#5000
0!
#10000
0)
1#
b100 2"
1!
#15000
0!
#20000
1!
#20001
b100 2"
1)
0#
#25001
0!
#30001
b100 2"
1!
#35001
0!
#40001
0)
1#
b100 2"
1!
#45001
0!
#50001
16
1#"
b1 $
b1 2
b10010 %
b10010 3
b10010 )"
1"
1!
#55001
0!
#60001
0#"
b0 $
b0 2
b100000 Q
b100000 }
b100000 S
b100000 !"
b10000 P
b10000 |
b10000 R
b10000 ~
b100000 e
b100000 g
b100000 t
b10000 d
b10000 f
b10000 u
b1011010 &
b1011010 4
b1011010 G
06
b100000 *
b100000 H
b100000 \
b100000 *"
b10000 +
b10000 I
b10000 ]
b10000 ."
b1 ?
b1 F
b1 ""
b1 ("
b1 %"
1&"
1!
#65001
0!
#70001
16
1#"
b1 $
b1 2
b11011100 %
b11011100 3
b11011100 )"
b10010 '
b10010 D
0&"
b100000 8
b100000 Z
b10000 7
b10000 [
b100000 <
b100000 V
b10000 ;
b10000 W
b100000 :
b100000 X
b10000 9
b10000 Y
b100000 >
b100000 T
b10000 =
b10000 U
1!
#75001
0!
#80001
0#"
b0 $
b0 2
b11010000 P
b11010000 |
b1010000 R
b1010000 ~
b1010000 Q
b1010000 }
b11110000 S
b11110000 !"
b11000000 q
b1110000000000000 z
b11000000 s
b11000000 v
b11010000 p
b1100000000000 {
b11010000 r
b11010000 w
b1001110 &
b1001110 4
b1001110 G
06
b11000000 ,
b11000000 J
b11000000 h
b11000000 +"
b11010000 -
b11010000 K
b11010000 i
b11010000 /"
b10 ?
b10 F
b10 ""
b10 ("
b10 %"
1&"
1!
#85001
0!
#90001
16
1#"
b1 $
b1 2
b1011010 %
b1011010 3
b1011010 )"
b11101110 '
b11101110 D
0&"
b11110000 8
b11110000 Z
b1010000 7
b1010000 [
b1010000 <
b1010000 V
b11010000 ;
b11010000 W
b1100000 :
b1100000 X
b1000000 9
b1000000 Y
b11100000 >
b11100000 T
b11100000 =
b11100000 U
1!
#95001
0!
#100001
0#"
b0 $
b0 2
b11110000 Q
b11110000 }
b10010000 S
b10010000 !"
b100000 P
b100000 |
b10100000 R
b10100000 ~
b10000000 e
b11000000 g
b11000000 t
b11000000 d
b1100000 f
b1100000 u
b0 &
b0 4
b0 G
06
b11000000000000 c
b10100000 .
b10100000 L
b10100000 ^
b10100000 ,"
b1101100000000000 b
b1010000 /
b1010000 M
b1010000 _
b1010000 0"
b11 ?
b11 F
b11 ""
b11 ("
b11 %"
1&"
1!
#105001
0!
#110001
16
1#"
b1 $
b1 2
b10010111 %
b10010111 3
b10010111 )"
b10010100 '
b10010100 D
b1101100 &
b1101100 4
b1101100 G
0&"
b10010000 8
b10010000 Z
b10100000 7
b10100000 [
b11110000 <
b11110000 V
b100000 ;
b100000 W
b11000000 :
b11000000 X
b11110000 9
b11110000 Y
b1000000 >
b1000000 T
b10010000 =
b10010000 U
1@
1!
#115001
0!
#120001
0#"
b0 $
b0 2
b10010000 P
b10010000 |
b110000 R
b110000 ~
b1100000 Q
b1100000 }
b100000 S
b100000 !"
b1010000 q
b1100000000000 z
b110000 s
b110000 v
b1000000 p
b1101000000000000 {
b1100000 r
b1100000 w
b111000 &
b111000 4
b111000 G
06
1B
b1100100000000000 o
b1110000 0
b1110000 N
b1110000 j
b1110000 -"
b11100000000000 n
b10010000 1
b10010000 O
b10010000 k
b10010000 1"
b0 ?
b0 F
b0 ""
b0 ("
b0 %"
1&"
1!
#125001
0!
#130001
b1101 '
b1101 D
b1101100 &
b1101100 4
b1101100 G
0&"
b100000 8
b100000 Z
b110000 7
b110000 [
b1100000 <
b1100000 V
b10010000 ;
b10010000 W
b110000 :
b110000 X
b10000000 9
b10000000 Y
b11010000 >
b11010000 T
b0 =
b0 U
0B
1!
#135001
0!
#140001
1!
#145001
0!
#150001
1!
#155001
0!
#160001
1!
#165001
0!
#170001
1!
#175001
0!
#180001
15
1$"
b10 $
b10 2
1!
#185001
0!
#190001
05
b1111100 &
b1111100 4
b1111100 G
b10010110 '
b10010110 D
1'"
b1 A
b1 E
b11111111 (
b11111111 C
1!
#190002
b0 Q
b0 }
b0 S
b0 !"
b0 P
b0 |
b0 R
b0 ~
b1100 &
b1100 4
b1100 G
b0 '
b0 D
b0 q
b0 z
b0 s
b0 v
b0 p
b0 {
b0 r
b0 w
b0 e
b0 g
b0 t
b0 d
b0 f
b0 u
b0 (
b0 C
b0 A
b0 E
0@
b0 8
b0 Z
b0 7
b0 [
b0 :
b0 X
b0 9
b0 Y
b0 <
b0 V
b0 ;
b0 W
b0 >
b0 T
b0 o
b0 0
b0 N
b0 j
b0 -"
b0 n
b0 1
b0 O
b0 k
b0 1"
b0 c
b0 .
b0 L
b0 ^
b0 ,"
b0 b
b0 /
b0 M
b0 _
b0 0"
b0 ,
b0 J
b0 h
b0 +"
b0 -
b0 K
b0 i
b0 /"
b0 *
b0 H
b0 \
b0 *"
b0 +
b0 I
b0 ]
b0 ."
0'"
b100 2"
0$"
1)
b0 %
b0 3
b0 )"
b0 $
b0 2
0"
0#
#195002
0!
#200002
b100 2"
1!
#205002
0!
#210002
0)
1#
b100 2"
1!
#215002
0!
#220002
16
1#"
b1 $
b1 2
b10000 %
b10000 3
b10000 )"
1"
1!
#225002
0!
#230002
0#"
b0 $
b0 2
b10000 P
b10000 |
b10000 R
b10000 ~
b10000 d
b10000 f
b10000 u
b1011010 &
b1011010 4
b1011010 G
06
b10000 +
b10000 I
b10000 ]
b10000 ."
b1 ?
b1 F
b1 ""
b1 ("
b1 %"
1&"
1!
#235002
0!
#240002
16
1#"
b1 $
b1 2
b0 %
b0 3
b0 )"
b10000 '
b10000 D
0&"
b10000 7
b10000 [
b10000 ;
b10000 W
b10000 9
b10000 Y
b10000 =
b10000 U
1!
#245002
0!
#250002
0#"
b0 $
b0 2
b1001110 &
b1001110 4
b1001110 G
06
b10 ?
b10 F
b10 ""
b10 ("
b10 %"
1&"
1!
#255002
0!
#260002
16
1#"
b1 $
b1 2
0&"
1!
#265002
0!
#270002
0#"
b0 $
b0 2
b0 &
b0 4
b0 G
06
b11 ?
b11 F
b11 ""
b11 ("
b11 %"
1&"
1!
#275002
0!
#280002
16
1#"
b1 $
b1 2
b1101100 &
b1101100 4
b1101100 G
0&"
1@
1!
#285002
0!
#290002
0#"
b0 $
b0 2
b111000 &
b111000 4
b111000 G
06
1B
b0 ?
b0 F
b0 ""
b0 ("
b0 %"
1&"
1!
#295002
0!
#300002
b1101100 &
b1101100 4
b1101100 G
0&"
0B
1!
#305002
0!
#310002
1!
#315002
0!
#320002
1!
#325002
0!
#330002
1!
#335002
0!
#340002
1!
#345002
0!
#350002
15
1$"
b10 $
b10 2
1!
#355002
0!
#360002
05
b1111100 &
b1111100 4
b1111100 G
1'"
b1 A
b1 E
b11111111 (
b11111111 C
1!
#360003
b0 P
b0 |
b0 R
b0 ~
b1100 &
b1100 4
b1100 G
b0 '
b0 D
b0 d
b0 f
b0 u
b0 (
b0 C
b0 A
b0 E
0@
b0 7
b0 [
b0 9
b0 Y
b0 ;
b0 W
b0 =
b0 U
b0 +
b0 I
b0 ]
b0 ."
0'"
b100 2"
0$"
1)
b0 $
b0 2
0"
0#
#365003
0!
#370003
b100 2"
1!
#375003
0!
#380003
0)
1#
b100 2"
1!
#385003
0!
#390003
16
1#"
b1 $
b1 2
b10000 %
b10000 3
b10000 )"
1"
1!
#395003
0!
#400003
0#"
b0 $
b0 2
b10000 P
b10000 |
b10000 R
b10000 ~
b10000 d
b10000 f
b10000 u
b1011010 &
b1011010 4
b1011010 G
06
b10000 +
b10000 I
b10000 ]
b10000 ."
b1 ?
b1 F
b1 ""
b1 ("
b1 %"
1&"
1!
#405003
0!
#410003
16
1#"
b1 $
b1 2
b10000 '
b10000 D
0&"
b10000 7
b10000 [
b10000 ;
b10000 W
b10000 9
b10000 Y
b10000 =
b10000 U
1!
#415003
0!
#420003
0#"
b0 $
b0 2
b11110000 Q
b11110000 }
b10000 S
b10000 !"
b10000 p
b1111100000000000 {
b10000 r
b10000 w
b1001110 &
b1001110 4
b1001110 G
06
b10000 -
b10000 K
b10000 i
b10000 /"
b10 ?
b10 F
b10 ""
b10 ("
b10 %"
1&"
1!
#425003
0!
#430003
16
1#"
b1 $
b1 2
b100000 '
b100000 D
0&"
b10000 8
b10000 Z
b11110000 <
b11110000 V
b0 9
b0 Y
b100000 =
b100000 U
1!
#435003
0!
#440003
0#"
b0 $
b0 2
b100000 P
b100000 |
b100000 R
b100000 ~
b0 d
b100000 f
b100000 u
b0 &
b0 4
b0 G
06
b1111100000000000 b
b10000 /
b10000 M
b10000 _
b10000 0"
b11 ?
b11 F
b11 ""
b11 ("
b11 %"
1&"
1!
#445003
0!
#450003
16
1#"
b1 $
b1 2
b10000 '
b10000 D
b1101100 &
b1101100 4
b1101100 G
0&"
b100000 7
b100000 [
b100000 ;
b100000 W
b11110000 9
b11110000 Y
b10000 =
b10000 U
1@
1!
#455003
0!
#460003
0#"
b0 $
b0 2
b11100000 Q
b11100000 }
b100000 S
b100000 !"
b0 p
b1111000000000000 {
b100000 r
b100000 w
b111000 &
b111000 4
b111000 G
06
1B
b1111100000000000 n
b10000 1
b10000 O
b10000 k
b10000 1"
b0 ?
b0 F
b0 ""
b0 ("
b0 %"
1&"
1!
#465003
0!
#470003
b0 '
b0 D
b1101100 &
b1101100 4
b1101100 G
0&"
b100000 8
b100000 Z
b11100000 <
b11100000 V
b0 9
b0 Y
b0 =
b0 U
0B
1!
#475003
0!
#480003
1!
#485003
0!
#490003
1!
#495003
0!
#500003
1!
#505003
0!
#510003
1!
#515003
0!
#520003
15
1$"
b10 $
b10 2
1!
#525003
0!
#530003
05
b1111100 &
b1111100 4
b1111100 G
b101110 '
b101110 D
1'"
b1 A
b1 E
b11111111 (
b11111111 C
1!
#530004
b0 Q
b0 }
b0 S
b0 !"
b0 P
b0 |
b0 R
b0 ~
b1100 &
b1100 4
b1100 G
b0 '
b0 D
b0 p
b0 {
b0 r
b0 w
b0 d
b0 f
b0 u
b0 (
b0 C
b0 A
b0 E
0@
b0 8
b0 Z
b0 7
b0 [
b0 <
b0 V
b0 ;
b0 W
b0 n
b0 1
b0 O
b0 k
b0 1"
b0 b
b0 /
b0 M
b0 _
b0 0"
b0 -
b0 K
b0 i
b0 /"
b0 +
b0 I
b0 ]
b0 ."
0'"
b100 2"
0$"
1)
b0 %
b0 3
b0 )"
b0 $
b0 2
0"
0#
#535004
0!
#540004
b100 2"
1!
#545004
0!
#550004
0)
1#
b100 2"
1!
#555004
0!
#560004
16
1#"
b1 $
b1 2
b1001000 %
b1001000 3
b1001000 )"
1"
1!
#565004
0!
#570004
0#"
b0 $
b0 2
b10000000 Q
b10000000 }
b10000000 S
b10000000 !"
b1000000 P
b1000000 |
b1000000 R
b1000000 ~
b10000000 e
b10000000 g
b10000000 t
b1000000 d
b1000000 f
b1000000 u
b1011010 &
b1011010 4
b1011010 G
06
b10000000 *
b10000000 H
b10000000 \
b10000000 *"
b1000000 +
b1000000 I
b1000000 ]
b1000000 ."
b1 ?
b1 F
b1 ""
b1 ("
b1 %"
1&"
1!
#575004
0!
#580004
16
1#"
b1 $
b1 2
b11100101 %
b11100101 3
b11100101 )"
b1001000 '
b1001000 D
0&"
b10000000 8
b10000000 Z
b1000000 7
b1000000 [
b10000000 <
b10000000 V
b1000000 ;
b1000000 W
b10000000 :
b10000000 X
b1000000 9
b1000000 Y
b10000000 >
b10000000 T
b1000000 =
b1000000 U
1!
#585004
0!
#590004
0#"
b0 $
b0 2
b10010000 P
b10010000 |
b11110000 R
b11110000 ~
b10100000 Q
b10100000 }
b1100000 S
b1100000 !"
b1010000 q
b10100000000000 z
b1010000 s
b1010000 v
b11100000 p
b1000000000000 {
b11100000 r
b11100000 w
b1001110 &
b1001110 4
b1001110 G
06
b1010000 ,
b1010000 J
b1010000 h
b1010000 +"
b11100000 -
b11100000 K
b11100000 i
b11100000 /"
b10 ?
b10 F
b10 ""
b10 ("
b10 %"
1&"
1!
#595004
0!
#600004
16
1#"
b1 $
b1 2
b1011100 %
b1011100 3
b1011100 )"
b101101 '
b101101 D
0&"
b1100000 8
b1100000 Z
b11110000 7
b11110000 [
b10100000 <
b10100000 V
b10010000 ;
b10010000 W
b110000 :
b110000 X
b1100000 9
b1100000 Y
b11010000 >
b11010000 T
b100000 =
b100000 U
1!
#605004
0!
#610004
0#"
b0 $
b0 2
b1100000 Q
b1100000 }
b100000 S
b100000 !"
b11100000 P
b11100000 |
b1000000 R
b1000000 ~
b11000000 e
b1000000 g
b1000000 t
b11110000 d
b10010000 f
b10010000 u
b0 &
b0 4
b0 G
06
b10000000000000 c
b11000000 .
b11000000 L
b11000000 ^
b11000000 ,"
b1101100000000000 b
b1010000 /
b1010000 M
b1010000 _
b1010000 0"
b11 ?
b11 F
b11 ""
b11 ("
b11 %"
1&"
1!
#615004
0!
#620004
16
1#"
b1 $
b1 2
b1000010 %
b1000010 3
b1000010 )"
b11010001 '
b11010001 D
b1101100 &
b1101100 4
b1101100 G
0&"
b100000 8
b100000 Z
b1000000 7
b1000000 [
b1100000 <
b1100000 V
b11100000 ;
b11100000 W
b1110000 :
b1110000 X
b10000 9
b10000 Y
b10000 >
b10000 T
b11010000 =
b11010000 U
1@
1!
#625004
0!
#630004
0#"
b0 $
b0 2
b0 P
b0 |
b100000 R
b100000 ~
b100000 Q
b100000 }
b1100000 S
b1100000 !"
b110000 q
b11100000000000 z
b1110000 s
b1110000 v
b10100000 p
b1111000000000000 {
b100000 r
b100000 w
b111000 &
b111000 4
b111000 G
06
1B
b1111000000000000 o
b100000 0
b100000 N
b100000 j
b100000 -"
b1110000000000000 n
b1000000 1
b1000000 O
b1000000 k
b1000000 1"
b0 ?
b0 F
b0 ""
b0 ("
b0 %"
1&"
1!
#635004
0!
#640004
b10011111 '
b10011111 D
b1101100 &
b1101100 4
b1101100 G
0&"
b1100000 8
b1100000 Z
b100000 7
b100000 [
b100000 <
b100000 V
b0 ;
b0 W
b10010000 :
b10010000 X
b1010000 9
b1010000 Y
b11110000 >
b11110000 T
b10010000 =
b10010000 U
0B
1!
#645004
0!
#650004
1!
#655004
0!
#660004
1!
#665004
0!
#670004
1!
#675004
0!
#680004
1!
#685004
0!
#690004
15
1$"
b10 $
b10 2
1!
#695004
0!
#700004
05
b1111100 &
b1111100 4
b1111100 G
b10 '
b10 D
1'"
b1 A
b1 E
b11111111 (
b11111111 C
1!
