test/top_fft/wave/tt_um_FFT_engine_tb_20250707_19:40:26.vcd
$date
	Mon Jul  7 19:40:31 2025
$end
$version
	Icarus Verilog
$end
$timescale
	1ps
$end
$scope module tt_um_FFT_engine_tb $end
$var wire 1 ! clk $end
$var wire 1 " ena $end
$var wire 1 # rst_n $end
$var wire 8 $ ui_in [7:0] $end
$var wire 8 % uio_in [7:0] $end
$var wire 8 & uo_out [7:0] $end
$var wire 8 ' uio_out [7:0] $end
$var wire 8 ( uio_oe [7:0] $end
$scope module dut $end
$var wire 1 ! clk $end
$var wire 1 " ena $end
$var wire 1 ) rst $end
$var wire 1 # rst_n $end
$var wire 8 * sample0_imag [7:0] $end
$var wire 8 + sample0_real [7:0] $end
$var wire 8 , sample1_imag [7:0] $end
$var wire 8 - sample1_real [7:0] $end
$var wire 8 . sample2_imag [7:0] $end
$var wire 8 / sample2_real [7:0] $end
$var wire 8 0 sample3_imag [7:0] $end
$var wire 8 1 sample3_real [7:0] $end
$var wire 8 2 ui_in [7:0] $end
$var wire 8 3 uio_in [7:0] $end
$var wire 8 4 uo_out [7:0] $end
$var wire 8 5 uio_oe [7:0] $end
$var wire 1 6 output_pulse $end
$var wire 1 7 load_pulse $end
$var wire 8 8 fft3_real [7:0] $end
$var wire 8 9 fft3_imag [7:0] $end
$var wire 8 : fft2_real [7:0] $end
$var wire 8 ; fft2_imag [7:0] $end
$var wire 8 < fft1_real [7:0] $end
$var wire 8 = fft1_imag [7:0] $end
$var wire 8 > fft0_real [7:0] $end
$var wire 8 ? fft0_imag [7:0] $end
$var wire 2 @ addr [1:0] $end
$var reg 1 A done $end
$var reg 2 B output_counter [1:0] $end
$var reg 1 C processing $end
$var reg 1 D processing_dly $end
$var reg 8 E uio_out [7:0] $end
$scope module disp_inst $end
$var wire 1 A done $end
$var wire 2 F output_counter [1:0] $end
$var wire 1 C processing $end
$var wire 2 G sample_counter [1:0] $end
$var reg 8 H seg_out [7:0] $end
$upscope $end
$scope module fft_inst $end
$var wire 1 ! clk $end
$var wire 8 I in0_imag [7:0] $end
$var wire 8 J in0_real [7:0] $end
$var wire 8 K in1_imag [7:0] $end
$var wire 8 L in1_real [7:0] $end
$var wire 8 M in2_imag [7:0] $end
$var wire 8 N in2_real [7:0] $end
$var wire 8 O in3_imag [7:0] $end
$var wire 8 P in3_real [7:0] $end
$var wire 1 ) rst $end
$var wire 8 Q bfly_pos_real [7:0] $end
$var wire 8 R bfly_pos_imag [7:0] $end
$var wire 8 S bfly_neg_real [7:0] $end
$var wire 8 T bfly_neg_imag [7:0] $end
$var reg 8 U out0_imag [7:0] $end
$var reg 8 V out0_real [7:0] $end
$var reg 8 W out1_imag [7:0] $end
$var reg 8 X out1_real [7:0] $end
$var reg 8 Y out2_imag [7:0] $end
$var reg 8 Z out2_real [7:0] $end
$var reg 8 [ out3_imag [7:0] $end
$var reg 8 \ out3_real [7:0] $end
$scope module bfly_stage1_0 $end
$var wire 8 ] A_imag [7:0] $end
$var wire 8 ^ A_real [7:0] $end
$var wire 8 _ B_imag [7:0] $end
$var wire 8 ` B_real [7:0] $end
$var wire 8 a W_imag [7:0] $end
$var wire 8 b W_real [7:0] $end
$var wire 16 c product_real [15:0] $end
$var wire 16 d product_imag [15:0] $end
$var wire 8 e Pos_real [7:0] $end
$var wire 8 f Pos_imag [7:0] $end
$var wire 8 g Neg_real [7:0] $end
$var wire 8 h Neg_imag [7:0] $end
$upscope $end
$scope module bfly_stage1_1 $end
$var wire 8 i A_imag [7:0] $end
$var wire 8 j A_real [7:0] $end
$var wire 8 k B_imag [7:0] $end
$var wire 8 l B_real [7:0] $end
$var wire 8 m W_imag [7:0] $end
$var wire 8 n W_real [7:0] $end
$var wire 16 o product_real [15:0] $end
$var wire 16 p product_imag [15:0] $end
$var wire 8 q Pos_real [7:0] $end
$var wire 8 r Pos_imag [7:0] $end
$var wire 8 s Neg_real [7:0] $end
$var wire 8 t Neg_imag [7:0] $end
$upscope $end
$scope module bfly_stage2_1 $end
$var wire 8 u A_imag [7:0] $end
$var wire 8 v A_real [7:0] $end
$var wire 8 w B_imag [7:0] $end
$var wire 8 x B_real [7:0] $end
$var wire 8 y W_imag [7:0] $end
$var wire 8 z W_real [7:0] $end
$var wire 16 { product_real [15:0] $end
$var wire 16 | product_imag [15:0] $end
$var wire 8 } Pos_real [7:0] $end
$var wire 8 ~ Pos_imag [7:0] $end
$var wire 8 !" Neg_real [7:0] $end
$var wire 8 "" Neg_imag [7:0] $end
$upscope $end
$upscope $end
$scope module io_inst $end
$var wire 2 #" addr [1:0] $end
$var wire 1 ! clk $end
$var wire 1 " ena $end
$var wire 1 7 load_pulse $end
$var wire 1 6 output_pulse $end
$var wire 1 ) rst $end
$var wire 1 $" ui_in0 $end
$var wire 1 %" ui_in1 $end
$var reg 2 &" counter [1:0] $end
$var reg 1 '" prev_in0 $end
$var reg 1 (" prev_in1 $end
$upscope $end
$scope module mem_inst $end
$var wire 2 )" addr [1:0] $end
$var wire 1 ! clk $end
$var wire 8 *" data_in [7:0] $end
$var wire 1 " ena $end
$var wire 8 +" imag0_out [7:0] $end
$var wire 8 ," imag1_out [7:0] $end
$var wire 8 -" imag2_out [7:0] $end
$var wire 8 ." imag3_out [7:0] $end
$var wire 1 7 load_pulse $end
$var wire 8 /" real0_out [7:0] $end
$var wire 8 0" real1_out [7:0] $end
$var wire 8 1" real2_out [7:0] $end
$var wire 8 2" real3_out [7:0] $end
$var wire 1 ) rst $end
$var integer 32 3" i [31:0] $end
$upscope $end
$upscope $end
$upscope $end
$enddefinitions $end
#0
$dumpvars
b100 3"
b0 2"
b0 1"
b0 0"
b0 /"
b0 ."
b0 -"
b0 ,"
b0 +"
b0 *"
b0 )"
0("
0'"
b0 &"
0%"
0$"
b0 #"
b0 ""
b0 !"
b0 ~
b0 }
b0 |
b0 {
b0 z
b10000000 y
b0 x
b0 w
b0 v
b0 u
b0 t
b0 s
b0 r
b0 q
b0 p
b0 o
b10000000 n
b0 m
b0 l
b0 k
b0 j
b0 i
b0 h
b0 g
b0 f
b0 e
b0 d
b0 c
b10000000 b
b0 a
b0 `
b0 _
b0 ^
b0 ]
b0 \
b0 [
b0 Z
b0 Y
b0 X
b0 W
b0 V
b0 U
b0 T
b0 S
b0 R
b0 Q
b0 P
b0 O
b0 N
b0 M
b0 L
b0 K
b0 J
b0 I
b1100 H
b0 G
b0 F
b0 E
0D
0C
b0 B
0A
b0 @
b0 ?
b0 >
b0 =
b0 <
b0 ;
b0 :
b0 9
b0 8
07
06
b0 5
b1100 4
b0 3
b0 2
b0 1
b0 0
b0 /
b0 .
b0 -
b0 ,
b0 +
b0 *
1)
b0 (
b0 '
b1100 &
b0 %
b0 $
0#
0"
1!
$end
#5000
0!
#10000
0)
1#
b100 3"
1!
#15000
0!
#20000
1!
#20001
b100 3"
1)
0#
#25001
0!
#30001
b100 3"
1!
#35001
0!
#40001
0)
1#
b100 3"
1!
#45001
0!
#50001
17
1$"
b1 $
b1 2
b10010 %
b10010 3
b10010 *"
1"
1!
#55001
0!
#60001
0$"
b0 $
b0 2
b100000 R
b100000 ~
b100000 T
b100000 ""
b10000 Q
b10000 }
b10000 S
b10000 !"
b100000 f
b100000 h
b100000 u
b10000 e
b10000 g
b10000 v
b1011010 &
b1011010 4
b1011010 H
07
b100000 *
b100000 I
b100000 ]
b100000 +"
b10000 +
b10000 J
b10000 ^
b10000 /"
b1 @
b1 G
b1 #"
b1 )"
b1 &"
1'"
1!
#65001
0!
#70001
17
1$"
b1 $
b1 2
b11011100 %
b11011100 3
b11011100 *"
b10010 '
b10010 E
0'"
b100000 9
b100000 [
b10000 8
b10000 \
b100000 =
b100000 W
b10000 <
b10000 X
b100000 ;
b100000 Y
b10000 :
b10000 Z
b100000 ?
b100000 U
b10000 >
b10000 V
1!
#75001
0!
#80001
0$"
b0 $
b0 2
b11010000 Q
b11010000 }
b1010000 S
b1010000 !"
b1010000 R
b1010000 ~
b11110000 T
b11110000 ""
b11000000 r
b1110000000000000 {
b11000000 t
b11000000 w
b11010000 q
b1100000000000 |
b11010000 s
b11010000 x
b1001110 &
b1001110 4
b1001110 H
07
b11000000 ,
b11000000 K
b11000000 i
b11000000 ,"
b11010000 -
b11010000 L
b11010000 j
b11010000 0"
b10 @
b10 G
b10 #"
b10 )"
b10 &"
1'"
1!
#85001
0!
#90001
17
1$"
b1 $
b1 2
b1011010 %
b1011010 3
b1011010 *"
b11101110 '
b11101110 E
0'"
b11110000 9
b11110000 [
b1010000 8
b1010000 \
b1010000 =
b1010000 W
b11010000 <
b11010000 X
b1100000 ;
b1100000 Y
b1000000 :
b1000000 Z
b11100000 ?
b11100000 U
b11100000 >
b11100000 V
1!
#95001
0!
#100001
0$"
b0 $
b0 2
b11110000 R
b11110000 ~
b10010000 T
b10010000 ""
b100000 Q
b100000 }
b10100000 S
b10100000 !"
b10000000 f
b11000000 h
b11000000 u
b11000000 e
b1100000 g
b1100000 v
b0 &
b0 4
b0 H
07
b11000000000000 d
b10100000 .
b10100000 M
b10100000 _
b10100000 -"
b1101100000000000 c
b1010000 /
b1010000 N
b1010000 `
b1010000 1"
b11 @
b11 G
b11 #"
b11 )"
b11 &"
1'"
1!
#105001
0!
#110001
17
1$"
b1 $
b1 2
b10010111 %
b10010111 3
b10010111 *"
b10010100 '
b10010100 E
0'"
b10010000 9
b10010000 [
b10100000 8
b10100000 \
b11110000 =
b11110000 W
b100000 <
b100000 X
b11000000 ;
b11000000 Y
b11110000 :
b11110000 Z
b1000000 ?
b1000000 U
b10010000 >
b10010000 V
1!
#115001
0!
#120001
0$"
b0 $
b0 2
b10010000 Q
b10010000 }
b110000 S
b110000 !"
b1100000 R
b1100000 ~
b100000 T
b100000 ""
b1010000 r
b1100000000000 {
b110000 t
b110000 w
b1000000 q
b1101000000000000 |
b1100000 s
b1100000 x
b111000 &
b111000 4
b111000 H
07
1C
b1100100000000000 p
b1110000 0
b1110000 O
b1110000 k
b1110000 ."
b11100000000000 o
b10010000 1
b10010000 P
b10010000 l
b10010000 2"
b0 @
b0 G
b0 #"
b0 )"
b0 &"
1'"
1!
#125001
0!
#130001
b1101 '
b1101 E
b1100 &
b1100 4
b1100 H
0'"
b100000 9
b100000 [
b110000 8
b110000 \
b1100000 =
b1100000 W
b10010000 <
b10010000 X
b110000 ;
b110000 Y
b10000000 :
b10000000 Z
b11010000 ?
b11010000 U
b0 >
b0 V
0C
1D
1!
#130002
b0 R
b0 ~
b0 T
b0 ""
b0 Q
b0 }
b0 S
b0 !"
b0 '
b0 E
b0 r
b0 {
b0 t
b0 w
b0 q
b0 |
b0 s
b0 x
b0 f
b0 h
b0 u
b0 e
b0 g
b0 v
0D
b0 9
b0 [
b0 8
b0 \
b0 ;
b0 Y
b0 :
b0 Z
b0 =
b0 W
b0 <
b0 X
b0 ?
b0 U
b0 p
b0 0
b0 O
b0 k
b0 ."
b0 o
b0 1
b0 P
b0 l
b0 2"
b0 d
b0 .
b0 M
b0 _
b0 -"
b0 c
b0 /
b0 N
b0 `
b0 1"
b0 ,
b0 K
b0 i
b0 ,"
b0 -
b0 L
b0 j
b0 0"
b0 *
b0 I
b0 ]
b0 +"
b0 +
b0 J
b0 ^
b0 /"
b100 3"
1)
b0 %
b0 3
b0 *"
0"
0#
#135002
0!
#140002
b100 3"
1!
#145002
0!
#150002
0)
1#
b100 3"
1!
#155002
0!
#160002
17
1$"
b1 $
b1 2
b10000 %
b10000 3
b10000 *"
1"
1!
#165002
0!
#170002
0$"
b0 $
b0 2
b10000 Q
b10000 }
b10000 S
b10000 !"
b10000 e
b10000 g
b10000 v
b1011010 &
b1011010 4
b1011010 H
07
b10000 +
b10000 J
b10000 ^
b10000 /"
b1 @
b1 G
b1 #"
b1 )"
b1 &"
1'"
1!
#175002
0!
#180002
17
1$"
b1 $
b1 2
b0 %
b0 3
b0 *"
b10000 '
b10000 E
0'"
b10000 8
b10000 \
b10000 <
b10000 X
b10000 :
b10000 Z
b10000 >
b10000 V
1!
#185002
0!
#190002
0$"
b0 $
b0 2
b1001110 &
b1001110 4
b1001110 H
07
b10 @
b10 G
b10 #"
b10 )"
b10 &"
1'"
1!
#195002
0!
#200002
17
1$"
b1 $
b1 2
0'"
1!
#205002
0!
#210002
0$"
b0 $
b0 2
b0 &
b0 4
b0 H
07
b11 @
b11 G
b11 #"
b11 )"
b11 &"
1'"
1!
#215002
0!
#220002
17
1$"
b1 $
b1 2
0'"
1!
#225002
0!
#230002
0$"
b0 $
b0 2
b111000 &
b111000 4
b111000 H
07
1C
b0 @
b0 G
b0 #"
b0 )"
b0 &"
1'"
1!
#235002
0!
#240002
b1100 &
b1100 4
b1100 H
0'"
0C
1D
1!
#240003
b0 Q
b0 }
b0 S
b0 !"
b0 '
b0 E
b0 e
b0 g
b0 v
0D
b0 8
b0 \
b0 :
b0 Z
b0 <
b0 X
b0 >
b0 V
b0 +
b0 J
b0 ^
b0 /"
b100 3"
1)
0"
0#
#245003
0!
#250003
b100 3"
1!
#255003
0!
#260003
0)
1#
b100 3"
1!
#265003
0!
#270003
17
1$"
b1 $
b1 2
b10000 %
b10000 3
b10000 *"
1"
1!
#275003
0!
#280003
0$"
b0 $
b0 2
b10000 Q
b10000 }
b10000 S
b10000 !"
b10000 e
b10000 g
b10000 v
b1011010 &
b1011010 4
b1011010 H
07
b10000 +
b10000 J
b10000 ^
b10000 /"
b1 @
b1 G
b1 #"
b1 )"
b1 &"
1'"
1!
#285003
0!
#290003
17
1$"
b1 $
b1 2
b10000 '
b10000 E
0'"
b10000 8
b10000 \
b10000 <
b10000 X
b10000 :
b10000 Z
b10000 >
b10000 V
1!
#295003
0!
#300003
0$"
b0 $
b0 2
b11110000 R
b11110000 ~
b10000 T
b10000 ""
b10000 q
b1111100000000000 |
b10000 s
b10000 x
b1001110 &
b1001110 4
b1001110 H
07
b10000 -
b10000 L
b10000 j
b10000 0"
b10 @
b10 G
b10 #"
b10 )"
b10 &"
1'"
1!
#305003
0!
#310003
17
1$"
b1 $
b1 2
b100000 '
b100000 E
0'"
b10000 9
b10000 [
b11110000 =
b11110000 W
b0 :
b0 Z
b100000 >
b100000 V
1!
#315003
0!
#320003
0$"
b0 $
b0 2
b100000 Q
b100000 }
b100000 S
b100000 !"
b0 e
b100000 g
b100000 v
b0 &
b0 4
b0 H
07
b1111100000000000 c
b10000 /
b10000 N
b10000 `
b10000 1"
b11 @
b11 G
b11 #"
b11 )"
b11 &"
1'"
1!
#325003
0!
#330003
17
1$"
b1 $
b1 2
b10000 '
b10000 E
0'"
b100000 8
b100000 \
b100000 <
b100000 X
b11110000 :
b11110000 Z
b10000 >
b10000 V
1!
#335003
0!
#340003
0$"
b0 $
b0 2
b11100000 R
b11100000 ~
b100000 T
b100000 ""
b0 q
b1111000000000000 |
b100000 s
b100000 x
b111000 &
b111000 4
b111000 H
07
1C
b1111100000000000 o
b10000 1
b10000 P
b10000 l
b10000 2"
b0 @
b0 G
b0 #"
b0 )"
b0 &"
1'"
1!
#345003
0!
#350003
b0 '
b0 E
b1100 &
b1100 4
b1100 H
0'"
b100000 9
b100000 [
b11100000 =
b11100000 W
b0 :
b0 Z
b0 >
b0 V
0C
1D
1!
#350004
b0 R
b0 ~
b0 T
b0 ""
b0 Q
b0 }
b0 S
b0 !"
b0 q
b0 |
b0 s
b0 x
b0 e
b0 g
b0 v
0D
b0 9
b0 [
b0 8
b0 \
b0 =
b0 W
b0 <
b0 X
b0 o
b0 1
b0 P
b0 l
b0 2"
b0 c
b0 /
b0 N
b0 `
b0 1"
b0 -
b0 L
b0 j
b0 0"
b0 +
b0 J
b0 ^
b0 /"
b100 3"
1)
b0 %
b0 3
b0 *"
0"
0#
#355004
0!
#360004
b100 3"
1!
#365004
0!
#370004
0)
1#
b100 3"
1!
#375004
0!
#380004
17
1$"
b1 $
b1 2
b11100110 %
b11100110 3
b11100110 *"
1"
1!
#385004
0!
#390004
0$"
b0 $
b0 2
b1100000 R
b1100000 ~
b1100000 T
b1100000 ""
b11100000 Q
b11100000 }
b11100000 S
b11100000 !"
b1100000 f
b1100000 h
b1100000 u
b11100000 e
b11100000 g
b11100000 v
b1011010 &
b1011010 4
b1011010 H
07
b1100000 *
b1100000 I
b1100000 ]
b1100000 +"
b11100000 +
b11100000 J
b11100000 ^
b11100000 /"
b1 @
b1 G
b1 #"
b1 )"
b1 &"
1'"
1!
#395004
0!
#400004
17
1$"
b1 $
b1 2
b1101101 %
b1101101 3
b1101101 *"
b11100110 '
b11100110 E
0'"
b1100000 9
b1100000 [
b11100000 8
b11100000 \
b1100000 =
b1100000 W
b11100000 <
b11100000 X
b1100000 ;
b1100000 Y
b11100000 :
b11100000 Z
b1100000 ?
b1100000 U
b11100000 >
b11100000 V
1!
#405004
0!
#410004
0$"
b0 $
b0 2
b10110000 Q
b10110000 }
b10000 S
b10000 !"
b0 R
b0 ~
b11000000 T
b11000000 ""
b11010000 r
b1110100000000000 {
b11010000 t
b11010000 w
b1100000 q
b1101000000000000 |
b1100000 s
b1100000 x
b1001110 &
b1001110 4
b1001110 H
07
b11010000 ,
b11010000 K
b11010000 i
b11010000 ,"
b1100000 -
b1100000 L
b1100000 j
b1100000 0"
b10 @
b10 G
b10 #"
b10 )"
b10 &"
1'"
1!
#415004
0!
#420004
17
1$"
b1 $
b1 2
b1010110 %
b1010110 3
b1010110 *"
b1000011 '
b1000011 E
0'"
b11000000 9
b11000000 [
b10000 8
b10000 \
b0 =
b0 W
b10110000 <
b10110000 X
b10010000 ;
b10010000 Y
b10000000 :
b10000000 Z
b110000 ?
b110000 U
b1000000 >
b1000000 V
1!
#425004
0!
#430004
0$"
b0 $
b0 2
b1100000 R
b1100000 ~
b100000 T
b100000 ""
b0 Q
b0 }
b1100000 S
b1100000 !"
b0 f
b11000000 h
b11000000 u
b10010000 e
b110000 g
b110000 v
b0 &
b0 4
b0 H
07
b1101000000000000 d
b1100000 .
b1100000 M
b1100000 _
b1100000 -"
b1101100000000000 c
b1010000 /
b1010000 N
b1010000 `
b1010000 1"
b11 @
b11 G
b11 #"
b11 )"
b11 &"
1'"
1!
#435004
0!
#440004
17
1$"
b1 $
b1 2
b100101 %
b100101 3
b100101 *"
b11111101 '
b11111101 E
0'"
b100000 9
b100000 [
b1100000 8
b1100000 \
b1100000 =
b1100000 W
b0 <
b0 X
b110000 ;
b110000 Y
b110000 :
b110000 Z
b11010000 ?
b11010000 U
b11110000 >
b11110000 V
1!
#445004
0!
#450004
0$"
b0 $
b0 2
b1010000 Q
b1010000 }
b10000 S
b10000 !"
b1000000 R
b1000000 ~
b1000000 T
b1000000 ""
b10000000 r
b1000000000000 {
b100000 t
b100000 w
b1000000 q
b100000000000000 |
b10000000 s
b10000000 x
b111000 &
b111000 4
b111000 H
07
1C
b1101100000000000 p
b1010000 0
b1010000 O
b1010000 k
b1010000 ."
b1111000000000000 o
b100000 1
b100000 P
b100000 l
b100000 2"
b0 @
b0 G
b0 #"
b0 )"
b0 &"
1'"
1!
#455004
0!
#460004
b11011000 '
b11011000 E
b1100 &
b1100 4
b1100 H
0'"
b1000000 9
b1000000 [
b10000 8
b10000 \
b1000000 =
b1000000 W
b1010000 <
b1010000 X
b10000000 ;
b10000000 Y
b1010000 :
b1010000 Z
b10000000 ?
b10000000 U
b11010000 >
b11010000 V
0C
1D
1!
