test/top_fft/wave/tt_um_FFT_engine_tb_20250707_19:42:38.vcd
$date
	Mon Jul  7 19:42:43 2025
$end
$version
	Icarus Verilog
$end
$timescale
	1ps
$end
$scope module tt_um_FFT_engine_tb $end
$var wire 1 ! clk $end
$var wire 1 " ena $end
$var wire 1 # rst_n $end
$var wire 8 $ ui_in [7:0] $end
$var wire 8 % uio_in [7:0] $end
$var wire 8 & uo_out [7:0] $end
$var wire 8 ' uio_out [7:0] $end
$var wire 8 ( uio_oe [7:0] $end
$scope module dut $end
$var wire 1 ! clk $end
$var wire 1 " ena $end
$var wire 1 ) rst $end
$var wire 1 # rst_n $end
$var wire 8 * sample0_imag [7:0] $end
$var wire 8 + sample0_real [7:0] $end
$var wire 8 , sample1_imag [7:0] $end
$var wire 8 - sample1_real [7:0] $end
$var wire 8 . sample2_imag [7:0] $end
$var wire 8 / sample2_real [7:0] $end
$var wire 8 0 sample3_imag [7:0] $end
$var wire 8 1 sample3_real [7:0] $end
$var wire 8 2 ui_in [7:0] $end
$var wire 8 3 uio_in [7:0] $end
$var wire 8 4 uo_out [7:0] $end
$var wire 8 5 uio_oe [7:0] $end
$var wire 1 6 output_pulse $end
$var wire 1 7 load_pulse $end
$var wire 8 8 fft3_real [7:0] $end
$var wire 8 9 fft3_imag [7:0] $end
$var wire 8 : fft2_real [7:0] $end
$var wire 8 ; fft2_imag [7:0] $end
$var wire 8 < fft1_real [7:0] $end
$var wire 8 = fft1_imag [7:0] $end
$var wire 8 > fft0_real [7:0] $end
$var wire 8 ? fft0_imag [7:0] $end
$var wire 2 @ addr [1:0] $end
$var reg 1 A done $end
$var reg 2 B output_counter [1:0] $end
$var reg 1 C processing $end
$var reg 1 D processing_dly $end
$var reg 8 E uio_out [7:0] $end
$scope module disp_inst $end
$var wire 1 A done $end
$var wire 2 F output_counter [1:0] $end
$var wire 1 C processing $end
$var wire 2 G sample_counter [1:0] $end
$var reg 8 H seg_out [7:0] $end
$upscope $end
$scope module fft_inst $end
$var wire 1 ! clk $end
$var wire 8 I in0_imag [7:0] $end
$var wire 8 J in0_real [7:0] $end
$var wire 8 K in1_imag [7:0] $end
$var wire 8 L in1_real [7:0] $end
$var wire 8 M in2_imag [7:0] $end
$var wire 8 N in2_real [7:0] $end
$var wire 8 O in3_imag [7:0] $end
$var wire 8 P in3_real [7:0] $end
$var wire 1 ) rst $end
$var wire 8 Q bfly_pos_real [7:0] $end
$var wire 8 R bfly_pos_imag [7:0] $end
$var wire 8 S bfly_neg_real [7:0] $end
$var wire 8 T bfly_neg_imag [7:0] $end
$var reg 8 U out0_imag [7:0] $end
$var reg 8 V out0_real [7:0] $end
$var reg 8 W out1_imag [7:0] $end
$var reg 8 X out1_real [7:0] $end
$var reg 8 Y out2_imag [7:0] $end
$var reg 8 Z out2_real [7:0] $end
$var reg 8 [ out3_imag [7:0] $end
$var reg 8 \ out3_real [7:0] $end
$scope module bfly_stage1_0 $end
$var wire 8 ] A_imag [7:0] $end
$var wire 8 ^ A_real [7:0] $end
$var wire 8 _ B_imag [7:0] $end
$var wire 8 ` B_real [7:0] $end
$var wire 8 a W_imag [7:0] $end
$var wire 8 b W_real [7:0] $end
$var wire 16 c product_real [15:0] $end
$var wire 16 d product_imag [15:0] $end
$var wire 8 e Pos_real [7:0] $end
$var wire 8 f Pos_imag [7:0] $end
$var wire 8 g Neg_real [7:0] $end
$var wire 8 h Neg_imag [7:0] $end
$upscope $end
$scope module bfly_stage1_1 $end
$var wire 8 i A_imag [7:0] $end
$var wire 8 j A_real [7:0] $end
$var wire 8 k B_imag [7:0] $end
$var wire 8 l B_real [7:0] $end
$var wire 8 m W_imag [7:0] $end
$var wire 8 n W_real [7:0] $end
$var wire 16 o product_real [15:0] $end
$var wire 16 p product_imag [15:0] $end
$var wire 8 q Pos_real [7:0] $end
$var wire 8 r Pos_imag [7:0] $end
$var wire 8 s Neg_real [7:0] $end
$var wire 8 t Neg_imag [7:0] $end
$upscope $end
$scope module bfly_stage2_1 $end
$var wire 8 u A_imag [7:0] $end
$var wire 8 v A_real [7:0] $end
$var wire 8 w B_imag [7:0] $end
$var wire 8 x B_real [7:0] $end
$var wire 8 y W_imag [7:0] $end
$var wire 8 z W_real [7:0] $end
$var wire 16 { product_real [15:0] $end
$var wire 16 | product_imag [15:0] $end
$var wire 8 } Pos_real [7:0] $end
$var wire 8 ~ Pos_imag [7:0] $end
$var wire 8 !" Neg_real [7:0] $end
$var wire 8 "" Neg_imag [7:0] $end
$upscope $end
$upscope $end
$scope module io_inst $end
$var wire 2 #" addr [1:0] $end
$var wire 1 ! clk $end
$var wire 1 " ena $end
$var wire 1 7 load_pulse $end
$var wire 1 6 output_pulse $end
$var wire 1 ) rst $end
$var wire 1 $" ui_in0 $end
$var wire 1 %" ui_in1 $end
$var reg 2 &" counter [1:0] $end
$var reg 1 '" prev_in0 $end
$var reg 1 (" prev_in1 $end
$upscope $end
$scope module mem_inst $end
$var wire 2 )" addr [1:0] $end
$var wire 1 ! clk $end
$var wire 8 *" data_in [7:0] $end
$var wire 1 " ena $end
$var wire 8 +" imag0_out [7:0] $end
$var wire 8 ," imag1_out [7:0] $end
$var wire 8 -" imag2_out [7:0] $end
$var wire 8 ." imag3_out [7:0] $end
$var wire 1 7 load_pulse $end
$var wire 8 /" real0_out [7:0] $end
$var wire 8 0" real1_out [7:0] $end
$var wire 8 1" real2_out [7:0] $end
$var wire 8 2" real3_out [7:0] $end
$var wire 1 ) rst $end
$var integer 32 3" i [31:0] $end
$upscope $end
$upscope $end
$upscope $end
$enddefinitions $end
#0
$dumpvars
b100 3"
b0 2"
b0 1"
b0 0"
b0 /"
b0 ."
b0 -"
b0 ,"
b0 +"
b0 *"
b0 )"
0("
0'"
b0 &"
0%"
0$"
b0 #"
b0 ""
b0 !"
b0 ~
b0 }
b0 |
b0 {
b0 z
b10000000 y
b0 x
b0 w
b0 v
b0 u
b0 t
b0 s
b0 r
b0 q
b0 p
b0 o
b10000000 n
b0 m
b0 l
b0 k
b0 j
b0 i
b0 h
b0 g
b0 f
b0 e
b0 d
b0 c
b10000000 b
b0 a
b0 `
b0 _
b0 ^
b0 ]
b0 \
b0 [
b0 Z
b0 Y
b0 X
b0 W
b0 V
b0 U
b0 T
b0 S
b0 R
b0 Q
b0 P
b0 O
b0 N
b0 M
b0 L
b0 K
b0 J
b0 I
b1100 H
b0 G
b0 F
b0 E
0D
0C
b0 B
0A
b0 @
b0 ?
b0 >
b0 =
b0 <
b0 ;
b0 :
b0 9
b0 8
07
06
b0 5
b1100 4
b0 3
b0 2
b0 1
b0 0
b0 /
b0 .
b0 -
b0 ,
b0 +
b0 *
1)
b0 (
b0 '
b1100 &
b0 %
b0 $
0#
0"
1!
$end
#5000
0!
#10000
0)
1#
b100 3"
1!
#15000
0!
#20000
1!
#20001
b100 3"
1)
0#
#25001
0!
#30001
b100 3"
1!
#35001
0!
#40001
0)
1#
b100 3"
1!
#45001
0!
#50001
17
1$"
b1 $
b1 2
b10010 %
b10010 3
b10010 *"
1"
1!
#55001
0!
#60001
0$"
b0 $
b0 2
b100000 R
b100000 ~
b100000 T
b100000 ""
b10000 Q
b10000 }
b10000 S
b10000 !"
b100000 f
b100000 h
b100000 u
b10000 e
b10000 g
b10000 v
b1011010 &
b1011010 4
b1011010 H
07
b100000 *
b100000 I
b100000 ]
b100000 +"
b10000 +
b10000 J
b10000 ^
b10000 /"
b1 @
b1 G
b1 #"
b1 )"
b1 &"
1'"
1!
#65001
0!
#70001
17
1$"
b1 $
b1 2
b11011100 %
b11011100 3
b11011100 *"
b10010 '
b10010 E
0'"
b100000 9
b100000 [
b10000 8
b10000 \
b100000 =
b100000 W
b10000 <
b10000 X
b100000 ;
b100000 Y
b10000 :
b10000 Z
b100000 ?
b100000 U
b10000 >
b10000 V
1!
#75001
0!
#80001
0$"
b0 $
b0 2
b11010000 Q
b11010000 }
b1010000 S
b1010000 !"
b1010000 R
b1010000 ~
b11110000 T
b11110000 ""
b11000000 r
b1110000000000000 {
b11000000 t
b11000000 w
b11010000 q
b1100000000000 |
b11010000 s
b11010000 x
b1001110 &
b1001110 4
b1001110 H
07
b11000000 ,
b11000000 K
b11000000 i
b11000000 ,"
b11010000 -
b11010000 L
b11010000 j
b11010000 0"
b10 @
b10 G
b10 #"
b10 )"
b10 &"
1'"
1!
#85001
0!
#90001
17
1$"
b1 $
b1 2
b1011010 %
b1011010 3
b1011010 *"
b11101110 '
b11101110 E
0'"
b11110000 9
b11110000 [
b1010000 8
b1010000 \
b1010000 =
b1010000 W
b11010000 <
b11010000 X
b1100000 ;
b1100000 Y
b1000000 :
b1000000 Z
b11100000 ?
b11100000 U
b11100000 >
b11100000 V
1!
#95001
0!
#100001
0$"
b0 $
b0 2
b11110000 R
b11110000 ~
b10010000 T
b10010000 ""
b100000 Q
b100000 }
b10100000 S
b10100000 !"
b10000000 f
b11000000 h
b11000000 u
b11000000 e
b1100000 g
b1100000 v
b0 &
b0 4
b0 H
07
b11000000000000 d
b10100000 .
b10100000 M
b10100000 _
b10100000 -"
b1101100000000000 c
b1010000 /
b1010000 N
b1010000 `
b1010000 1"
b11 @
b11 G
b11 #"
b11 )"
b11 &"
1'"
1!
#105001
0!
#110001
17
1$"
b1 $
b1 2
b10010111 %
b10010111 3
b10010111 *"
b10010100 '
b10010100 E
0'"
b10010000 9
b10010000 [
b10100000 8
b10100000 \
b11110000 =
b11110000 W
b100000 <
b100000 X
b11000000 ;
b11000000 Y
b11110000 :
b11110000 Z
b1000000 ?
b1000000 U
b10010000 >
b10010000 V
1!
#115001
0!
#120001
0$"
b0 $
b0 2
b10010000 Q
b10010000 }
b110000 S
b110000 !"
b1100000 R
b1100000 ~
b100000 T
b100000 ""
b1010000 r
b1100000000000 {
b110000 t
b110000 w
b1000000 q
b1101000000000000 |
b1100000 s
b1100000 x
b111000 &
b111000 4
b111000 H
07
1C
b1100100000000000 p
b1110000 0
b1110000 O
b1110000 k
b1110000 ."
b11100000000000 o
b10010000 1
b10010000 P
b10010000 l
b10010000 2"
b0 @
b0 G
b0 #"
b0 )"
b0 &"
1'"
1!
#125001
0!
#130001
b1101 '
b1101 E
b1100 &
b1100 4
b1100 H
0'"
b100000 9
b100000 [
b110000 8
b110000 \
b1100000 =
b1100000 W
b10010000 <
b10010000 X
b110000 ;
b110000 Y
b10000000 :
b10000000 Z
b11010000 ?
b11010000 U
b0 >
b0 V
0C
1D
1!
#135001
0!
#140001
b1101100 &
b1101100 4
b1101100 H
1A
0D
1!
#145001
0!
#150001
b11111111 (
b11111111 5
16
1%"
b10 $
b10 2
1!
#155001
0!
#160001
0%"
b0 $
b0 2
b0 (
b0 5
b1111100 &
b1111100 4
b1111100 H
b10010110 '
b10010110 E
06
b1 B
b1 F
1("
1!
#165001
0!
#170001
b11111111 (
b11111111 5
16
1%"
b10 $
b10 2
0("
1!
#175001
0!
#180001
0%"
b0 $
b0 2
b0 (
b0 5
b1110 &
b1110 4
b1110 H
b10000011 '
b10000011 E
06
b10 B
b10 F
1("
1!
#185001
0!
#190001
b11111111 (
b11111111 5
16
1%"
b10 $
b10 2
0("
1!
#195001
0!
#200001
0%"
b0 $
b0 2
b0 (
b0 5
b1101100 &
b1101100 4
b1101100 H
b110010 '
b110010 E
06
b11 B
b11 F
1("
1!
#205001
0!
#210001
b11111111 (
b11111111 5
16
1%"
b10 $
b10 2
0("
1!
#215001
0!
#220001
0%"
b0 $
b0 2
b0 (
b0 5
b1101 '
b1101 E
b1100 &
b1100 4
b1100 H
06
b0 B
b0 F
0A
1("
1!
#225001
0!
#230001
0("
1!
#230002
b0 R
b0 ~
b0 T
b0 ""
b0 Q
b0 }
b0 S
b0 !"
b0 '
b0 E
b0 r
b0 {
b0 t
b0 w
b0 q
b0 |
b0 s
b0 x
b0 f
b0 h
b0 u
b0 e
b0 g
b0 v
b0 9
b0 [
b0 8
b0 \
b0 ;
b0 Y
b0 :
b0 Z
b0 =
b0 W
b0 <
b0 X
b0 ?
b0 U
b0 p
b0 0
b0 O
b0 k
b0 ."
b0 o
b0 1
b0 P
b0 l
b0 2"
b0 d
b0 .
b0 M
b0 _
b0 -"
b0 c
b0 /
b0 N
b0 `
b0 1"
b0 ,
b0 K
b0 i
b0 ,"
b0 -
b0 L
b0 j
b0 0"
b0 *
b0 I
b0 ]
b0 +"
b0 +
b0 J
b0 ^
b0 /"
b100 3"
1)
b0 %
b0 3
b0 *"
0"
0#
#235002
0!
#240002
b100 3"
1!
#245002
0!
#250002
0)
1#
b100 3"
1!
#255002
0!
#260002
17
1$"
b1 $
b1 2
b10000 %
b10000 3
b10000 *"
1"
1!
#265002
0!
#270002
0$"
b0 $
b0 2
b10000 Q
b10000 }
b10000 S
b10000 !"
b10000 e
b10000 g
b10000 v
b1011010 &
b1011010 4
b1011010 H
07
b10000 +
b10000 J
b10000 ^
b10000 /"
b1 @
b1 G
b1 #"
b1 )"
b1 &"
1'"
1!
#275002
0!
#280002
17
1$"
b1 $
b1 2
b0 %
b0 3
b0 *"
b10000 '
b10000 E
0'"
b10000 8
b10000 \
b10000 <
b10000 X
b10000 :
b10000 Z
b10000 >
b10000 V
1!
#285002
0!
#290002
0$"
b0 $
b0 2
b1001110 &
b1001110 4
b1001110 H
07
b10 @
b10 G
b10 #"
b10 )"
b10 &"
1'"
1!
#295002
0!
#300002
17
1$"
b1 $
b1 2
0'"
1!
#305002
0!
#310002
0$"
b0 $
b0 2
b0 &
b0 4
b0 H
07
b11 @
b11 G
b11 #"
b11 )"
b11 &"
1'"
1!
#315002
0!
#320002
17
1$"
b1 $
b1 2
0'"
1!
#325002
0!
#330002
0$"
b0 $
b0 2
b111000 &
b111000 4
b111000 H
07
1C
b0 @
b0 G
b0 #"
b0 )"
b0 &"
1'"
1!
#335002
0!
#340002
b1100 &
b1100 4
b1100 H
0'"
0C
1D
1!
#345002
0!
#350002
b1101100 &
b1101100 4
b1101100 H
1A
0D
1!
#355002
0!
#360002
b11111111 (
b11111111 5
16
1%"
b10 $
b10 2
1!
#365002
0!
#370002
0%"
b0 $
b0 2
b0 (
b0 5
b1111100 &
b1111100 4
b1111100 H
06
b1 B
b1 F
1("
1!
#375002
0!
#380002
b11111111 (
b11111111 5
16
1%"
b10 $
b10 2
0("
1!
#385002
0!
#390002
0%"
b0 $
b0 2
b0 (
b0 5
b1110 &
b1110 4
b1110 H
06
b10 B
b10 F
1("
1!
#395002
0!
#400002
b11111111 (
b11111111 5
16
1%"
b10 $
b10 2
0("
1!
#405002
0!
#410002
0%"
b0 $
b0 2
b0 (
b0 5
b1101100 &
b1101100 4
b1101100 H
06
b11 B
b11 F
1("
1!
#415002
0!
#420002
b11111111 (
b11111111 5
16
1%"
b10 $
b10 2
0("
1!
#425002
0!
#430002
0%"
b0 $
b0 2
b0 (
b0 5
b1100 &
b1100 4
b1100 H
06
b0 B
b0 F
0A
1("
1!
#435002
0!
#440002
0("
1!
#440003
b0 Q
b0 }
b0 S
b0 !"
b0 '
b0 E
b0 e
b0 g
b0 v
b0 8
b0 \
b0 :
b0 Z
b0 <
b0 X
b0 >
b0 V
b0 +
b0 J
b0 ^
b0 /"
b100 3"
1)
0"
0#
#445003
0!
#450003
b100 3"
1!
#455003
0!
#460003
0)
1#
b100 3"
1!
#465003
0!
#470003
17
1$"
b1 $
b1 2
b10000 %
b10000 3
b10000 *"
1"
1!
#475003
0!
#480003
0$"
b0 $
b0 2
b10000 Q
b10000 }
b10000 S
b10000 !"
b10000 e
b10000 g
b10000 v
b1011010 &
b1011010 4
b1011010 H
07
b10000 +
b10000 J
b10000 ^
b10000 /"
b1 @
b1 G
b1 #"
b1 )"
b1 &"
1'"
1!
#485003
0!
#490003
17
1$"
b1 $
b1 2
b10000 '
b10000 E
0'"
b10000 8
b10000 \
b10000 <
b10000 X
b10000 :
b10000 Z
b10000 >
b10000 V
1!
#495003
0!
#500003
0$"
b0 $
b0 2
b11110000 R
b11110000 ~
b10000 T
b10000 ""
b10000 q
b1111100000000000 |
b10000 s
b10000 x
b1001110 &
b1001110 4
b1001110 H
07
b10000 -
b10000 L
b10000 j
b10000 0"
b10 @
b10 G
b10 #"
b10 )"
b10 &"
1'"
1!
#505003
0!
#510003
17
1$"
b1 $
b1 2
b100000 '
b100000 E
0'"
b10000 9
b10000 [
b11110000 =
b11110000 W
b0 :
b0 Z
b100000 >
b100000 V
1!
#515003
0!
#520003
0$"
b0 $
b0 2
b100000 Q
b100000 }
b100000 S
b100000 !"
b0 e
b100000 g
b100000 v
b0 &
b0 4
b0 H
07
b1111100000000000 c
b10000 /
b10000 N
b10000 `
b10000 1"
b11 @
b11 G
b11 #"
b11 )"
b11 &"
1'"
1!
#525003
0!
#530003
17
1$"
b1 $
b1 2
b10000 '
b10000 E
0'"
b100000 8
b100000 \
b100000 <
b100000 X
b11110000 :
b11110000 Z
b10000 >
b10000 V
1!
#535003
0!
#540003
0$"
b0 $
b0 2
b11100000 R
b11100000 ~
b100000 T
b100000 ""
b0 q
b1111000000000000 |
b100000 s
b100000 x
b111000 &
b111000 4
b111000 H
07
1C
b1111100000000000 o
b10000 1
b10000 P
b10000 l
b10000 2"
b0 @
b0 G
b0 #"
b0 )"
b0 &"
1'"
1!
#545003
0!
#550003
b0 '
b0 E
b1100 &
b1100 4
b1100 H
0'"
b100000 9
b100000 [
b11100000 =
b11100000 W
b0 :
b0 Z
b0 >
b0 V
0C
1D
1!
#555003
0!
#560003
b1101100 &
b1101100 4
b1101100 H
1A
0D
1!
#565003
0!
#570003
b11111111 (
b11111111 5
16
1%"
b10 $
b10 2
1!
#575003
0!
#580003
0%"
b0 $
b0 2
b0 (
b0 5
b1111100 &
b1111100 4
b1111100 H
b101110 '
b101110 E
06
b1 B
b1 F
1("
1!
#585003
0!
#590003
b11111111 (
b11111111 5
16
1%"
b10 $
b10 2
0("
1!
#595003
0!
#600003
0%"
b0 $
b0 2
b0 (
b0 5
b1110 &
b1110 4
b1110 H
b0 '
b0 E
06
b10 B
b10 F
1("
1!
#605003
0!
#610003
b11111111 (
b11111111 5
16
1%"
b10 $
b10 2
0("
1!
#615003
0!
#620003
0%"
b0 $
b0 2
b0 (
b0 5
b1101100 &
b1101100 4
b1101100 H
b100010 '
b100010 E
06
b11 B
b11 F
1("
1!
#625003
0!
#630003
b11111111 (
b11111111 5
16
1%"
b10 $
b10 2
0("
1!
#635003
0!
#640003
0%"
b0 $
b0 2
b0 (
b0 5
b0 '
b0 E
b1100 &
b1100 4
b1100 H
06
b0 B
b0 F
0A
1("
1!
#645003
0!
#650003
0("
1!
#650004
b0 R
b0 ~
b0 T
b0 ""
b0 Q
b0 }
b0 S
b0 !"
b0 q
b0 |
b0 s
b0 x
b0 e
b0 g
b0 v
b0 9
b0 [
b0 8
b0 \
b0 =
b0 W
b0 <
b0 X
b0 o
b0 1
b0 P
b0 l
b0 2"
b0 c
b0 /
b0 N
b0 `
b0 1"
b0 -
b0 L
b0 j
b0 0"
b0 +
b0 J
b0 ^
b0 /"
b100 3"
1)
b0 %
b0 3
b0 *"
0"
0#
#655004
0!
#660004
b100 3"
1!
#665004
0!
#670004
0)
1#
b100 3"
1!
#675004
0!
#680004
17
1$"
b1 $
b1 2
b10100011 %
b10100011 3
b10100011 *"
1"
1!
#685004
0!
#690004
0$"
b0 $
b0 2
b110000 R
b110000 ~
b110000 T
b110000 ""
b10100000 Q
b10100000 }
b10100000 S
b10100000 !"
b110000 f
b110000 h
b110000 u
b10100000 e
b10100000 g
b10100000 v
b1011010 &
b1011010 4
b1011010 H
07
b110000 *
b110000 I
b110000 ]
b110000 +"
b10100000 +
b10100000 J
b10100000 ^
b10100000 /"
b1 @
b1 G
b1 #"
b1 )"
b1 &"
1'"
1!
#695004
0!
#700004
17
1$"
b1 $
b1 2
b1100111 %
b1100111 3
b1100111 *"
b10100011 '
b10100011 E
0'"
b110000 9
b110000 [
b10100000 8
b10100000 \
b110000 =
b110000 W
b10100000 <
b10100000 X
b110000 ;
b110000 Y
b10100000 :
b10100000 Z
b110000 ?
b110000 U
b10100000 >
b10100000 V
1!
#705004
0!
#710004
0$"
b0 $
b0 2
b10000 Q
b10000 }
b110000 S
b110000 !"
b11010000 R
b11010000 ~
b10010000 T
b10010000 ""
b1110000 r
b11100000000000 {
b1110000 t
b1110000 w
b1100000 q
b1101000000000000 |
b1100000 s
b1100000 x
b1001110 &
b1001110 4
b1001110 H
07
b1110000 ,
b1110000 K
b1110000 i
b1110000 ,"
b1100000 -
b1100000 L
b1100000 j
b1100000 0"
b10 @
b10 G
b10 #"
b10 )"
b10 &"
1'"
1!
#715004
0!
#720004
17
1$"
b1 $
b1 2
b10001 %
b10001 3
b10001 *"
b1010 '
b1010 E
0'"
b10010000 9
b10010000 [
b110000 8
b110000 \
b11010000 =
b11010000 W
b10000 <
b10000 X
b11000000 ;
b11000000 Y
b1000000 :
b1000000 Z
b10100000 ?
b10100000 U
b0 >
b0 V
1!
#725004
0!
#730004
0$"
b0 $
b0 2
b11100000 R
b11100000 ~
b10100000 T
b10100000 ""
b100000 Q
b100000 }
b1000000 S
b1000000 !"
b100000 f
b1000000 h
b1000000 u
b10010000 e
b10110000 g
b10110000 v
b0 &
b0 4
b0 H
07
b1111100000000000 d
b10000 .
b10000 M
b10000 _
b10000 -"
b1111100000000000 c
b10000 /
b10000 N
b10000 `
b10000 1"
b11 @
b11 G
b11 #"
b11 )"
b11 &"
1'"
1!
#735004
0!
#740004
17
1$"
b1 $
b1 2
b10101010 %
b10101010 3
b10101010 *"
b11111001 '
b11111001 E
0'"
b10100000 9
b10100000 [
b1000000 8
b1000000 \
b11100000 =
b11100000 W
b100000 <
b100000 X
b10110000 ;
b10110000 Y
b110000 :
b110000 Z
b10010000 ?
b10010000 U
b11110000 >
b11110000 V
1!
#745004
0!
#750004
0$"
b0 $
b0 2
b11000000 Q
b11000000 }
b10100000 S
b10100000 !"
b1000000 R
b1000000 ~
b1000000 T
b1000000 ""
b11010000 r
b100000000000 {
b10000 t
b10000 w
b11000000 q
b0 |
b0 s
b0 x
b111000 &
b111000 4
b111000 H
07
1C
b11000000000000 p
b10100000 0
b10100000 O
b10100000 k
b10100000 ."
b11000000000000 o
b10100000 1
b10100000 P
b10100000 l
b10100000 2"
b0 @
b0 G
b0 #"
b0 )"
b0 &"
1'"
1!
#755004
0!
#760004
b1011111 '
b1011111 E
b1100 &
b1100 4
b1100 H
0'"
b1000000 9
b1000000 [
b10100000 8
b10100000 \
b1000000 =
b1000000 W
b11000000 <
b11000000 X
b1010000 ;
b1010000 Y
b11010000 :
b11010000 Z
b11110000 ?
b11110000 U
b1010000 >
b1010000 V
0C
1D
1!
#765004
0!
#770004
b1101100 &
b1101100 4
b1101100 H
1A
0D
1!
#775004
0!
#780004
b11111111 (
b11111111 5
16
1%"
b10 $
b10 2
1!
#785004
0!
#790004
0%"
b0 $
b0 2
b0 (
b0 5
b1111100 &
b1111100 4
b1111100 H
b11000100 '
b11000100 E
06
b1 B
b1 F
1("
1!
#795004
0!
#800004
b11111111 (
b11111111 5
16
1%"
b10 $
b10 2
0("
1!
#805004
0!
#810004
0%"
b0 $
b0 2
b0 (
b0 5
b1110 &
b1110 4
b1110 H
b11010101 '
b11010101 E
06
b10 B
b10 F
1("
1!
#815004
0!
#820004
b11111111 (
b11111111 5
16
1%"
b10 $
b10 2
0("
1!
#825004
0!
#830004
0%"
b0 $
b0 2
b0 (
b0 5
b1101100 &
b1101100 4
b1101100 H
b10100100 '
b10100100 E
06
b11 B
b11 F
1("
1!
#835004
0!
#840004
b11111111 (
b11111111 5
16
1%"
b10 $
b10 2
0("
1!
#845004
0!
#850004
0%"
b0 $
b0 2
b0 (
b0 5
b1011111 '
b1011111 E
b1100 &
b1100 4
b1100 H
06
b0 B
b0 F
0A
1("
1!
#855004
0!
#860004
b0 R
b0 ~
b0 T
b0 ""
b0 Q
b0 }
b0 S
b0 !"
b0 '
b0 E
b0 r
b0 {
b0 t
b0 w
b0 q
b0 |
b0 s
b0 x
b0 f
b0 h
b0 u
b0 e
b0 g
b0 v
b0 9
b0 [
b0 8
b0 \
b0 ;
b0 Y
b0 :
b0 Z
b0 =
b0 W
b0 <
b0 X
b0 ?
b0 U
b0 >
b0 V
b0 p
b0 0
b0 O
b0 k
b0 ."
b0 o
b0 1
b0 P
b0 l
b0 2"
b0 d
b0 .
b0 M
b0 _
b0 -"
b0 c
b0 /
b0 N
b0 `
b0 1"
b0 ,
b0 K
b0 i
b0 ,"
b0 -
b0 L
b0 j
b0 0"
b0 *
b0 I
b0 ]
b0 +"
b0 +
b0 J
b0 ^
b0 /"
b100 3"
1)
b0 %
b0 3
b0 *"
0"
0#
0("
1!
#865004
0!
#870004
b100 3"
1!
#875004
0!
#880004
0)
1#
b100 3"
1!
#885004
0!
#890004
17
1$"
b1 $
b1 2
b101 %
b101 3
b101 *"
1"
1!
#895004
0!
#900004
0$"
b0 $
b0 2
b1010000 R
b1010000 ~
b1010000 T
b1010000 ""
b1010000 f
b1010000 h
b1010000 u
b1011010 &
b1011010 4
b1011010 H
07
b1010000 *
b1010000 I
b1010000 ]
b1010000 +"
b1 @
b1 G
b1 #"
b1 )"
b1 &"
1'"
1!
#905004
0!
#910004
17
1$"
b1 $
b1 2
b1101010 %
b1101010 3
b1101010 *"
b101 '
b101 E
0'"
b1010000 9
b1010000 [
b1010000 =
b1010000 W
b1010000 ;
b1010000 Y
b1010000 ?
b1010000 U
1!
#915004
0!
#920004
0$"
b0 $
b0 2
b10100000 Q
b10100000 }
b1100000 S
b1100000 !"
b11110000 R
b11110000 ~
b10110000 T
b10110000 ""
b10100000 r
b1101000000000000 {
b10100000 t
b10100000 w
b1100000 q
b1101000000000000 |
b1100000 s
b1100000 x
b1001110 &
b1001110 4
b1001110 H
07
b10100000 ,
b10100000 K
b10100000 i
b10100000 ,"
b1100000 -
b1100000 L
b1100000 j
b1100000 0"
b10 @
b10 G
b10 #"
b10 )"
b10 &"
1'"
1!
#925004
0!
#930004
17
1$"
b1 $
b1 2
b11001110 %
b11001110 3
b11001110 *"
b1101111 '
b1101111 E
0'"
b10110000 9
b10110000 [
b1100000 8
b1100000 \
b11110000 =
b11110000 W
b10100000 <
b10100000 X
b10110000 ;
b10110000 Y
b10100000 :
b10100000 Z
b11110000 ?
b11110000 U
b1100000 >
b1100000 V
1!
#935004
0!
#940004
0$"
b0 $
b0 2
b11010000 R
b11010000 ~
b10010000 T
b10010000 ""
b1100000 Q
b1100000 }
b100000 S
b100000 !"
b1110000 f
b110000 h
b110000 u
b1000000 e
b11000000 g
b11000000 v
b0 &
b0 4
b0 H
07
b1000000000000 d
b11100000 .
b11100000 M
b11100000 _
b11100000 -"
b10000000000000 c
b11000000 /
b11000000 N
b11000000 `
b11000000 1"
b11 @
b11 G
b11 #"
b11 )"
b11 &"
1'"
1!
#945004
0!
#950004
17
1$"
b1 $
b1 2
b10001001 %
b10001001 3
b10001001 *"
b10100001 '
b10100001 E
0'"
b10010000 9
b10010000 [
b100000 8
b100000 \
b11010000 =
b11010000 W
b1100000 <
b1100000 X
b11010000 ;
b11010000 Y
b11100000 :
b11100000 Z
b10000 ?
b10000 U
b10100000 >
b10100000 V
1!
#955004
0!
#960004
0$"
b0 $
b0 2
b11110000 Q
b11110000 }
b10010000 S
b10010000 !"
b1010000 R
b1010000 ~
b10000 T
b10000 ""
b10000 r
b1100000000000 {
b110000 t
b110000 w
b11100000 q
b1000000000000 |
b11100000 s
b11100000 x
b111000 &
b111000 4
b111000 H
07
1C
b11100000000000 p
b10010000 0
b10010000 O
b10010000 k
b10010000 ."
b100000000000000 o
b10000000 1
b10000000 P
b10000000 l
b10000000 2"
b0 @
b0 G
b0 #"
b0 )"
b0 &"
1'"
1!
#965004
0!
#970004
b101000 '
b101000 E
b1100 &
b1100 4
b1100 H
0'"
b10000 9
b10000 [
b10010000 8
b10010000 \
b1010000 =
b1010000 W
b11110000 <
b11110000 X
b1100000 ;
b1100000 Y
b1100000 :
b1100000 Z
b10000000 ?
b10000000 U
b100000 >
b100000 V
0C
1D
1!
#975004
0!
#980004
b1101100 &
b1101100 4
b1101100 H
1A
0D
1!
#985004
0!
#990004
b11111111 (
b11111111 5
16
1%"
b10 $
b10 2
1!
#995004
0!
#1000004
0%"
b0 $
b0 2
b0 (
b0 5
b1111100 &
b1111100 4
b1111100 H
b11110101 '
b11110101 E
06
b1 B
b1 F
1("
1!
#1005004
0!
#1010004
b11111111 (
b11111111 5
16
1%"
b10 $
b10 2
0("
1!
#1015004
0!
#1020004
0%"
b0 $
b0 2
b0 (
b0 5
b1110 &
b1110 4
b1110 H
b1100110 '
b1100110 E
06
b10 B
b10 F
1("
1!
#1025004
0!
#1030004
b11111111 (
b11111111 5
16
1%"
b10 $
b10 2
0("
1!
#1035004
0!
#1040004
0%"
b0 $
b0 2
b0 (
b0 5
b1101100 &
b1101100 4
b1101100 H
b10010001 '
b10010001 E
06
b11 B
b11 F
1("
1!
#1045004
0!
#1050004
b11111111 (
b11111111 5
16
1%"
b10 $
b10 2
0("
1!
#1055004
0!
#1060004
0%"
b0 $
b0 2
b0 (
b0 5
b101000 '
b101000 E
b1100 &
b1100 4
b1100 H
06
b0 B
b0 F
0A
1("
1!
#1065004
0!
